\relax 
\providecommand\hyper@newdestlabel[2]{}
\providecommand\babel@aux[2]{}
\@nameuse{bbl@beforestart}
\catcode `"\active 
\catcode `-\active 
\catcode `^\active 
\catcode `'\active 
\providecommand\HyperFirstAtBeginDocument{\AtBeginDocument}
\HyperFirstAtBeginDocument{\ifx\hyper@anchor\@undefined
\global\let\oldcontentsline\contentsline
\gdef\contentsline#1#2#3#4{\oldcontentsline{#1}{#2}{#3}}
\global\let\oldnewlabel\newlabel
\gdef\newlabel#1#2{\newlabelxx{#1}#2}
\gdef\newlabelxx#1#2#3#4#5#6{\oldnewlabel{#1}{{#2}{#3}}}
\AtEndDocument{\ifx\hyper@anchor\@undefined
\let\contentsline\oldcontentsline
\let\newlabel\oldnewlabel
\fi}
\fi}
\global\let\hyper@last\relax 
\gdef\HyperFirstAtBeginDocument#1{#1}
\providecommand\HyField@AuxAddToFields[1]{}
\providecommand\HyField@AuxAddToCoFields[2]{}
\babel@aux{czech}{}
\babel@aux{english}{}
\babel@aux{slovak}{}
\babel@aux{czech}{}
\pgfsyspdfmark {pgfid1}{5719326}{47216927}
\pgfsyspdfmark {pgfid2}{5719326}{47216927}
\newlabel{antoch-uvod/antoch-uvod}{{}{3}{}{section*.1}{}}
\babel@aux{czech}{}
\babel@aux{czech}{}
\newlabel{pesta/pesta}{{}{4}{}{section*.2}{}}
\babel@aux{slovak}{}
\babel@aux{czech}{}
\newlabel{wimmer/wimmer}{{}{5}{}{section*.3}{}}
\babel@aux{english}{}
\@writefile{toc}{\contentsline {part}{Gejza Wimmer: \'Uvodn\'e slov\'a k\IeC {\nobreakspace  }predn\'a\v ske prof. Wimmerana symp\'oziu pri pr\IeC {\'\i }le\v zitosti 70. naroden\IeC {\'\i }n prof. Antocha}{5}{section*.4}\protected@file@percent }
\babel@aux{czech}{}
\newlabel{miura/miura}{{}{6}{}{section*.5}{}}
\babel@aux{english}{}
\babel@aux{czech}{}
\newlabel{noel/noel}{{}{9}{}{section*.6}{}}
\babel@aux{english}{}
\babel@aux{czech}{}
\newlabel{nemoga/nemoga}{{}{10}{}{section*.7}{}}
\babel@aux{slovak}{}
\babel@aux{czech}{}
\newlabel{cerny/cerny}{{}{11}{}{section*.8}{}}
\babel@aux{english}{}
\babel@aux{czech}{}
\newlabel{volf2/volf2}{{}{13}{}{section*.9}{}}
\babel@aux{english}{}
\@writefile{toc}{\contentsline {part}{Petr Volf: P\v rehled vybran\'ych metod \v re\v sen\IeC {\'\i } \'ulohyline\'arn\IeC {\'\i } regrese s~cenzorovan\'ymi daty}{13}{section*.10}\protected@file@percent }
\babel@aux{czech}{}
\babel@aux{english}{}
\babel@aux{czech}{}
\babel@aux{english}{}
\babel@aux{english}{}
\babel@aux{english}{}
\babel@aux{english}{}
\babel@aux{english}{}
\@writefile{toc}{\contentsline {section}{\numberline {1}Introduction}{13}{section.11}\protected@file@percent }
\citation{Cox}
\citation{Mill}
\citation{BuJa}
\citation{KSVR}
\citation{KSVR}
\@writefile{brf}{\backcite{Cox}{{14}{1}{section.11}}}
\@writefile{brf}{\backcite{Mill}{{14}{1}{section.11}}}
\@writefile{brf}{\backcite{BuJa}{{14}{1}{section.11}}}
\@writefile{brf}{\backcite{KSVR}{{14}{1}{section.11}}}
\@writefile{brf}{\backcite{KSVR}{{14}{1}{section.11}}}
\@writefile{toc}{\contentsline {section}{\numberline {2}Overview of methods}{14}{section.12}\protected@file@percent }
\citation{Mill}
\@writefile{toc}{\contentsline {subsection}{\numberline {2.1}Miller's estimator}{15}{subsection.13}\protected@file@percent }
\@writefile{brf}{\backcite{Mill}{{15}{2.1}{subsection.13}}}
\citation{BuJa}
\@writefile{toc}{\contentsline {subsection}{\numberline {2.2}Buckley and James}{16}{subsection.14}\protected@file@percent }
\@writefile{brf}{\backcite{BuJa}{{16}{2.2}{subsection.14}}}
\citation{JaSm}
\citation{Jin}
\citation{KSVR}
\@writefile{brf}{\backcite{JaSm}{{17}{2.2}{subsection.14}}}
\@writefile{brf}{\backcite{Jin}{{17}{2.2}{subsection.14}}}
\@writefile{toc}{\contentsline {subsection}{\numberline {2.3}Koul, Susarla, and Van Ryzin}{17}{subsection.15}\protected@file@percent }
\@writefile{brf}{\backcite{KSVR}{{17}{2.3}{subsection.15}}}
\@writefile{toc}{\contentsline {section}{\numberline {3}A~general formulation of likelihood with censored data}{18}{section.16}\protected@file@percent }
\citation{BaNi,KaPr}
\@writefile{toc}{\contentsline {subsection}{\numberline {3.1}Semi-parametric AFT regression model}{19}{subsection.17}\protected@file@percent }
\@writefile{brf}{\backcite{BaNi,KaPr}{{19}{3.1}{subsection.17}}}
\citation{LiWe}
\citation{BaNi}
\citation{VoTi}
\citation{LiWe}
\citation{LiWe}
\citation{Nov}
\@writefile{brf}{\backcite{LiWe}{{20}{3.1}{subsection.17}}}
\@writefile{brf}{\backcite{BaNi}{{20}{3.1}{subsection.17}}}
\@writefile{brf}{\backcite{VoTi}{{20}{3.1}{subsection.17}}}
\@writefile{brf}{\backcite{LiWe}{{20}{3.1}{subsection.17}}}
\@writefile{brf}{\backcite{LiWe}{{20}{3.1}{subsection.17}}}
\@writefile{brf}{\backcite{Nov}{{20}{3.1}{subsection.17}}}
\@writefile{toc}{\contentsline {section}{\numberline {4}Examples}{20}{section.20}\protected@file@percent }
\@writefile{toc}{\contentsline {subsection}{\numberline {4.1}Example 1}{21}{subsection.21}\protected@file@percent }
\@writefile{lof}{\contentsline {figure}{\numberline {1}{\ignorespaces Values of $Y$ before censoring (left) and after, censored values of $Y^*$ are denoted by `o' (right).\relax }}{21}{figure.caption.18}\protected@file@percent }
\providecommand*\caption@xref[2]{\@setref\relax\@undefined{#1}}
\newlabel{volf1}{{1}{21}{Values of $Y$ before censoring (left) and after, censored values of $Y^*$ are denoted by `o' (right).\relax }{figure.caption.18}{}}
\@writefile{lof}{\contentsline {figure}{\numberline {2}{\ignorespaces Results of the BJ procedure after 2nd iteration. Reconstructed censored values are denoted by `o'.\relax }}{22}{figure.caption.19}\protected@file@percent }
\newlabel{volf2}{{2}{22}{Results of the BJ procedure after 2nd iteration. Reconstructed censored values are denoted by `o'.\relax }{figure.caption.19}{}}
\@writefile{lof}{\contentsline {figure}{\numberline {3}{\ignorespaces Values $Y^K(X)$ reconstructed via the Koul et al. method (covariate $x$ is on horizontal axis). All censored values, denoted by `o', were set to zero.\relax }}{23}{figure.caption.22}\protected@file@percent }
\newlabel{volf3}{{3}{23}{Values $Y^K(X)$ reconstructed via the Koul et al. method (covariate $x$ is on horizontal axis). All censored values, denoted by `o', were set to zero.\relax }{figure.caption.22}{}}
\@writefile{lof}{\contentsline {figure}{\numberline {4}{\ignorespaces AFT model: Nonparametric estimate of the baseline CHR (full curve) and its comparison with `true' log-normal CHR (dashed curve).\relax }}{23}{figure.caption.23}\protected@file@percent }
\newlabel{volf4}{{4}{23}{AFT model: Nonparametric estimate of the baseline CHR (full curve) and its comparison with `true' log-normal CHR (dashed curve).\relax }{figure.caption.23}{}}
\@writefile{toc}{\contentsline {subsection}{\numberline {4.2}Example 2}{24}{subsection.24}\protected@file@percent }
\@writefile{lot}{\contentsline {table}{\numberline {1}{\ignorespaces Results of estimation of regression parameter $\beta $, 200 repetitions, from data of size $N=100$ and $N=500$.\relax }}{24}{table.caption.25}\protected@file@percent }
\newlabel{table1}{{1}{24}{Results of estimation of regression parameter $\beta $, 200 repetitions, from data of size $N=100$ and $N=500$.\relax }{table.caption.25}{}}
\citation{VoTi}
\bibcite{BaNi}{1}
\@writefile{toc}{\contentsline {section}{\numberline {5}Concluding remarks}{25}{section.26}\protected@file@percent }
\@writefile{brf}{\backcite{VoTi}{{25}{5}{section.26}}}
\bibcite{BuJa}{2}
\bibcite{Cox}{3}
\bibcite{JaSm}{4}
\bibcite{Jin}{5}
\bibcite{KaPr}{6}
\bibcite{KSVR}{7}
\bibcite{LiWe}{8}
\bibcite{Mill}{9}
\bibcite{Nov}{10}
\bibcite{VoTi}{11}
\babel@aux{czech}{}
\newlabel{vencalek-kniha/vencalek-kniha}{{}{27}{}{section*.28}{}}
\babel@aux{czech}{}
\@writefile{toc}{\contentsline {part}{Ond\v rej Venc\'alek: Recenze knihy Temn\'a data}{27}{section*.29}\protected@file@percent }
\citation{kulich}
\citation{babbage}
\@writefile{brf}{\backcite{kulich}{{28}{(document)}{Doc-Start}}}
\bibcite{babbage}{1}
\bibcite{kulich}{2}
\@writefile{brf}{\backcite{babbage}{{29}{(document)}{Doc-Start}}}
\babel@aux{czech}{}
\newlabel{antoch-robust/antoch-robust}{{}{30}{}{section*.31}{}}
\babel@aux{czech}{}
\babel@aux{czech}{}
\gdef \@abspage@last{30}
