\relax 
\providecommand\babel@aux[2]{}
\@nameuse{bbl@beforestart}
\catcode `^\active 
\catcode `"\active 
\catcode `'\active 
\catcode `-\active 
\providecommand\hyper@newdestlabel[2]{}
\providecommand\HyField@AuxAddToFields[1]{}
\providecommand\HyField@AuxAddToCoFields[2]{}
\babel@aux{czech}{}
\babel@aux{english}{}
\babel@aux{czech}{}
\babel@aux{czech}{}
\pgfsyspdfmark {pgfid1}{5719326}{47403394}
\pgfsyspdfmark {pgfid2}{5719326}{47403394}
\newlabel{vencalek/vencalek}{{}{3}{}{section*.1}{}}
\babel@aux{czech}{}
\@writefile{toc}{\contentsline {part}{Ond\v rej Venc\'alek: Zpr\'ava o~\v cinnosti \v Cesk\'e statistick\'e spole\v cnosti (\v CStS) v~roce 2023}{3}{section*.2}\protected@file@percent }
\@writefile{toc}{\contentsline {section}{\numberline {1}\v Clensk\'a z\'akladna}{3}{section.3}\protected@file@percent }
\@writefile{toc}{\contentsline {section}{\numberline {2}\v Clensk\'a sch\r uze \v CStS; volby v\'yboru a~p\v redsedy spole\v cnosti}{3}{section.4}\protected@file@percent }
\@writefile{toc}{\contentsline {section}{\numberline {3}Dal\v s\IeC {\'\i } akce \v CStS}{4}{section.5}\protected@file@percent }
\@writefile{toc}{\contentsline {section}{\numberline {4}Spolupr\'ace s~\v Cesk\'ym statistick\'ym \'u\v radem}{4}{section.6}\protected@file@percent }
\@writefile{toc}{\contentsline {section}{\numberline {5}\v Clenstv\IeC {\'\i } v~mezin\'arodn\IeC {\'\i }ch organizac\IeC {\'\i }ch}{4}{section.7}\protected@file@percent }
\@writefile{toc}{\contentsline {section}{\numberline {6}\v Clenstv\IeC {\'\i } v~Rad\v e v\v edeck\'ych spole\v cnost\IeC {\'\i } \v CR}{4}{section.8}\protected@file@percent }
\@writefile{toc}{\contentsline {section}{\numberline {7}Dal\v s\IeC {\'\i } \v cinnost}{5}{section.9}\protected@file@percent }
\@writefile{toc}{\contentsline {section}{\numberline {8}Akce chystan\'e v~roce 2024}{5}{section.10}\protected@file@percent }
\babel@aux{czech}{}
\citation{tille}
\newlabel{andel-martin/andel-martin}{{}{6}{}{section*.11}{}}
\babel@aux{czech}{}
\@writefile{toc}{\contentsline {part}{Martin And\v el: V\'{y}b\v {e}r podle kv\'{o}t}{6}{section*.12}\protected@file@percent }
\babel@aux{czech}{}
\babel@aux{czech}{}
\babel@aux{czech}{}
\babel@aux{czech}{}
\babel@aux{english}{}
\babel@aux{czech}{}
\babel@aux{english}{}
\babel@aux{czech}{}
\@writefile{toc}{\contentsline {section}{\numberline {1}\'Uvod}{6}{section.13}\protected@file@percent }
\newlabel{sec01}{{1}{6}{Úvod}{section.13}{}}
\@writefile{brf}{\backcite{tille}{{6}{1}{section.13}}}
\citation{optimisation}
\@writefile{lot}{\contentsline {table}{\numberline {1}{\ignorespaces Datab\'aze a po\v zadovan\'a struktura v\'yb\v eru}}{7}{table.caption.14}\protected@file@percent }
\providecommand*\caption@xref[2]{\@setref\relax\@undefined{#1}}
\newlabel{table:dtbstruct}{{1}{7}{Databáze a požadovaná struktura výběru}{table.caption.14}{}}
\@writefile{toc}{\contentsline {section}{\numberline {2}Kdy\v z v\'yb\v er existuje}{7}{section.15}\protected@file@percent }
\@writefile{brf}{\backcite{optimisation}{{8}{2}{section.15}}}
\citation{symphony}
\citation{cplex}
\@writefile{brf}{\backcite{symphony}{{9}{2}{equation.16}}}
\@writefile{brf}{\backcite{cplex}{{9}{2}{equation.16}}}
\@writefile{toc}{\contentsline {section}{\numberline {3}Kdy\v z v\'yb\v er neexistuje}{9}{section.17}\protected@file@percent }
\newlabel{neexistuje}{{3}{9}{Když výběr neexistuje}{section.17}{}}
\@writefile{lot}{\contentsline {table}{\numberline {2}{\ignorespaces V\'yb\v er bl\IeC {\'\i }zk\'y po\v zadovan\'e struktu\v re}}{10}{table.caption.18}\protected@file@percent }
\newlabel{table:sampstruct}{{2}{10}{Výběr blízký požadované struktuře}{table.caption.18}{}}
\newlabel{eqn:ulohaneexistuje}{{2}{10}{Když výběr neexistuje}{equation.19}{}}
\citation{cplex}
\@writefile{toc}{\contentsline {section}{\numberline {4}Kvadratick\'a minimalizace}{12}{section.20}\protected@file@percent }
\@writefile{brf}{\backcite{cplex}{{12}{4}{equation.21}}}
\citation{gurobi}
\@writefile{brf}{\backcite{gurobi}{{13}{4}{equation.21}}}
\@writefile{lot}{\contentsline {table}{\numberline {3}{\ignorespaces Optim\'aln\IeC {\'\i } v\'yb\v er}}{14}{table.caption.22}\protected@file@percent }
\newlabel{table:sampoptim}{{3}{14}{Optimální výběr}{table.caption.22}{}}
\@writefile{toc}{\contentsline {section}{\numberline {5}Nejv\v et\v s\IeC {\'\i } mo\v zn\'y v\'yb\v er}{14}{section.24}\protected@file@percent }
\@writefile{lot}{\contentsline {table}{\numberline {4}{\ignorespaces V\'yb\v er s~minim\'aln\IeC {\'\i }m $\chi ^2$}}{15}{table.caption.23}\protected@file@percent }
\newlabel{table:sampchi}{{4}{15}{Výběr s~minimálním $\chi ^2$}{table.caption.23}{}}
\citation{roineos}
\@writefile{lot}{\contentsline {table}{\numberline {5}{\ignorespaces Maxim\'aln\IeC {\'\i } mo\v zn\'y v\'yb\v er}}{16}{table.caption.26}\protected@file@percent }
\newlabel{table:sampmax}{{5}{16}{Maximální možný výběr}{table.caption.26}{}}
\@writefile{toc}{\contentsline {section}{\numberline {6}V\'yb\v er s pou\v zit\IeC {\'\i }m knihovny ROI a jej\IeC {\'\i }ch dopl\v nk\r u}{16}{section.27}\protected@file@percent }
\newlabel{roi}{{6}{16}{Výběr s použitím knihovny ROI a jejích doplňků}{section.27}{}}
\@writefile{brf}{\backcite{roineos}{{16}{6}{section.27}}}
\bibcite{symphony}{1}
\bibcite{cplex}{2}
\bibcite{gurobi}{3}
\bibcite{roineos}{4}
\bibcite{optimisation}{5}
\bibcite{tille}{6}
\@writefile{toc}{\contentsline {section}{\numberline {7}Z\'av\v er}{18}{section.28}\protected@file@percent }
\babel@aux{czech}{}
\newlabel{antoch/antoch}{{}{19}{}{section*.31}{}}
\babel@aux{czech}{}
\@writefile{toc}{\contentsline {part}{Jarom\IeC {\'\i }r Antoch: PROBASTAT 2024}{19}{section*.32}\protected@file@percent }
\babel@aux{czech}{}
\newlabel{martinkova/martinkova}{{}{21}{}{section*.33}{}}
\babel@aux{czech}{}
\@writefile{toc}{\contentsline {part}{Patr\IeC {\'\i }cia Martinkov\'a: Pozv\'anka na IMPS 2024}{21}{section*.34}\protected@file@percent }
\babel@aux{english}{}
\babel@aux{czech}{}
\babel@aux{czech}{}
\newlabel{tug/tug}{{}{22}{}{section*.35}{}}
\babel@aux{czech}{}
\@writefile{toc}{\contentsline {part}{Michal Hoftich: Pozv\'anka na TUG 2024}{22}{section*.36}\protected@file@percent }
\babel@aux{czech}{}
\gdef \@abspage@last{22}
