\relax 
\providecommand\hyper@newdestlabel[2]{}
\providecommand\babel@aux[2]{}
\@nameuse{bbl@beforestart}
\catcode `"\active 
\catcode `-\active 
\providecommand\HyperFirstAtBeginDocument{\AtBeginDocument}
\HyperFirstAtBeginDocument{\ifx\hyper@anchor\@undefined
\global\let\oldcontentsline\contentsline
\gdef\contentsline#1#2#3#4{\oldcontentsline{#1}{#2}{#3}}
\global\let\oldnewlabel\newlabel
\gdef\newlabel#1#2{\newlabelxx{#1}#2}
\gdef\newlabelxx#1#2#3#4#5#6{\oldnewlabel{#1}{{#2}{#3}}}
\AtEndDocument{\ifx\hyper@anchor\@undefined
\let\contentsline\oldcontentsline
\let\newlabel\oldnewlabel
\fi}
\fi}
\global\let\hyper@last\relax 
\gdef\HyperFirstAtBeginDocument#1{#1}
\providecommand\HyField@AuxAddToFields[1]{}
\providecommand\HyField@AuxAddToCoFields[2]{}
\babel@aux{czech}{}
\babel@aux{english}{}
\babel@aux{czech}{}
\babel@aux{czech}{}
\pgfsyspdfmark {pgfid1}{5719326}{47216927}
\pgfsyspdfmark {pgfid2}{5719326}{47216927}
\newlabel{klaschka/klaschka}{{}{3}{}{section*.1}{}}
\babel@aux{czech}{}
\@writefile{toc}{\contentsline {part}{Jan Klaschka: K osmdes\'atin\'am Zde\v nka Fabi\'ana}{3}{section*.2}\protected@file@percent }
\babel@aux{czech}{}
\newlabel{fabian/fabian3}{{}{6}{}{section*.4}{}}
\babel@aux{czech}{}
\@writefile{toc}{\contentsline {part}{Zden\v ek Fabi\'an: Dv\v e pozn\'amky k~Honzov\v e p\IeC {\'\i }sni\v cce}{6}{section*.5}\protected@file@percent }
\babel@aux{czech}{}
\babel@aux{czech}{}
\babel@aux{czech}{}
\babel@aux{czech}{}
\babel@aux{english}{}
\babel@aux{czech}{}
\babel@aux{english}{}
\babel@aux{czech}{}
\@writefile{toc}{\contentsline {section}{\numberline {1}\'Uvod}{6}{section.6}\protected@file@percent }
\@writefile{toc}{\contentsline {section}{\numberline {2}Kovanic}{6}{section.7}\protected@file@percent }
\citation{1}
\citation{2}
\citation{3}
\@writefile{brf}{\backcite{1}{{7}{2}{section.7}}}
\@writefile{brf}{\backcite{2}{{7}{2}{section.7}}}
\@writefile{brf}{\backcite{3}{{7}{2}{section.7}}}
\@writefile{toc}{\contentsline {section}{\numberline {3}Skal\'ary}{8}{section.8}\protected@file@percent }
\@writefile{toc}{\contentsline {subsection}{\numberline {3.1}Sk\'orov\'a funkce}{8}{subsection.9}\protected@file@percent }
\newlabel{score}{{1}{8}{Skórová funkce}{equation.10}{}}
\newlabel{eq}{{2}{8}{Skórová funkce}{equation.11}{}}
\newlabel{lik}{{3}{8}{Skórová funkce}{equation.12}{}}
\newlabel{ML}{{4}{8}{Skórová funkce}{equation.13}{}}
\citation{4}
\newlabel{MOM}{{5}{9}{Skórová funkce}{equation.14}{}}
\@writefile{brf}{\backcite{4}{{9}{3.1}{equation.14}}}
\@writefile{lot}{\contentsline {table}{\numberline {1}{\ignorespaces $S_G$: nejjednodu\v s\v s\IeC {\'\i } sk\'orov\'e funkce typu N neomezen\'a, O~omezen\'a, E exponenci\'aln\IeC {\'\i }, P polynomi\'aln\IeC {\'\i }, R redescentn\IeC {\'\i }. $g$ je p\v r\IeC {\'\i }slu\v sn\'a hustota z~(\ref  {score}).\relax }}{9}{table.caption.15}\protected@file@percent }
\providecommand*\caption@xref[2]{\@setref\relax\@undefined{#1}}
\newlabel{tab1}{{1}{9}{$S_G$: nejjednodušší skórové funkce typu N neomezená, O~omezená, E exponenciální, P polynomiální, R redescentní. $g$ je příslušná hustota z~(\ref {score}).\relax }{table.caption.15}{}}
\@writefile{toc}{\contentsline {subsection}{\numberline {3.2}Sk\'orov\'a funkce na intervalu a~polop\v r\IeC {\'\i }mce}{9}{subsection.16}\protected@file@percent }
\citation{4}
\citation{5}
\citation{6}
\citation{7}
\newlabel{RV}{{6}{10}{Skórová funkce na intervalu a~polopřímce}{equation.17}{}}
\newlabel{traf}{{7}{10}{Skórová funkce na intervalu a~polopřímce}{equation.18}{}}
\@writefile{brf}{\backcite{4}{{10}{3.2}{equation.18}}}
\newlabel{tscor}{{8}{10}{Skórová funkce na intervalu a~polopřímce}{equation.19}{}}
\@writefile{brf}{\backcite{5}{{10}{3.2}{equation.19}}}
\newlabel{tscore}{{9}{10}{Skórová funkce na intervalu a~polopřímce}{equation.20}{}}
\@writefile{brf}{\backcite{6}{{10}{3.2}{equation.20}}}
\citation{8}
\citation{7}
\citation{8}
\@writefile{brf}{\backcite{7}{{11}{3.2}{equation.20}}}
\newlabel{MOM2}{{10}{11}{Skórová funkce na intervalu a~polopřímce}{equation.21}{}}
\newlabel{Vary}{{11}{11}{Skórová funkce na intervalu a~polopřímce}{equation.22}{}}
\@writefile{brf}{\backcite{8}{{11}{3.2}{equation.22}}}
\newlabel{weight}{{12}{11}{Skórová funkce na intervalu a~polopřímce}{equation.23}{}}
\@writefile{brf}{\backcite{7}{{11}{3.2}{equation.23}}}
\newlabel{delta}{{13}{11}{Skórová funkce na intervalu a~polopřímce}{equation.24}{}}
\@writefile{brf}{\backcite{8}{{11}{3.2}{equation.24}}}
\@writefile{toc}{\contentsline {subsection}{\numberline {3.3}Centr\'aln\IeC {\'\i } limitn\IeC {\'\i } v\v eta pro sk\'orov\'e n\'ahodn\'e veli\v ciny}{11}{subsection.26}\protected@file@percent }
\citation{6}
\citation{7}
\@writefile{lot}{\contentsline {table}{\numberline {2}{\ignorespaces Charakteristiky transformovan\'ych standardn\IeC {\'\i }ch rozd\v elen\IeC {\'\i } (GIG je Generalized Inverse Gaussian).\relax }}{12}{table.caption.25}\protected@file@percent }
\newlabel{tab2}{{2}{12}{Charakteristiky transformovaných standardních rozdělení (GIG je Generalized Inverse Gaussian).\relax }{table.caption.25}{}}
\@writefile{toc}{\contentsline {subsection}{\numberline {3.4}Skal\'arn\IeC {\'\i } sk\'orov\'a funkce parametrick\'ych rozd\v elen\IeC {\'\i }}{12}{subsection.27}\protected@file@percent }
\newlabel{cross}{{14}{12}{Skalární skórová funkce parametrických rozdělení}{equation.28}{}}
\@writefile{brf}{\backcite{6,7}{{12}{3.4}{equation.28}}}
\citation{6}
\@writefile{lot}{\contentsline {table}{\numberline {3}{\ignorespaces Hustoty, sk\'orov\'e funkce, typick\'e hodnoty a sk\'orov\'e rozptyly n\v ekolika rozd\v elen\IeC {\'\i } s t\v e\v zk\'ymi chvosty na ${\cal  R}^+$.\relax }}{13}{table.caption.29}\protected@file@percent }
\newlabel{tab3}{{3}{13}{Hustoty, skórové funkce, typické hodnoty a skórové rozptyly několika rozdělení s těžkými chvosty na ${\cal R}^+$.\relax }{table.caption.29}{}}
\@writefile{toc}{\contentsline {subsection}{\numberline {3.5}Odhady}{13}{subsection.33}\protected@file@percent }
\@writefile{brf}{\backcite{6}{{13}{3.5}{subsection.33}}}
\newlabel{IM}{{15}{13}{Odhady}{equation.34}{}}
\citation{6}
\@writefile{lof}{\contentsline {figure}{\numberline {1}{\ignorespaces Podobn\'e hustoty Fr\'echetov\'ych rozd\v elen\IeC {\'\i } s~velmi r\r uzn\'ymi rozptyly. Spodn\IeC {\'\i } obr\'azek z\'avislost $\mathrm  {Var}X$ a $\mathrm  {Var}_S X$ na rostouc\IeC {\'\i }m $c$.\relax }}{14}{figure.caption.31}\protected@file@percent }
\newlabel{obr1}{{1}{14}{Podobné hustoty Fréchetových rozdělení s~velmi různými rozptyly. Spodní obrázek závislost $\var X$ a $\Var _S X$ na rostoucím $c$.\relax }{figure.caption.31}{}}
\newlabel{nula}{{16}{14}{Odhady}{equation.35}{}}
\citation{7}
\@writefile{lof}{\contentsline {figure}{\numberline {2}{\ignorespaces Hustoty a~sk\'orov\'e funkce rozd\v elen\IeC {\'\i } $BP(2p,p)$.\relax }}{15}{figure.caption.32}\protected@file@percent }
\newlabel{obr2}{{2}{15}{Hustoty a~skórové funkce rozdělení $BP(2p,p)$.\relax }{figure.caption.32}{}}
\@writefile{brf}{\backcite{6}{{15}{3.5}{equation.35}}}
\citation{9}
\citation{10}
\citation{11}
\citation{8}
\citation{12}
\citation{13}
\citation{14}
\bibcite{1}{1}
\bibcite{2}{2}
\bibcite{3}{3}
\bibcite{4}{4}
\@writefile{brf}{\backcite{7}{{16}{3.5}{equation.35}}}
\@writefile{toc}{\contentsline {section}{\numberline {4}Z\'av\v erem}{16}{section.36}\protected@file@percent }
\@writefile{brf}{\backcite{9}{{16}{4}{section.36}}}
\@writefile{brf}{\backcite{10,11}{{16}{4}{section.36}}}
\@writefile{brf}{\backcite{8}{{16}{4}{section.36}}}
\@writefile{brf}{\backcite{12}{{16}{4}{section.36}}}
\@writefile{brf}{\backcite{13,14}{{16}{4}{section.36}}}
\babel@aux{english}{}
\bibcite{5}{5}
\bibcite{6}{6}
\bibcite{7}{7}
\bibcite{8}{8}
\bibcite{9}{9}
\bibcite{10}{10}
\bibcite{11}{11}
\bibcite{12}{12}
\bibcite{13}{13}
\bibcite{14}{14}
\babel@aux{czech}{}
\babel@aux{czech}{}
\newlabel{vencalek/vencalek}{{}{18}{}{section*.38}{}}
\babel@aux{czech}{}
\@writefile{toc}{\contentsline {part}{Redakce \v casopisu: Statistick\'e dny v~roce 2023}{18}{section*.39}\protected@file@percent }
\babel@aux{czech}{}
\gdef \@abspage@last{18}
