\relax 
\providecommand\hyper@newdestlabel[2]{}
\providecommand\babel@aux[2]{}
\@nameuse{bbl@beforestart}
\catcode `"\active 
\catcode `-\active 
\catcode `^\active 
\catcode `'\active 
\providecommand\HyperFirstAtBeginDocument{\AtBeginDocument}
\HyperFirstAtBeginDocument{\ifx\hyper@anchor\@undefined
\global\let\oldcontentsline\contentsline
\gdef\contentsline#1#2#3#4{\oldcontentsline{#1}{#2}{#3}}
\global\let\oldnewlabel\newlabel
\gdef\newlabel#1#2{\newlabelxx{#1}#2}
\gdef\newlabelxx#1#2#3#4#5#6{\oldnewlabel{#1}{{#2}{#3}}}
\AtEndDocument{\ifx\hyper@anchor\@undefined
\let\contentsline\oldcontentsline
\let\newlabel\oldnewlabel
\fi}
\fi}
\global\let\hyper@last\relax 
\gdef\HyperFirstAtBeginDocument#1{#1}
\providecommand\HyField@AuxAddToFields[1]{}
\providecommand\HyField@AuxAddToCoFields[2]{}
\babel@aux{czech}{}
\babel@aux{english}{}
\babel@aux{slovak}{}
\babel@aux{czech}{}
\pgfsyspdfmark {pgfid4}{5719326}{47216927}
\pgfsyspdfmark {pgfid5}{5719326}{47216927}
\newlabel{vencalek/vencalek}{{}{3}{}{section*.1}{}}
\babel@aux{czech}{}
\@writefile{toc}{\contentsline {part}{Ond\v rej Venc\'alek: Zpr\'ava o~\v cinnosti \v CStS v~roce 2020}{3}{section*.2}\protected@file@percent }
\@writefile{toc}{\contentsline {section}{\numberline {1.}\v Clensk\'a z\'akladna}{3}{section.3}\protected@file@percent }
\@writefile{toc}{\contentsline {section}{\numberline {2.}Akce po\v r\'adan\'e \v ci spolupo\v r\'adan\'e \v CStS}{3}{section.4}\protected@file@percent }
\@writefile{toc}{\contentsline {section}{\numberline {3.}Spolupr\'ace s~\v Cesk\'ym statistick\'ym \'u\v radem}{3}{section.7}\protected@file@percent }
\@writefile{toc}{\contentsline {section}{\numberline {4.}\v Clenstv\IeC {\'\i } v~mezin\'arodn\IeC {\'\i }ch organizac\IeC {\'\i }ch}{3}{section.8}\protected@file@percent }
\@writefile{toc}{\contentsline {section}{\numberline {5.}\v Clenstv\IeC {\'\i } v~Rad\v e v\v edeck\'ych spole\v cnost\IeC {\'\i } \v CR}{4}{section.9}\protected@file@percent }
\@writefile{toc}{\contentsline {section}{\numberline {6.}Dal\v s\IeC {\'\i } \v cinnost}{4}{section.10}\protected@file@percent }
\@writefile{toc}{\contentsline {section}{\numberline {7.}Akce chystan\'e v~roce 2021}{4}{section.11}\protected@file@percent }
\babel@aux{czech}{}
\newlabel{vencalek/setkani}{{}{5}{}{section*.12}{}}
\babel@aux{czech}{}
\@writefile{toc}{\contentsline {part}{V\'ybor spole\v cnosti: Setk\'an\IeC {\'\i } \v clen\r u \v CStS}{5}{section*.13}\protected@file@percent }
\babel@aux{czech}{}
\citation{Londyn}
\citation{NewYork}
\citation{AirCanada}
\citation{EasyJet}
\citation{Efron82}
\citation{Huskova95}
\newlabel{machek/machek}{{}{6}{}{section*.14}{}}
\babel@aux{czech}{}
\@writefile{toc}{\contentsline {part}{Josef Machek: Jak j\'a bych vykl\'adal metodu \uv  {Barona Pr\'a\v sila}zn\'amou v~statistick\'e literatu\v re jako Bootstrap}{6}{section*.15}\protected@file@percent }
\@writefile{brf}{\backcite{Efron82}{{6}{(document)}{Doc-Start}}}
\@writefile{brf}{\backcite{Huskova95}{{6}{(document)}{Doc-Start}}}
\@writefile{brf}{\backcite{Londyn}{{6}{1}{Hfootnote.16}}}
\@writefile{brf}{\backcite{NewYork}{{6}{1}{Hfootnote.16}}}
\@writefile{brf}{\backcite{AirCanada}{{6}{1}{Hfootnote.16}}}
\@writefile{brf}{\backcite{EasyJet}{{6}{1}{Hfootnote.16}}}
\citation{Machek99}
\@writefile{brf}{\backcite{Machek99}{{7}{3}{Hfootnote.18}}}
\citation{Thoman70}
\citation{Thoman70}
\@writefile{brf}{\backcite{Thoman70}{{9}{(document)}{Doc-Start}}}
\newlabel{eq:Weibhustota}{{1}{9}{}{equation.21}{}}
\newlabel{eq:WeibRovniceI}{{2}{9}{}{equation.23}{}}
\newlabel{eq:WeibRovniceII}{{3}{9}{}{equation.24}{}}
\newlabel{eq:ExpHustota}{{4}{9}{}{equation.25}{}}
\@writefile{brf}{\backcite{Thoman70}{{9}{6}{Hfootnote.22}}}
\newlabel{eq:WeibRovniceIII}{{5}{10}{}{equation.26}{}}
\citation{Efron79}
\@writefile{brf}{\backcite{Efron79}{{11}{(document)}{Doc-Start}}}
\citation{Mammen92}
\citation{Praskova04}
\citation{Praskova00}
\@writefile{brf}{\backcite{Mammen92}{{13}{(document)}{Doc-Start}}}
\@writefile{brf}{\backcite{Praskova04}{{13}{(document)}{Doc-Start}}}
\@writefile{brf}{\backcite{Praskova00}{{13}{(document)}{Doc-Start}}}
\bibcite{Machek99}{1}
\bibcite{Huskova95}{2}
\bibcite{Efron79}{3}
\bibcite{Efron82}{4}
\bibcite{Mammen92}{5}
\bibcite{Praskova04}{6}
\bibcite{Praskova00}{7}
\bibcite{Thoman70}{8}
\bibcite{Londyn}{9}
\bibcite{NewYork}{10}
\bibcite{AirCanada}{11}
\bibcite{EasyJet}{12}
\babel@aux{czech}{}
\newlabel{cipra/cipra}{{}{15}{}{section*.39}{}}
\babel@aux{czech}{}
\@writefile{toc}{\contentsline {part}{Tom\'a\v s Cipra: Vzpom\IeC {\'\i }nka na profesora Ji\v r\IeC {\'\i }ho And\v ela}{15}{section*.40}\protected@file@percent }
\babel@aux{czech}{}
\newlabel{akce/akce}{{}{18}{}{section*.43}{}}
\babel@aux{czech}{}
\@writefile{toc}{\contentsline {part}{Redakce \v casopisu: Pl\'anovan\'e akce v roce 2021}{18}{section*.44}\protected@file@percent }
\babel@aux{czech}{}
\newlabel{plakat/plakat}{{}{22}{}{section*.45}{}}
\babel@aux{czech}{}
\@writefile{toc}{\contentsline {part}{Michal Novotn\'y, Jakub Fischer: Vyhodnocen\IeC {\'\i } n\'arodn\IeC {\'\i }ho kola sout\v e\v ze o~nejlep\v s\IeC {\'\i } statistick\'y plak\'at 2021}{22}{section*.46}\protected@file@percent }
\@writefile{toc}{\contentsline {section}{\numberline {1.}Zn\'ame nejlep\v s\IeC {\'\i } statistick\'y plak\'at roku!}{22}{section.47}\protected@file@percent }
\@writefile{toc}{\contentsline {section}{\numberline {2.}V\'ysledky v kategorii z\'akladn\IeC {\'\i }ch \v skol, strana \pageref  {zs}}{23}{section.48}\protected@file@percent }
\@writefile{toc}{\contentsline {section}{\numberline {3.}V\'ysledky v kategorii st\v redn\IeC {\'\i }ch \v skol, strana \pageref  {ss}}{23}{section.49}\protected@file@percent }
\@writefile{toc}{\contentsline {section}{\numberline {4.}N\v ekolik uk\'azek z ostatn\IeC {\'\i }ch plak\'at\r u, strana \pageref  {ostatni}}{23}{section.50}\protected@file@percent }
\newlabel{zs}{{4.}{24}{Několik ukázek z ostatních plakátů, strana \pageref {ostatni}}{section.50}{}}
\newlabel{ss}{{4.}{25}{Několik ukázek z ostatních plakátů, strana \pageref {ostatni}}{section.50}{}}
\newlabel{ostatni}{{4.}{26}{Několik ukázek z ostatních plakátů, strana \pageref {ostatni}}{section.50}{}}
\babel@aux{czech}{}
\gdef \@abspage@last{26}
