This is LuaHBTeX, Version 1.12.0 (TeX Live 2020)  (format=lualatex 2020.5.4)  6 JUN 2020 12:12
 restricted system commands enabled.
**040-tikz.tex
(./040-tikz.tex
LaTeX2e <2020-02-02> patch level 5
Lua module: luaotfload-main 2020-05-01 3.13 luaotfload entry point
Lua module: luaotfload-init 2020-05-01 3.13 luaotfload submodule / initializatio
n
Lua module: lualibs 2020-05-01 2.71 ConTeXt Lua standard libraries.
Lua module: lualibs-extended 2020-05-01 2.71 ConTeXt Lua libraries -- extended c
ollection.
Lua module: luaotfload-log 2020-05-01 3.13 luaotfload submodule / logging
Lua module: luaotfload-parsers 2020-05-01 3.13 luaotfload submodule / filelist
Lua module: luaotfload-configuration 2020-05-01 3.13 luaotfload submodule / conf
ig file reader
luaotfload | conf : Root cache directory is "/home/malipivo/texlive/2020/texmf-v
ar/luatex-cache/generic/names".
luaotfload | init : Loading fontloader "fontloader-2020-04-30.lua" from kpse-res
olved path "/home/malipivo/texlive/2020/texmf-dist/tex/luatex/luaotfload/fontloa
der-2020-04-30.lua".
Lua-only attribute luaotfload@noligature = 1
Lua-only attribute luaotfload@syllabe = 2
luaotfload | init : Context OpenType loader version 0x1.8e353f7ced917p+1
Lua module: luaotfload-fallback 2020-05-01 3.13 luaotfload submodule / fallback
Lua module: luaotfload-multiscript 2020-05-01 3.13 luaotfload submodule / multis
cript
Lua module: luaotfload-script 2020-05-01 3.13 luaotfload submodule / Script help
ers
Inserting `luaotfload.node_processor' at position 1 in `pre_linebreak_filter'.
Inserting `luaotfload.node_processor' at position 1 in `hpack_filter'.
Lua module: luaotfload-loaders 2020-05-01 3.13 luaotfload submodule / callback h
andling
Inserting `luaotfload.define_font' at position 1 in `define_font'.
Lua module: luaotfload-database 2020-05-01 3.13 luaotfload submodule / database
Lua module: luaotfload-unicode 2020-05-01 3.13 luaotfload submodule / Unicode he
lpers
Lua module: luaotfload-colors 2020-05-01 3.13 luaotfload submodule / color
Lua-only attribute luaotfload_color_attribute = 3
Lua module: luaotfload-resolvers 2020-05-01 3.13 luaotfload submodule / resolver
s
luaotfload | conf : Root cache directory is "/home/malipivo/texlive/2020/texmf-v
ar/luatex-cache/generic/names".
Lua module: luaotfload-features 2020-05-01 3.13 luaotfload submodule / features
Lua module: luaotfload-harf-define 2020-05-01 3.13 luaotfload submodule / databa
se
Inserting `luaotfload.harf.strip_prefix' at position 1 in `find_opentype_file'.
Inserting `luaotfload.harf.strip_prefix' at position 1 in `find_truetype_file'.
Lua module: luaotfload-harf-plug 2020-05-01 3.13 luaotfload submodule / database
Inserting `Harf pre_output_filter callback' at position 1 in `pre_output_filter'
.
Inserting `Harf wrapup_run callback' at position 1 in `wrapup_run'.
Inserting `Harf finish_pdffile callback' at position 1 in `finish_pdffile'.
Inserting `Harf glyph_info callback' at position 1 in `glyph_info'.
Lua module: luaotfload-letterspace 2020-05-01 3.13 luaotfload submodule / color
Lua module: luaotfload-embolden 2020-05-01 3.13 luaotfload submodule / color
Lua module: luaotfload-notdef 2020-05-01 3.13 luaotfload submodule / color
Lua module: luaotfload-suppress 2020-05-01 3.13 luaotfload submodule / suppress
Lua module: luaotfload-szss 2020-05-01 3.13 luaotfload submodule / color
Lua module: luaotfload-auxiliary 2020-05-01 3.13 luaotfload submodule / auxiliar
y functions
Inserting `luaotfload.aux.set_sscale_dimens' at position 1 in `luaotfload.patch_
font'.
Inserting `luaotfload.aux.set_font_index' at position 2 in `luaotfload.patch_fon
t'.
Inserting `luaotfload.aux.patch_cambria_domh' at position 3 in `luaotfload.patch
_font'.
Inserting `luaotfload.aux.fixup_fontdata' at position 1 in `luaotfload.patch_fon
t_unsafe'.
Inserting `luaotfload.aux.set_capheight' at position 4 in `luaotfload.patch_font
'.
Inserting `luaotfload.aux.set_xheight' at position 5 in `luaotfload.patch_font'.
Lua module: luaotfload-tounicode 2020-05-01 3.13 luaotfload submodule / tounicod
e
Inserting `luaotfload.rewrite_fontname' at position 6 in `luaotfload.patch_font'
. L3 programming layer <2020-04-06>
(/home/malipivo/texlive/2020/texmf-dist/tex/latex/base/article.cls
Document Class: article 2019/12/20 v1.4l Standard LaTeX document class
(/home/malipivo/texlive/2020/texmf-dist/tex/latex/base/size10.clo
File: size10.clo 2019/12/20 v1.4l Standard LaTeX file (size option)
luaotfload | db : Font names database loaded from /home/malipivo/texlive/2020/te
xmf-var/luatex-cache/generic/names/luaotfload-names.luc)
\c@part=\count163
\c@section=\count164
\c@subsection=\count165
\c@subsubsection=\count166
\c@paragraph=\count167
\c@subparagraph=\count168
\c@figure=\count169
\c@table=\count170
\abovecaptionskip=\skip47
\belowcaptionskip=\skip48
\bibindent=\dimen134
)
(/home/malipivo/texlive/2020/texmf-dist/tex/latex/animate/animate.sty
Package: animate 2020/04/25 PDF & SVG animations from files and inline graphics

(/home/malipivo/texlive/2020/texmf-dist/tex/latex/xkeyval/xkeyval.sty
Package: xkeyval 2014/12/03 v2.7a package option processing (HA)

(/home/malipivo/texlive/2020/texmf-dist/tex/generic/xkeyval/xkeyval.tex
(/home/malipivo/texlive/2020/texmf-dist/tex/generic/xkeyval/xkvutils.tex
\XKV@toks=\toks15
\XKV@tempa@toks=\toks16

(/home/malipivo/texlive/2020/texmf-dist/tex/generic/xkeyval/keyval.tex))
\XKV@depth=\count171
File: xkeyval.tex 2014/12/03 v2.7a key=value parser (HA)
))
(/home/malipivo/texlive/2020/texmf-dist/tex/latex/base/ifthen.sty
Package: ifthen 2014/09/29 v1.1c Standard LaTeX ifthen package (DPC)
)
(/home/malipivo/texlive/2020/texmf-dist/tex/generic/iftex/iftex.sty
Package: iftex 2020/03/06 v1.0d TeX engine tests
)
(/home/malipivo/texlive/2020/texmf-dist/tex/latex/oberdiek/ifdraft.sty
Package: ifdraft 2016/05/16 v1.4 Detect class options draft and final (HO)
)
(/home/malipivo/texlive/2020/texmf-dist/tex/latex/tools/calc.sty
Package: calc 2017/05/25 v4.3 Infix arithmetic (KKT,FJ)
\calc@Acount=\count172
\calc@Bcount=\count173
\calc@Adimen=\dimen135
\calc@Bdimen=\dimen136
\calc@Askip=\skip49
\calc@Bskip=\skip50
LaTeX Info: Redefining \setlength on input line 80.
LaTeX Info: Redefining \addtolength on input line 81.
\calc@Ccount=\count174
\calc@Cskip=\skip51
)
(/home/malipivo/texlive/2020/texmf-dist/tex/latex/graphics/graphics.sty
Package: graphics 2019/11/30 v1.4a Standard LaTeX Graphics (DPC,SPQR)

(/home/malipivo/texlive/2020/texmf-dist/tex/latex/graphics/trig.sty
Package: trig 2016/01/03 v1.10 sin cos tan (DPC)
)
(/home/malipivo/texlive/2020/texmf-dist/tex/latex/graphics-cfg/graphics.cfg
File: graphics.cfg 2016/06/04 v1.11 sample graphics configuration
)
Package graphics Info: Driver file: luatex.def on input line 105.

(/home/malipivo/texlive/2020/texmf-dist/tex/latex/graphics-def/luatex.def
File: luatex.def 2018/01/08 v1.0l Graphics/color driver for luatex
))
(/home/malipivo/texlive/2020/texmf-dist/tex/latex/zref/zref-abspage.sty
Package: zref-abspage 2020-03-03 v2.29 Module abspage for zref (HO)

(/home/malipivo/texlive/2020/texmf-dist/tex/latex/zref/zref-base.sty
Package: zref-base 2020-03-03 v2.29 Module base for zref (HO)

(/home/malipivo/texlive/2020/texmf-dist/tex/generic/ltxcmds/ltxcmds.sty
Package: ltxcmds 2019/12/15 v1.24 LaTeX kernel commands for general use (HO)
)
(/home/malipivo/texlive/2020/texmf-dist/tex/generic/infwarerr/infwarerr.sty
Package: infwarerr 2019/12/03 v1.5 Providing info/warning/error messages (HO)
)
(/home/malipivo/texlive/2020/texmf-dist/tex/generic/kvsetkeys/kvsetkeys.sty
Package: kvsetkeys 2019/12/15 v1.18 Key value parser (HO)
)
(/home/malipivo/texlive/2020/texmf-dist/tex/generic/kvdefinekeys/kvdefinekeys.s
ty
Package: kvdefinekeys 2019-12-19 v1.6 Define keys (HO)
) (/home/malipivo/texlive/2020/texmf-dist/tex/latex/pdftexcmds/pdftexcmds.sty
Package: pdftexcmds 2019/11/24 v0.31 Utility functions of pdfTeX for LuaTeX (HO)

Package pdftexcmds Info: \pdf@primitive is available.
Package pdftexcmds Info: \pdf@ifprimitive is available.
Package pdftexcmds Info: \pdfdraftmode found.
\pdftexcmds@toks=\toks17
) (/home/malipivo/texlive/2020/texmf-dist/tex/generic/etexcmds/etexcmds.sty
Package: etexcmds 2019/12/15 v1.7 Avoid name clashes with e-TeX commands (HO)
)
(/home/malipivo/texlive/2020/texmf-dist/tex/latex/auxhook/auxhook.sty
Package: auxhook 2019-12-17 v1.6 Hooks for auxiliary files (HO)
)
Package zref Info: New property list: main on input line 763.
Package zref Info: New property: default on input line 764.
Package zref Info: New property: page on input line 765.
)
(/home/malipivo/texlive/2020/texmf-dist/tex/generic/atbegshi/atbegshi.sty
Package: atbegshi 2019/12/05 v1.19 At begin shipout hook (HO)
)
\c@abspage=\count175
Package zref Info: New property: abspage on input line 66.
)
(/home/malipivo/texlive/2020/texmf-dist/tex/latex/media9/pdfbase.sty
(/home/malipivo/texlive/2020/texmf-dist/tex/latex/l3kernel/expl3.sty
Package: expl3 2020-04-06 L3 programming layer (loader) 

(/home/malipivo/texlive/2020/texmf-dist/tex/latex/l3backend/l3backend-pdfmode.d
ef
File: l3backend-pdfmode.def 2020-03-12 L3 backend support: PDF mode
\l__kernel_color_stack_int=\count176
\l__pdf_internal_box=\box45
))
(/home/malipivo/texlive/2020/texmf-dist/tex/latex/l3packages/l3keys2e/l3keys2e.
sty
Package: l3keys2e 2020-03-06 LaTeX2e option processing using LaTeX3 keys
)
Package: pdfbase 2020/03/25 v0.41 driver independent access to low-level PDF fea
tures
\g_pbs_page_int=\count177
\g_pbs_oc_int=\count178
) (/home/malipivo/texlive/2020/texmf-dist/tex/latex/ocgx2/ocgbase.sty
Package: ocgbase 2019/11/04 v0.17 support package for ocgx2.sty
\g_ocgbase_nd_int=\count179
)
\@anim@box=\box46
\@anim@measbox=\box47
\@anim@tmpdima=\dimen137
\@anim@tmpdimb=\dimen138
\@anim@num=\count180
\@anim@curframe=\count181
\@anim@curframe@zb=\count182
\@anim@resizeflags=\count183
\@anim@skipfram=\count184
\@anim@mulframecnt=\count185
\@anim@@tmlnfile=\read2
\@anim@tmpcnt=\count186
\c@@anim@ltxcnt=\count187
\@anim@curlayer=\count188
\@anim@lineno=\count189
\@anim@curfield=\count190
\@anim@@resizeflags=\count191
)
(/home/malipivo/texlive/2020/texmf-dist/tex/latex/graphics/graphicx.sty
Package: graphicx 2019/11/30 v1.2a Enhanced LaTeX Graphics (DPC,SPQR)
\Gin@req@height=\dimen139
\Gin@req@width=\dimen140
)
(./040-tikz.aux)
\openout1 = 040-tikz.aux

LaTeX Font Info:    Checking defaults for OML/cmm/m/it on input line 5.
LaTeX Font Info:    ... okay on input line 5.
LaTeX Font Info:    Checking defaults for OMS/cmsy/m/n on input line 5.
LaTeX Font Info:    ... okay on input line 5.
LaTeX Font Info:    Checking defaults for OT1/cmr/m/n on input line 5.
LaTeX Font Info:    ... okay on input line 5.
LaTeX Font Info:    Checking defaults for T1/cmr/m/n on input line 5.
LaTeX Font Info:    ... okay on input line 5.
LaTeX Font Info:    Checking defaults for TS1/cmr/m/n on input line 5.
LaTeX Font Info:    Trying to load font information for TS1+cmr on input line 5.


(/home/malipivo/texlive/2020/texmf-dist/tex/latex/base/ts1cmr.fd
File: ts1cmr.fd 2019/12/16 v2.5j Standard LaTeX font definitions
)
LaTeX Font Info:    ... okay on input line 5.
LaTeX Font Info:    Checking defaults for TU/lmr/m/n on input line 5.
LaTeX Font Info:    ... okay on input line 5.
LaTeX Font Info:    Checking defaults for OMX/cmex/m/n on input line 5.
LaTeX Font Info:    ... okay on input line 5.
LaTeX Font Info:    Checking defaults for U/cmr/m/n on input line 5.
LaTeX Font Info:    ... okay on input line 5.

(/home/malipivo/texlive/2020/texmf-dist/tex/context/base/mkii/supp-pdf.mkii
[Loading MPS to PDF converter (version 2006.09.02).]
\scratchcounter=\count192
\scratchdimen=\dimen141
\scratchbox=\box48
\nofMPsegments=\count193
\nofMParguments=\count194
\everyMPshowfont=\toks18
\MPscratchCnt=\count195
\MPscratchDim=\dimen142
\MPnumerator=\count196
\makeMPintoPDFobject=\count197
\everyMPtoPDFconversion=\toks19
)
(/home/malipivo/texlive/2020/texmf-dist/tex/latex/epstopdf-pkg/epstopdf-base.st
y
Package: epstopdf-base 2020-01-24 v2.11 Base part for package epstopdf
Package epstopdf-base Info: Redefining graphics rule for `.eps' on input line 48
5.

(/home/malipivo/texlive/2020/texmf-dist/tex/latex/latexconfig/epstopdf-sys.cfg
File: epstopdf-sys.cfg 2010/07/13 v1.3 Configuration of (r)epstopdf for TeX Live

))
\AtBeginShipoutBox=\box49
<040.pdf, id=2, page=1, 313.3838pt x 171.1183pt>
File: 040.pdf Graphic file (type pdf)
<use 040.pdf, page 1>
Package luatex.def Info: 040.pdf , page1 used on input line 6.
(luatex.def)             Requested size: 313.38303pt x 171.11787pt.
<./040.pdf> <a0,fr0>
<040.pdf, id=35, page=2, 313.3838pt x 171.1183pt>
File: 040.pdf Graphic file (type pdf)
<use 040.pdf, page 2>
Package luatex.def Info: 040.pdf , page2 used on input line 6.
(luatex.def)             Requested size: 313.38303pt x 171.11787pt.
<./040.pdf> <a0,fr1>
<040.pdf, id=67, page=3, 313.3838pt x 171.1183pt>
File: 040.pdf Graphic file (type pdf)
<use 040.pdf, page 3>
Package luatex.def Info: 040.pdf , page3 used on input line 6.
(luatex.def)             Requested size: 313.38303pt x 171.11787pt.
<./040.pdf> <a0,fr2>
<040.pdf, id=99, page=4, 313.3838pt x 171.1183pt>
File: 040.pdf Graphic file (type pdf)
<use 040.pdf, page 4>
Package luatex.def Info: 040.pdf , page4 used on input line 6.
(luatex.def)             Requested size: 313.38303pt x 171.11787pt.
<./040.pdf>
<a0,fr3>
<040.pdf, id=131, page=5, 313.3838pt x 171.1183pt>
File: 040.pdf Graphic file (type pdf)
<use 040.pdf, page 5>
Package luatex.def Info: 040.pdf , page5 used on input line 6.
(luatex.def)             Requested size: 313.38303pt x 171.11787pt.
<./040.pdf> <a0,fr4>
<040.pdf, id=163, page=6, 313.3838pt x 171.1183pt>
File: 040.pdf Graphic file (type pdf)
<use 040.pdf, page 6>
Package luatex.def Info: 040.pdf , page6 used on input line 6.
(luatex.def)             Requested size: 313.38303pt x 171.11787pt.
<./040.pdf> <a0,fr5>
<040.pdf, id=196, page=7, 313.3838pt x 171.1183pt>
File: 040.pdf Graphic file (type pdf)
<use 040.pdf, page 7>
Package luatex.def Info: 040.pdf , page7 used on input line 6.
(luatex.def)             Requested size: 313.38303pt x 171.11787pt.
<./040.pdf> <a0,fr6>
<040.pdf, id=228, page=8, 313.3838pt x 171.1183pt>
File: 040.pdf Graphic file (type pdf)
<use 040.pdf, page 8>
Package luatex.def Info: 040.pdf , page8 used on input line 6.
(luatex.def)             Requested size: 313.38303pt x 171.11787pt.
<./040.pdf> <a0,fr7>
<040.pdf, id=260, page=9, 313.3838pt x 171.1183pt>
File: 040.pdf Graphic file (type pdf)
<use 040.pdf, page 9>
Package luatex.def Info: 040.pdf , page9 used on input line 6.
(luatex.def)             Requested size: 313.38303pt x 171.11787pt.
<./040.pdf> <a0,fr8>
<040.pdf, id=292, page=10, 313.3838pt x 171.1183pt>
File: 040.pdf Graphic file (type pdf)
<use 040.pdf, page 10>
Package luatex.def Info: 040.pdf , page10 used on input line 6.
(luatex.def)             Requested size: 313.38303pt x 171.11787pt.
<./040.pdf> <a0,fr9>
<040.pdf, id=324, page=11, 313.3838pt x 171.1183pt>
File: 040.pdf Graphic file (type pdf)
<use 040.pdf, page 11>
Package luatex.def Info: 040.pdf , page11 used on input line 6.
(luatex.def)             Requested size: 313.38303pt x 171.11787pt.
<./040.pdf> <a0,fr10>
<040.pdf, id=357, page=12, 313.3838pt x 171.1183pt>
File: 040.pdf Graphic file (type pdf)
<use 040.pdf, page 12>
Package luatex.def Info: 040.pdf , page12 used on input line 6.
(luatex.def)             Requested size: 313.38303pt x 171.11787pt.
<./040.pdf> <a0,fr11>
<040.pdf, id=389, page=13, 313.3838pt x 171.1183pt>
File: 040.pdf Graphic file (type pdf)
<use 040.pdf, page 13>
Package luatex.def Info: 040.pdf , page13 used on input line 6.
(luatex.def)             Requested size: 313.38303pt x 171.11787pt.
<./040.pdf> <a0,fr12>
<040.pdf, id=421, page=14, 313.3838pt x 171.1183pt>
File: 040.pdf Graphic file (type pdf)
<use 040.pdf, page 14>
Package luatex.def Info: 040.pdf , page14 used on input line 6.
(luatex.def)             Requested size: 313.38303pt x 171.11787pt.
<./040.pdf> <a0,fr13>
<040.pdf, id=453, page=15, 313.3838pt x 171.1183pt>
File: 040.pdf Graphic file (type pdf)
<use 040.pdf, page 15>
Package luatex.def Info: 040.pdf , page15 used on input line 6.
(luatex.def)             Requested size: 313.38303pt x 171.11787pt.
<./040.pdf> <a0,fr14>
<040.pdf, id=485, page=16, 313.3838pt x 171.1183pt>
File: 040.pdf Graphic file (type pdf)
<use 040.pdf, page 16>
Package luatex.def Info: 040.pdf , page16 used on input line 6.
(luatex.def)             Requested size: 313.38303pt x 171.11787pt.
<./040.pdf> <a0,fr15>
<040.pdf, id=518, page=17, 313.3838pt x 171.1183pt>
File: 040.pdf Graphic file (type pdf)
<use 040.pdf, page 17>
Package luatex.def Info: 040.pdf , page17 used on input line 6.
(luatex.def)             Requested size: 313.38303pt x 171.11787pt.
<./040.pdf> <a0,fr16>
<040.pdf, id=550, page=18, 313.3838pt x 171.1183pt>
File: 040.pdf Graphic file (type pdf)
<use 040.pdf, page 18>
Package luatex.def Info: 040.pdf , page18 used on input line 6.
(luatex.def)             Requested size: 313.38303pt x 171.11787pt.
<./040.pdf> <a0,fr17>
<040.pdf, id=582, page=19, 313.3838pt x 171.1183pt>
File: 040.pdf Graphic file (type pdf)
<use 040.pdf, page 19>
Package luatex.def Info: 040.pdf , page19 used on input line 6.
(luatex.def)             Requested size: 313.38303pt x 171.11787pt.
<./040.pdf>
<a0,fr18>
<040.pdf, id=614, page=20, 313.3838pt x 171.1183pt>
File: 040.pdf Graphic file (type pdf)
<use 040.pdf, page 20>
Package luatex.def Info: 040.pdf , page20 used on input line 6.
(luatex.def)             Requested size: 313.38303pt x 171.11787pt.
<./040.pdf> <a0,fr19>
<040.pdf, id=646, page=21, 313.3838pt x 171.1183pt>
File: 040.pdf Graphic file (type pdf)
<use 040.pdf, page 21>
Package luatex.def Info: 040.pdf , page21 used on input line 6.
(luatex.def)             Requested size: 313.38303pt x 171.11787pt.
<./040.pdf> <a0,fr20>
<040.pdf, id=679, page=22, 313.3838pt x 171.1183pt>
File: 040.pdf Graphic file (type pdf)
<use 040.pdf, page 22>
Package luatex.def Info: 040.pdf , page22 used on input line 6.
(luatex.def)             Requested size: 313.38303pt x 171.11787pt.
<./040.pdf> <a0,fr21>
<040.pdf, id=711, page=23, 313.3838pt x 171.1183pt>
File: 040.pdf Graphic file (type pdf)
<use 040.pdf, page 23>
Package luatex.def Info: 040.pdf , page23 used on input line 6.
(luatex.def)             Requested size: 313.38303pt x 171.11787pt.
<./040.pdf> <a0,fr22>
<040.pdf, id=743, page=24, 313.3838pt x 171.1183pt>
File: 040.pdf Graphic file (type pdf)
<use 040.pdf, page 24>
Package luatex.def Info: 040.pdf , page24 used on input line 6.
(luatex.def)             Requested size: 313.38303pt x 171.11787pt.
<./040.pdf> <a0,fr23>
<040.pdf, id=775, page=25, 313.3838pt x 171.1183pt>
File: 040.pdf Graphic file (type pdf)
<use 040.pdf, page 25>
Package luatex.def Info: 040.pdf , page25 used on input line 6.
(luatex.def)             Requested size: 313.38303pt x 171.11787pt.
<./040.pdf> <a0,fr24>
<040.pdf, id=807, page=26, 313.3838pt x 171.1183pt>
File: 040.pdf Graphic file (type pdf)
<use 040.pdf, page 26>
Package luatex.def Info: 040.pdf , page26 used on input line 6.
(luatex.def)             Requested size: 313.38303pt x 171.11787pt.
<./040.pdf> <a0,fr25>
<040.pdf, id=840, page=27, 313.3838pt x 171.1183pt>
File: 040.pdf Graphic file (type pdf)
<use 040.pdf, page 27>
Package luatex.def Info: 040.pdf , page27 used on input line 6.
(luatex.def)             Requested size: 313.38303pt x 171.11787pt.
<./040.pdf> <a0,fr26>
<040.pdf, id=872, page=28, 313.3838pt x 171.1183pt>
File: 040.pdf Graphic file (type pdf)
<use 040.pdf, page 28>
Package luatex.def Info: 040.pdf , page28 used on input line 6.
(luatex.def)             Requested size: 313.38303pt x 171.11787pt.
<./040.pdf> <a0,fr27>
<040.pdf, id=904, page=29, 313.3838pt x 171.1183pt>
File: 040.pdf Graphic file (type pdf)
<use 040.pdf, page 29>
Package luatex.def Info: 040.pdf , page29 used on input line 6.
(luatex.def)             Requested size: 313.38303pt x 171.11787pt.
<./040.pdf> <a0,fr28>
<040.pdf, id=936, page=30, 313.3838pt x 171.1183pt>
File: 040.pdf Graphic file (type pdf)
<use 040.pdf, page 30>
Package luatex.def Info: 040.pdf , page30 used on input line 6.
(luatex.def)             Requested size: 313.38303pt x 171.11787pt.
<./040.pdf>
<a0,fr29>
<040.pdf, id=968, page=31, 313.3838pt x 171.1183pt>
File: 040.pdf Graphic file (type pdf)
<use 040.pdf, page 31>
Package luatex.def Info: 040.pdf , page31 used on input line 6.
(luatex.def)             Requested size: 313.38303pt x 171.11787pt.
<./040.pdf> <a0,fr30>
<040.pdf, id=1001, page=32, 313.3838pt x 171.1183pt>
File: 040.pdf Graphic file (type pdf)
<use 040.pdf, page 32>
Package luatex.def Info: 040.pdf , page32 used on input line 6.
(luatex.def)             Requested size: 313.38303pt x 171.11787pt.
<./040.pdf> <a0,fr31>
<040.pdf, id=1033, page=33, 313.3838pt x 171.1183pt>
File: 040.pdf Graphic file (type pdf)
<use 040.pdf, page 33>
Package luatex.def Info: 040.pdf , page33 used on input line 6.
(luatex.def)             Requested size: 313.38303pt x 171.11787pt.
<./040.pdf> <a0,fr32>
<040.pdf, id=1065, page=34, 313.3838pt x 171.1183pt>
File: 040.pdf Graphic file (type pdf)
<use 040.pdf, page 34>
Package luatex.def Info: 040.pdf , page34 used on input line 6.
(luatex.def)             Requested size: 313.38303pt x 171.11787pt.
<./040.pdf> <a0,fr33>
<040.pdf, id=1097, page=35, 313.3838pt x 171.1183pt>
File: 040.pdf Graphic file (type pdf)
<use 040.pdf, page 35>
Package luatex.def Info: 040.pdf , page35 used on input line 6.
(luatex.def)             Requested size: 313.38303pt x 171.11787pt.
<./040.pdf> <a0,fr34>
<040.pdf, id=1129, page=36, 313.3838pt x 171.1183pt>
File: 040.pdf Graphic file (type pdf)
<use 040.pdf, page 36>
Package luatex.def Info: 040.pdf , page36 used on input line 6.
(luatex.def)             Requested size: 313.38303pt x 171.11787pt.
<./040.pdf> <a0,fr35>
<040.pdf, id=1162, page=37, 313.3838pt x 171.1183pt>
File: 040.pdf Graphic file (type pdf)
<use 040.pdf, page 37>
Package luatex.def Info: 040.pdf , page37 used on input line 6.
(luatex.def)             Requested size: 313.38303pt x 171.11787pt.
<./040.pdf> <a0,fr36>
[1

{/home/malipivo/texlive/2020/texmf-var/fonts/map/pdftex/updmap/pdftex.map}]
(./040-tikz.aux))

Here is how much of LuaTeX's memory you used:
 3509 strings out of 481089
 100000,383344 words of node,token memory allocated
 568 words of node memory still in use:
   12 hlist, 1 vlist, 2 rule, 5 glue, 4 kern, 1 glyph, 12 attribute, 49 glue_spe
c, 12 attribute_list, 1 write, 1 pdf_setmatrix, 1 pdf_save, 1 pdf_restore nodes
   avail lists: 2:152,3:5,4:1,5:23,6:3,7:44,8:54,9:50
 20630 multiletter control sequences out of 65536+600000
 25 fonts using 3258707 bytes
 45i,6n,58p,230b,309s stack positions out of 5000i,500n,10000p,200000b,500000s
</home/malipivo/texlive/2020/texmf-dist/fonts/opentype/public/lm/lmroman10-regul
ar.otf>
Output written on 040-tikz.pdf (1 page, 2204078 bytes).

PDF statistics: 1240 PDF objects out of 1440 (max. 8388607)
 803 compressed objects within 9 object streams
 0 named destinations out of 1000 (max. 131072)
 1191 words of extra memory for PDF output out of 10000 (max. 100000000)

