\relax 
\providecommand\babel@aux[2]{}
\@nameuse{bbl@beforestart}
\catcode `"\active 
\catcode `^\active 
\catcode `'\active 
\catcode `-\active 
\providecommand\hyper@newdestlabel[2]{}
\providecommand\HyField@AuxAddToFields[1]{}
\providecommand\HyField@AuxAddToCoFields[2]{}
\babel@aux{czech}{}
\pgfsyspdfmark {pgfid1}{9782558}{34024417}
\gdef \@abspage@last{1}
