\relax 
\providecommand \oddpage@label [2]{}
\ExplSyntaxOn \cs_if_free:NT \pgfsyspdfmark {\cs_set_eq:NN \pgfsyspdfmark \@gobblethree }\ExplSyntaxOff 
\ExplSyntaxOn 
\char_set_catcode_space:n {32}
\tl_gset:cn {c__nicematrix_1_tl}{\seq_gset_from_clist:Nn \g__nicematrix_size_seq {1,8,8,1,8,8}\seq_set_from_clist:Nn \l__nicematrix_corners_cells_seq {8-8,8-7,8-6,8-5,8-4,8-3,8-2,7-8,7-7,7-6,7-5,7-4,7-3,6-8,6-7,6-6,6-5,6-4,5-8,5-7,5-6,5-5,4-8,4-7,4-6,3-8,3-7,2-8}}
\ExplSyntaxOff 
\pgfsyspdfmark {nm-1-position}{3598695}{37965081}
\pgfsyspdfmark {pgfid24}{3598695}{37965081}
\pgfsyspdfmark {pgfid25}{3598695}{37965081}
\pgfsyspdfmark {nm-1-row-1}{3598695}{50879112}
\pgfsyspdfmark {pgfid27}{3598695}{50892219}
\pgfsyspdfmark {pgfid28}{3624910}{49920574}
\pgfsyspdfmark {pgfid29}{4570340}{49920574}
\pgfsyspdfmark {pgfid30}{6178786}{49920574}
\pgfsyspdfmark {pgfid31}{7787232}{49920574}
\pgfsyspdfmark {pgfid32}{9395679}{49920574}
\pgfsyspdfmark {pgfid33}{11004126}{49920574}
\pgfsyspdfmark {pgfid34}{12612573}{49920574}
\pgfsyspdfmark {pgfid35}{14221018}{49920574}
\pgfsyspdfmark {pgfid36}{15829463}{49920574}
\pgfsyspdfmark {nm-1-row-2}{3598695}{49270668}
\pgfsyspdfmark {pgfid37}{3598695}{49283775}
\pgfsyspdfmark {pgfid38}{3624910}{48309581}
\pgfsyspdfmark {pgfid39}{4570340}{48309581}
\pgfsyspdfmark {pgfid40}{6178786}{48309581}
\pgfsyspdfmark {pgfid41}{7782135}{48309581}
\pgfsyspdfmark {pgfid42}{9398228}{48309581}
\pgfsyspdfmark {pgfid43}{10999029}{48309581}
\pgfsyspdfmark {pgfid44}{12607475}{48309581}
\pgfsyspdfmark {pgfid45}{14218237}{48309581}
\pgfsyspdfmark {nm-1-row-3}{3598695}{47654577}
\pgfsyspdfmark {pgfid46}{3598695}{47667684}
\pgfsyspdfmark {pgfid47}{3624910}{46696039}
\pgfsyspdfmark {pgfid48}{4570340}{46696039}
\pgfsyspdfmark {pgfid49}{6173688}{46696039}
\pgfsyspdfmark {pgfid50}{7782135}{46696039}
\pgfsyspdfmark {pgfid51}{9390582}{46696039}
\pgfsyspdfmark {pgfid52}{10999029}{46696039}
\pgfsyspdfmark {pgfid53}{12612573}{46696039}
\pgfsyspdfmark {nm-1-row-4}{3598695}{46041034}
\pgfsyspdfmark {pgfid54}{3598695}{46054141}
\pgfsyspdfmark {pgfid55}{3624910}{45079947}
\pgfsyspdfmark {pgfid56}{4570340}{45079947}
\pgfsyspdfmark {pgfid57}{6181334}{45079947}
\pgfsyspdfmark {pgfid58}{7782135}{45079947}
\pgfsyspdfmark {pgfid59}{9390582}{45079947}
\pgfsyspdfmark {pgfid60}{10999029}{45079947}
\pgfsyspdfmark {nm-1-row-5}{3598695}{44424942}
\pgfsyspdfmark {pgfid61}{3598695}{44438049}
\pgfsyspdfmark {pgfid62}{3624910}{43466404}
\pgfsyspdfmark {pgfid63}{4570340}{43466404}
\pgfsyspdfmark {pgfid64}{6173688}{43466404}
\pgfsyspdfmark {pgfid65}{7782135}{43466404}
\pgfsyspdfmark {pgfid66}{9390582}{43466404}
\pgfsyspdfmark {nm-1-row-6}{3598695}{42811399}
\pgfsyspdfmark {pgfid67}{3598695}{42824506}
\pgfsyspdfmark {pgfid68}{3624910}{41852861}
\pgfsyspdfmark {pgfid69}{4570340}{41852861}
\pgfsyspdfmark {pgfid70}{6173688}{41852861}
\pgfsyspdfmark {pgfid71}{7787233}{41852861}
\pgfsyspdfmark {nm-1-row-7}{3598695}{41197857}
\pgfsyspdfmark {pgfid72}{3598695}{41210964}
\pgfsyspdfmark {pgfid73}{3624910}{40239319}
\pgfsyspdfmark {pgfid74}{4570340}{40239319}
\pgfsyspdfmark {pgfid75}{6176005}{40239319}
\pgfsyspdfmark {nm-1-row-8}{3598695}{39586632}
\pgfsyspdfmark {pgfid76}{3598695}{39599739}
\pgfsyspdfmark {pgfid77}{3624910}{38628094}
\pgfsyspdfmark {pgfid78}{4570340}{38628094}
\pgfsyspdfmark {nm-1-row-9}{3598695}{37978188}
\pgfsyspdfmark {pgfid79}{3598695}{37991295}
\pgfsyspdfmark {nm-1-col-1}{3611802}{37965081}
\pgfsyspdfmark {pgfid80}{3598695}{37965081}
\pgfsyspdfmark {nm-1-col-2}{5220247}{37965081}
\pgfsyspdfmark {pgfid81}{5233354}{37965081}
\pgfsyspdfmark {nm-1-col-3}{6828693}{37965081}
\pgfsyspdfmark {pgfid82}{6841800}{37965081}
\pgfsyspdfmark {nm-1-col-4}{8437140}{37965081}
\pgfsyspdfmark {pgfid83}{8450247}{37965081}
\pgfsyspdfmark {nm-1-col-5}{10045587}{37965081}
\pgfsyspdfmark {pgfid84}{10058694}{37965081}
\pgfsyspdfmark {nm-1-col-6}{11654034}{37965081}
\pgfsyspdfmark {pgfid85}{11667141}{37965081}
\pgfsyspdfmark {nm-1-col-7}{13262480}{37965081}
\pgfsyspdfmark {pgfid86}{13275587}{37965081}
\pgfsyspdfmark {nm-1-col-8}{14870925}{37965081}
\pgfsyspdfmark {pgfid87}{14884032}{37965081}
\pgfsyspdfmark {nm-1-col-9}{16479370}{37965081}
\pgfsyspdfmark {pgfid88}{16492477}{37965081}
\pgfsyspdfmark {pgfid90}{16492477}{37965081}
\pgfsyspdfmark {pgfid92}{16492477}{37965081}
\pgfsyspdfmark {pgfid93}{16492477}{37965081}
\pgfsyspdfmark {pgfid94}{16492477}{37965081}
\pgfsyspdfmark {pgfid95}{16492477}{37965081}
\pgfsyspdfmark {pgfid96}{16492477}{37965081}
\pgfsyspdfmark {pgfid97}{16492477}{37965081}
\pgfsyspdfmark {pgfid98}{16492477}{37965081}
\pgfsyspdfmark {pgfid99}{16492477}{37965081}
\pgfsyspdfmark {pgfid100}{16492477}{37965081}
\pgfsyspdfmark {pgfid101}{16492477}{37965081}
\pgfsyspdfmark {pgfid102}{16492477}{37965081}
\pgfsyspdfmark {pgfid103}{16492477}{37965081}
\pgfsyspdfmark {pgfid104}{16492477}{37965081}
\pgfsyspdfmark {pgfid105}{16492477}{37965081}
\pgfsyspdfmark {pgfid106}{16492477}{37965081}
\pgfsyspdfmark {pgfid107}{16492477}{37965081}
\pgfsyspdfmark {pgfid108}{16492477}{37965081}
\pgfsyspdfmark {pgfid109}{16492477}{37965081}
\pgfsyspdfmark {pgfid110}{16492477}{37965081}
\gdef \@abspage@last{6}
