\relax 
\providecommand \oddpage@label [2]{}
\ExplSyntaxOn \cs_if_free:NT \pgfsyspdfmark {\cs_set_eq:NN \pgfsyspdfmark \@gobblethree }\ExplSyntaxOff 
\ExplSyntaxOn 
\char_set_catcode_space:n {32}
\tl_gset:cn {c__nicematrix_1_tl}{\seq_gset_from_clist:Nn \g__nicematrix_size_seq {1,9,9,1,7,7}\seq_gset_from_clist:Nn \g__nicematrix_pos_of_blocks_seq {{9}{7}{9}{7}{},{9}{6}{9}{6}{},{9}{5}{9}{5}{},{9}{4}{9}{4}{},{9}{3}{9}{3}{},{9}{2}{9}{2}{},{9}{1}{9}{1}{},{8}{7}{8}{7}{},{8}{6}{8}{6}{},{8}{5}{8}{5}{},{8}{4}{8}{4}{},{8}{3}{8}{3}{},{8}{2}{8}{2}{},{8}{1}{8}{1}{},{7}{7}{7}{7}{},{7}{6}{7}{6}{},{7}{5}{7}{5}{},{7}{4}{7}{4}{},{7}{3}{7}{3}{},{7}{2}{7}{2}{},{7}{1}{7}{1}{},{6}{7}{6}{7}{},{6}{6}{6}{6}{},{6}{5}{6}{5}{},{6}{4}{6}{4}{},{6}{3}{6}{3}{},{6}{2}{6}{2}{},{6}{1}{6}{1}{},{5}{7}{5}{7}{},{5}{6}{5}{6}{},{5}{5}{5}{5}{},{5}{4}{5}{4}{},{5}{3}{5}{3}{},{5}{2}{5}{2}{},{5}{1}{5}{1}{},{4}{7}{4}{7}{},{4}{6}{4}{6}{},{4}{5}{4}{5}{},{4}{4}{4}{4}{},{4}{3}{4}{3}{},{4}{2}{4}{2}{},{4}{1}{4}{1}{},{3}{7}{3}{7}{},{3}{6}{3}{6}{},{3}{5}{3}{5}{},{3}{4}{3}{4}{},{3}{3}{3}{3}{},{3}{2}{3}{2}{},{3}{1}{3}{1}{},{2}{7}{2}{7}{},{2}{6}{2}{6}{},{2}{5}{2}{5}{},{2}{4}{2}{4}{},{2}{3}{2}{3}{},{2}{2}{2}{2}{},{2}{1}{2}{1}{},{1}{7}{1}{7}{},{1}{6}{1}{6}{},{1}{5}{1}{5}{},{1}{4}{1}{4}{},{1}{3}{1}{3}{},{1}{2}{1}{2}{},{1}{1}{1}{1}{}}}
\ExplSyntaxOff 
\pgfsyspdfmark {nm-1-position}{3598695}{38212514}
\pgfsyspdfmark {pgfid36}{3598695}{38212514}
\pgfsyspdfmark {pgfid37}{3598695}{38212514}
\pgfsyspdfmark {nm-1-row-1}{3598695}{47092653}
\pgfsyspdfmark {pgfid53}{3598695}{47105760}
\pgfsyspdfmark {pgfid54}{3991911}{45978542}
\pgfsyspdfmark {pgfid55}{4647271}{45978542}
\pgfsyspdfmark {pgfid56}{6744423}{45978542}
\pgfsyspdfmark {pgfid57}{8841575}{45978542}
\pgfsyspdfmark {pgfid58}{10938727}{45978542}
\pgfsyspdfmark {pgfid59}{13035879}{45978542}
\pgfsyspdfmark {pgfid60}{15133031}{45978542}
\pgfsyspdfmark {pgfid61}{17230183}{45978542}
\pgfsyspdfmark {nm-1-row-2}{3598695}{45152785}
\pgfsyspdfmark {pgfid62}{3598695}{45165892}
\pgfsyspdfmark {pgfid63}{3991911}{44038674}
\pgfsyspdfmark {pgfid64}{4647271}{44038674}
\pgfsyspdfmark {pgfid65}{6744423}{44038674}
\pgfsyspdfmark {pgfid66}{8841575}{44038674}
\pgfsyspdfmark {pgfid67}{10938727}{44038674}
\pgfsyspdfmark {pgfid68}{13035879}{44038674}
\pgfsyspdfmark {pgfid69}{15133031}{44038674}
\pgfsyspdfmark {pgfid70}{17230183}{44038674}
\pgfsyspdfmark {nm-1-row-3}{3598695}{43212917}
\pgfsyspdfmark {pgfid71}{3598695}{43226024}
\pgfsyspdfmark {pgfid72}{3991911}{42098806}
\pgfsyspdfmark {pgfid73}{4647271}{42098806}
\pgfsyspdfmark {pgfid74}{6744423}{42098806}
\pgfsyspdfmark {pgfid75}{8841575}{42098806}
\pgfsyspdfmark {pgfid76}{10938727}{42098806}
\pgfsyspdfmark {pgfid77}{13035879}{42098806}
\pgfsyspdfmark {pgfid78}{15133031}{42098806}
\pgfsyspdfmark {pgfid79}{17230183}{42098806}
\pgfsyspdfmark {nm-1-row-4}{3598695}{41273049}
\pgfsyspdfmark {pgfid80}{3598695}{41286156}
\pgfsyspdfmark {pgfid81}{3991911}{40158938}
\pgfsyspdfmark {pgfid82}{4647271}{40158938}
\pgfsyspdfmark {pgfid83}{6744423}{40158938}
\pgfsyspdfmark {pgfid84}{8841575}{40158938}
\pgfsyspdfmark {pgfid85}{10938727}{40158938}
\pgfsyspdfmark {pgfid86}{13035879}{40158938}
\pgfsyspdfmark {pgfid87}{15133031}{40158938}
\pgfsyspdfmark {pgfid88}{17230183}{40158938}
\pgfsyspdfmark {nm-1-row-5}{3598695}{39333181}
\pgfsyspdfmark {pgfid89}{3598695}{39346288}
\pgfsyspdfmark {pgfid90}{3991911}{38219070}
\pgfsyspdfmark {pgfid91}{4647271}{38219070}
\pgfsyspdfmark {pgfid92}{6744423}{38219070}
\pgfsyspdfmark {pgfid93}{8841575}{38219070}
\pgfsyspdfmark {pgfid94}{10938727}{38219070}
\pgfsyspdfmark {pgfid95}{13035879}{38219070}
\pgfsyspdfmark {pgfid96}{15133031}{38219070}
\pgfsyspdfmark {pgfid97}{17230183}{38219070}
\pgfsyspdfmark {nm-1-row-6}{3598695}{37393313}
\pgfsyspdfmark {pgfid98}{3598695}{37406420}
\pgfsyspdfmark {pgfid99}{3991911}{36279202}
\pgfsyspdfmark {pgfid100}{4647271}{36279202}
\pgfsyspdfmark {pgfid101}{6744423}{36279202}
\pgfsyspdfmark {pgfid102}{8841575}{36279202}
\pgfsyspdfmark {pgfid103}{10938727}{36279202}
\pgfsyspdfmark {pgfid104}{13035879}{36279202}
\pgfsyspdfmark {pgfid105}{15133031}{36279202}
\pgfsyspdfmark {pgfid106}{17230183}{36279202}
\pgfsyspdfmark {nm-1-row-7}{3598695}{35453445}
\pgfsyspdfmark {pgfid107}{3598695}{35466552}
\pgfsyspdfmark {pgfid108}{3991911}{34339334}
\pgfsyspdfmark {pgfid109}{4647271}{34339334}
\pgfsyspdfmark {pgfid110}{6744423}{34339334}
\pgfsyspdfmark {pgfid111}{8841575}{34339334}
\pgfsyspdfmark {pgfid112}{10938727}{34339334}
\pgfsyspdfmark {pgfid113}{13035879}{34339334}
\pgfsyspdfmark {pgfid114}{15133031}{34339334}
\pgfsyspdfmark {pgfid115}{17230183}{34339334}
\pgfsyspdfmark {nm-1-row-8}{3598695}{33513577}
\pgfsyspdfmark {pgfid116}{3598695}{33526684}
\pgfsyspdfmark {pgfid117}{3991911}{32399466}
\pgfsyspdfmark {pgfid118}{4647271}{32399466}
\pgfsyspdfmark {pgfid119}{6744423}{32399466}
\pgfsyspdfmark {pgfid120}{8841575}{32399466}
\pgfsyspdfmark {pgfid121}{10938727}{32399466}
\pgfsyspdfmark {pgfid122}{13035879}{32399466}
\pgfsyspdfmark {pgfid123}{15133031}{32399466}
\pgfsyspdfmark {pgfid124}{17230183}{32399466}
\pgfsyspdfmark {nm-1-row-9}{3598695}{31573709}
\pgfsyspdfmark {pgfid125}{3598695}{31586816}
\pgfsyspdfmark {pgfid126}{3991911}{30459598}
\pgfsyspdfmark {pgfid127}{4647271}{30459598}
\pgfsyspdfmark {pgfid128}{6744423}{30459598}
\pgfsyspdfmark {pgfid129}{8841575}{30459598}
\pgfsyspdfmark {pgfid130}{10938727}{30459598}
\pgfsyspdfmark {pgfid131}{13035879}{30459598}
\pgfsyspdfmark {pgfid132}{15133031}{30459598}
\pgfsyspdfmark {pgfid133}{17230183}{30459598}
\pgfsyspdfmark {nm-1-row-10}{3598695}{29633841}
\pgfsyspdfmark {pgfid134}{3598695}{29646948}
\pgfsyspdfmark {nm-1-col-1}{3611802}{29646948}
\pgfsyspdfmark {pgfid135}{3598695}{29646948}
\pgfsyspdfmark {nm-1-col-2}{5682740}{29646948}
\pgfsyspdfmark {pgfid136}{5695847}{29646948}
\pgfsyspdfmark {nm-1-col-3}{7779892}{29646948}
\pgfsyspdfmark {pgfid137}{7792999}{29646948}
\pgfsyspdfmark {nm-1-col-4}{9877044}{29646948}
\pgfsyspdfmark {pgfid138}{9890151}{29646948}
\pgfsyspdfmark {nm-1-col-5}{11974196}{29646948}
\pgfsyspdfmark {pgfid139}{11987303}{29646948}
\pgfsyspdfmark {nm-1-col-6}{14071348}{29646948}
\pgfsyspdfmark {pgfid140}{14084455}{29646948}
\pgfsyspdfmark {nm-1-col-7}{16168500}{29646948}
\pgfsyspdfmark {pgfid141}{16181607}{29646948}
\pgfsyspdfmark {nm-1-col-8}{18265652}{29646948}
\pgfsyspdfmark {pgfid142}{18278759}{29646948}
\pgfsyspdfmark {pgfid143}{18278759}{38212514}
\pgfsyspdfmark {pgfid144}{18278759}{38212514}
\pgfsyspdfmark {pgfid145}{18278759}{38212514}
\pgfsyspdfmark {pgfid146}{18278759}{38212514}
\pgfsyspdfmark {pgfid147}{18278759}{38212514}
\pgfsyspdfmark {pgfid148}{18278759}{38212514}
\pgfsyspdfmark {pgfid149}{18278759}{38212514}
\pgfsyspdfmark {pgfid150}{18278759}{38212514}
\pgfsyspdfmark {pgfid151}{18278759}{38212514}
\pgfsyspdfmark {pgfid152}{18278759}{38212514}
\pgfsyspdfmark {pgfid153}{18278759}{38212514}
\pgfsyspdfmark {pgfid154}{18278759}{38212514}
\pgfsyspdfmark {pgfid155}{18278759}{38212514}
\pgfsyspdfmark {pgfid156}{18278759}{38212514}
\pgfsyspdfmark {pgfid157}{18278759}{38212514}
\pgfsyspdfmark {pgfid158}{18278759}{38212514}
\pgfsyspdfmark {pgfid159}{18278759}{38212514}
\pgfsyspdfmark {pgfid160}{18278759}{38212514}
\pgfsyspdfmark {pgfid161}{18278759}{38212514}
\pgfsyspdfmark {pgfid162}{18278759}{38212514}
\pgfsyspdfmark {pgfid163}{18278759}{38212514}
\pgfsyspdfmark {pgfid164}{18278759}{38212514}
\pgfsyspdfmark {pgfid165}{18278759}{38212514}
\pgfsyspdfmark {pgfid166}{18278759}{38212514}
\pgfsyspdfmark {pgfid167}{18278759}{38212514}
\pgfsyspdfmark {pgfid168}{18278759}{38212514}
\pgfsyspdfmark {pgfid169}{18278759}{38212514}
\pgfsyspdfmark {pgfid170}{18278759}{38212514}
\pgfsyspdfmark {pgfid171}{18278759}{38212514}
\pgfsyspdfmark {pgfid172}{18278759}{38212514}
\pgfsyspdfmark {pgfid173}{18278759}{38212514}
\pgfsyspdfmark {pgfid174}{18278759}{38212514}
\pgfsyspdfmark {pgfid175}{18278759}{38212514}
\pgfsyspdfmark {pgfid176}{18278759}{38212514}
\pgfsyspdfmark {pgfid177}{18278759}{38212514}
\pgfsyspdfmark {pgfid178}{18278759}{38212514}
\pgfsyspdfmark {pgfid179}{18278759}{38212514}
\pgfsyspdfmark {pgfid180}{18278759}{38212514}
\pgfsyspdfmark {pgfid181}{18278759}{38212514}
\pgfsyspdfmark {pgfid182}{18278759}{38212514}
\pgfsyspdfmark {pgfid183}{18278759}{38212514}
\pgfsyspdfmark {pgfid184}{18278759}{38212514}
\pgfsyspdfmark {pgfid185}{18278759}{38212514}
\pgfsyspdfmark {pgfid186}{18278759}{38212514}
\pgfsyspdfmark {pgfid187}{18278759}{38212514}
\pgfsyspdfmark {pgfid188}{18278759}{38212514}
\pgfsyspdfmark {pgfid189}{18278759}{38212514}
\pgfsyspdfmark {pgfid190}{18278759}{38212514}
\pgfsyspdfmark {pgfid191}{18278759}{38212514}
\pgfsyspdfmark {pgfid192}{18278759}{38212514}
\pgfsyspdfmark {pgfid193}{18278759}{38212514}
\pgfsyspdfmark {pgfid194}{18278759}{38212514}
\pgfsyspdfmark {pgfid195}{18278759}{38212514}
\pgfsyspdfmark {pgfid196}{18278759}{38212514}
\pgfsyspdfmark {pgfid197}{18278759}{38212514}
\pgfsyspdfmark {pgfid198}{18278759}{38212514}
\pgfsyspdfmark {pgfid199}{18278759}{38212514}
\pgfsyspdfmark {pgfid200}{18278759}{38212514}
\pgfsyspdfmark {pgfid201}{18278759}{38212514}
\pgfsyspdfmark {pgfid202}{18278759}{38212514}
\pgfsyspdfmark {pgfid203}{18278759}{38212514}
\pgfsyspdfmark {pgfid204}{18278759}{38212514}
\pgfsyspdfmark {pgfid205}{18278759}{38212514}
\pgfsyspdfmark {pgfid206}{18278759}{38212514}
\savepicturepage{pgfid208}{9}
\pgfsyspdfmark {pgfid208}{18278759}{38212514}
\pgfsyspdfmark {pgfid209}{18278759}{38212514}
\pgfsyspdfmark {pgfid210}{18278759}{38212514}
\pgfsyspdfmark {pgfid211}{18278759}{38212514}
\pgfsyspdfmark {pgfid212}{18278759}{38212514}
\pgfsyspdfmark {pgfid213}{18278759}{38212514}
\pgfsyspdfmark {pgfid214}{18278759}{38212514}
\pgfsyspdfmark {pgfid215}{18278759}{38212514}
\pgfsyspdfmark {pgfid216}{18278759}{38212514}
\pgfsyspdfmark {pgfid217}{18278759}{38212514}
\pgfsyspdfmark {pgfid218}{18278759}{38212514}
\pgfsyspdfmark {pgfid219}{18278759}{38212514}
\pgfsyspdfmark {pgfid220}{18278759}{38212514}
\pgfsyspdfmark {pgfid221}{18278759}{38212514}
\pgfsyspdfmark {pgfid222}{18278759}{38212514}
\pgfsyspdfmark {pgfid223}{18278759}{38212514}
\pgfsyspdfmark {pgfid224}{18278759}{38212514}
\pgfsyspdfmark {pgfid225}{18278759}{38212514}
\pgfsyspdfmark {pgfid226}{18278759}{38212514}
\pgfsyspdfmark {pgfid227}{18278759}{38212514}
\pgfsyspdfmark {pgfid228}{18278759}{38212514}
\pgfsyspdfmark {pgfid229}{18278759}{38212514}
\pgfsyspdfmark {pgfid230}{18278759}{38212514}
\pgfsyspdfmark {pgfid231}{18278759}{38212514}
\pgfsyspdfmark {pgfid232}{18278759}{38212514}
\pgfsyspdfmark {pgfid233}{18278759}{38212514}
\pgfsyspdfmark {pgfid234}{18278759}{38212514}
\pgfsyspdfmark {pgfid235}{18278759}{38212514}
\pgfsyspdfmark {pgfid236}{18278759}{38212514}
\pgfsyspdfmark {pgfid237}{18278759}{38212514}
\pgfsyspdfmark {pgfid238}{18278759}{38212514}
\pgfsyspdfmark {pgfid239}{18278759}{38212514}
\pgfsyspdfmark {pgfid240}{18278759}{38212514}
\pgfsyspdfmark {pgfid241}{18278759}{38212514}
\pgfsyspdfmark {pgfid242}{18278759}{38212514}
\pgfsyspdfmark {pgfid243}{18278759}{38212514}
\pgfsyspdfmark {pgfid244}{18278759}{38212514}
\pgfsyspdfmark {pgfid245}{18278759}{38212514}
\pgfsyspdfmark {pgfid246}{18278759}{38212514}
\pgfsyspdfmark {pgfid247}{18278759}{38212514}
\pgfsyspdfmark {pgfid248}{18278759}{38212514}
\pgfsyspdfmark {pgfid249}{18278759}{38212514}
\pgfsyspdfmark {pgfid250}{18278759}{38212514}
\pgfsyspdfmark {pgfid251}{18278759}{38212514}
\pgfsyspdfmark {pgfid252}{18278759}{38212514}
\pgfsyspdfmark {pgfid253}{18278759}{38212514}
\pgfsyspdfmark {pgfid254}{18278759}{38212514}
\pgfsyspdfmark {pgfid255}{18278759}{38212514}
\pgfsyspdfmark {pgfid256}{18278759}{38212514}
\pgfsyspdfmark {pgfid257}{18278759}{38212514}
\pgfsyspdfmark {pgfid258}{18278759}{38212514}
\pgfsyspdfmark {pgfid259}{18278759}{38212514}
\pgfsyspdfmark {pgfid260}{18278759}{38212514}
\pgfsyspdfmark {pgfid261}{18278759}{38212514}
\pgfsyspdfmark {pgfid262}{18278759}{38212514}
\pgfsyspdfmark {pgfid263}{18278759}{38212514}
\pgfsyspdfmark {pgfid264}{18278759}{38212514}
\pgfsyspdfmark {pgfid265}{18278759}{38212514}
\pgfsyspdfmark {pgfid266}{18278759}{38212514}
\pgfsyspdfmark {pgfid267}{18278759}{38212514}
\pgfsyspdfmark {pgfid268}{18278759}{38212514}
\pgfsyspdfmark {pgfid269}{18278759}{38212514}
\pgfsyspdfmark {pgfid270}{18278759}{38212514}
\pgfsyspdfmark {pgfid271}{18278759}{38212514}
\pgfsyspdfmark {pgfid272}{18278759}{38212514}
\pgfsyspdfmark {pgfid273}{18278759}{38212514}
\pgfsyspdfmark {pgfid274}{18278759}{38212514}
\pgfsyspdfmark {pgfid275}{18278759}{38212514}
\pgfsyspdfmark {pgfid276}{18278759}{38212514}
\pgfsyspdfmark {pgfid277}{18278759}{38212514}
\pgfsyspdfmark {pgfid278}{18278759}{38212514}
\pgfsyspdfmark {pgfid279}{18278759}{38212514}
\pgfsyspdfmark {pgfid280}{18278759}{38212514}
\pgfsyspdfmark {pgfid281}{18278759}{38212514}
\pgfsyspdfmark {pgfid282}{18278759}{38212514}
\pgfsyspdfmark {pgfid283}{18278759}{38212514}
\pgfsyspdfmark {pgfid284}{18278759}{38212514}
\pgfsyspdfmark {pgfid285}{18278759}{38212514}
\pgfsyspdfmark {pgfid286}{18278759}{38212514}
\pgfsyspdfmark {pgfid287}{18278759}{38212514}
\pgfsyspdfmark {pgfid288}{18278759}{38212514}
\pgfsyspdfmark {pgfid289}{18278759}{38212514}
\pgfsyspdfmark {pgfid290}{18278759}{38212514}
\pgfsyspdfmark {pgfid291}{18278759}{38212514}
\pgfsyspdfmark {pgfid292}{18278759}{38212514}
\pgfsyspdfmark {pgfid293}{18278759}{38212514}
\pgfsyspdfmark {pgfid294}{18278759}{38212514}
\pgfsyspdfmark {pgfid295}{18278759}{38212514}
\pgfsyspdfmark {pgfid296}{18278759}{38212514}
\pgfsyspdfmark {pgfid297}{18278759}{38212514}
\pgfsyspdfmark {pgfid298}{18278759}{38212514}
\pgfsyspdfmark {pgfid299}{18278759}{38212514}
\pgfsyspdfmark {pgfid300}{18278759}{38212514}
\pgfsyspdfmark {pgfid301}{18278759}{38212514}
\pgfsyspdfmark {pgfid302}{18278759}{38212514}
\pgfsyspdfmark {pgfid303}{18278759}{38212514}
\pgfsyspdfmark {pgfid304}{18278759}{38212514}
\pgfsyspdfmark {pgfid305}{18278759}{38212514}
\pgfsyspdfmark {pgfid306}{18278759}{38212514}
\pgfsyspdfmark {pgfid307}{18278759}{38212514}
\pgfsyspdfmark {pgfid308}{18278759}{38212514}
\pgfsyspdfmark {pgfid309}{18278759}{38212514}
\pgfsyspdfmark {pgfid310}{18278759}{38212514}
\pgfsyspdfmark {pgfid311}{18278759}{38212514}
\pgfsyspdfmark {pgfid312}{18278759}{38212514}
\pgfsyspdfmark {pgfid313}{18278759}{38212514}
\pgfsyspdfmark {pgfid314}{18278759}{38212514}
\pgfsyspdfmark {pgfid315}{18278759}{38212514}
\pgfsyspdfmark {pgfid316}{18278759}{38212514}
\ExplSyntaxOn 
\char_set_catcode_space:n {32}
\tl_gset:cn {c__nicematrix_2_tl}{\seq_gset_from_clist:Nn \g__nicematrix_size_seq {1,9,9,1,7,7}\seq_gset_from_clist:Nn \g__nicematrix_pos_of_blocks_seq {{9}{7}{9}{7}{},{9}{6}{9}{6}{},{9}{5}{9}{5}{},{9}{4}{9}{4}{},{9}{3}{9}{3}{},{9}{2}{9}{2}{},{9}{1}{9}{1}{},{8}{7}{8}{7}{},{8}{6}{8}{6}{},{8}{5}{8}{5}{},{8}{4}{8}{4}{},{8}{3}{8}{3}{},{8}{2}{8}{2}{},{8}{1}{8}{1}{},{7}{7}{7}{7}{},{7}{6}{7}{6}{},{7}{5}{7}{5}{},{7}{4}{7}{4}{},{7}{3}{7}{3}{},{7}{2}{7}{2}{},{7}{1}{7}{1}{},{6}{7}{6}{7}{},{6}{6}{6}{6}{},{6}{5}{6}{5}{},{6}{4}{6}{4}{},{6}{3}{6}{3}{},{6}{2}{6}{2}{},{6}{1}{6}{1}{},{5}{7}{5}{7}{},{5}{6}{5}{6}{},{5}{5}{5}{5}{},{5}{4}{5}{4}{},{5}{3}{5}{3}{},{5}{2}{5}{2}{},{5}{1}{5}{1}{},{4}{7}{4}{7}{},{4}{6}{4}{6}{},{4}{5}{4}{5}{},{4}{4}{4}{4}{},{4}{3}{4}{3}{},{4}{2}{4}{2}{},{4}{1}{4}{1}{},{3}{7}{3}{7}{},{3}{6}{3}{6}{},{3}{5}{3}{5}{},{3}{4}{3}{4}{},{3}{3}{3}{3}{},{3}{2}{3}{2}{},{3}{1}{3}{1}{},{2}{7}{2}{7}{},{2}{6}{2}{6}{},{2}{5}{2}{5}{},{2}{4}{2}{4}{},{2}{3}{2}{3}{},{2}{2}{2}{2}{},{2}{1}{2}{1}{},{1}{7}{1}{7}{},{1}{6}{1}{6}{},{1}{5}{1}{5}{},{1}{4}{1}{4}{},{1}{3}{1}{3}{},{1}{2}{1}{2}{},{1}{1}{1}{1}{}}}
\ExplSyntaxOff 
\pgfsyspdfmark {nm-2-position}{3598695}{38212514}
\pgfsyspdfmark {pgfid318}{3598695}{38212514}
\pgfsyspdfmark {pgfid319}{3598695}{38212514}
\pgfsyspdfmark {nm-2-row-1}{3598695}{47092653}
\pgfsyspdfmark {pgfid335}{3598695}{47105760}
\pgfsyspdfmark {pgfid336}{3991911}{45978542}
\pgfsyspdfmark {pgfid337}{4647271}{45978542}
\pgfsyspdfmark {pgfid338}{6744423}{45978542}
\pgfsyspdfmark {pgfid339}{8841575}{45978542}
\pgfsyspdfmark {pgfid340}{10938727}{45978542}
\pgfsyspdfmark {pgfid341}{13035879}{45978542}
\pgfsyspdfmark {pgfid342}{15133031}{45978542}
\pgfsyspdfmark {pgfid343}{17230183}{45978542}
\pgfsyspdfmark {nm-2-row-2}{3598695}{45152785}
\pgfsyspdfmark {pgfid344}{3598695}{45165892}
\pgfsyspdfmark {pgfid345}{3991911}{44038674}
\pgfsyspdfmark {pgfid346}{4647271}{44038674}
\pgfsyspdfmark {pgfid347}{6744423}{44038674}
\pgfsyspdfmark {pgfid348}{8841575}{44038674}
\pgfsyspdfmark {pgfid349}{10938727}{44038674}
\pgfsyspdfmark {pgfid350}{13035879}{44038674}
\pgfsyspdfmark {pgfid351}{15133031}{44038674}
\pgfsyspdfmark {pgfid352}{17230183}{44038674}
\pgfsyspdfmark {nm-2-row-3}{3598695}{43212917}
\pgfsyspdfmark {pgfid353}{3598695}{43226024}
\pgfsyspdfmark {pgfid354}{3991911}{42098806}
\pgfsyspdfmark {pgfid355}{4647271}{42098806}
\pgfsyspdfmark {pgfid356}{6744423}{42098806}
\pgfsyspdfmark {pgfid357}{8841575}{42098806}
\pgfsyspdfmark {pgfid358}{10938727}{42098806}
\pgfsyspdfmark {pgfid359}{13035879}{42098806}
\pgfsyspdfmark {pgfid360}{15133031}{42098806}
\pgfsyspdfmark {pgfid361}{17230183}{42098806}
\pgfsyspdfmark {nm-2-row-4}{3598695}{41273049}
\pgfsyspdfmark {pgfid362}{3598695}{41286156}
\pgfsyspdfmark {pgfid363}{3991911}{40158938}
\pgfsyspdfmark {pgfid364}{4647271}{40158938}
\pgfsyspdfmark {pgfid365}{6744423}{40158938}
\pgfsyspdfmark {pgfid366}{8841575}{40158938}
\pgfsyspdfmark {pgfid367}{10938727}{40158938}
\pgfsyspdfmark {pgfid368}{13035879}{40158938}
\pgfsyspdfmark {pgfid369}{15133031}{40158938}
\pgfsyspdfmark {pgfid370}{17230183}{40158938}
\pgfsyspdfmark {nm-2-row-5}{3598695}{39333181}
\pgfsyspdfmark {pgfid371}{3598695}{39346288}
\pgfsyspdfmark {pgfid372}{3991911}{38219070}
\pgfsyspdfmark {pgfid373}{4647271}{38219070}
\pgfsyspdfmark {pgfid374}{6744423}{38219070}
\pgfsyspdfmark {pgfid375}{8841575}{38219070}
\pgfsyspdfmark {pgfid376}{10938727}{38219070}
\pgfsyspdfmark {pgfid377}{13035879}{38219070}
\pgfsyspdfmark {pgfid378}{15133031}{38219070}
\pgfsyspdfmark {pgfid379}{17230183}{38219070}
\pgfsyspdfmark {nm-2-row-6}{3598695}{37393313}
\pgfsyspdfmark {pgfid380}{3598695}{37406420}
\pgfsyspdfmark {pgfid381}{3991911}{36279202}
\pgfsyspdfmark {pgfid382}{4647271}{36279202}
\pgfsyspdfmark {pgfid383}{6744423}{36279202}
\pgfsyspdfmark {pgfid384}{8841575}{36279202}
\pgfsyspdfmark {pgfid385}{10938727}{36279202}
\pgfsyspdfmark {pgfid386}{13035879}{36279202}
\pgfsyspdfmark {pgfid387}{15133031}{36279202}
\pgfsyspdfmark {pgfid388}{17230183}{36279202}
\pgfsyspdfmark {nm-2-row-7}{3598695}{35453445}
\pgfsyspdfmark {pgfid389}{3598695}{35466552}
\pgfsyspdfmark {pgfid390}{3991911}{34339334}
\pgfsyspdfmark {pgfid391}{4647271}{34339334}
\pgfsyspdfmark {pgfid392}{6744423}{34339334}
\pgfsyspdfmark {pgfid393}{8841575}{34339334}
\pgfsyspdfmark {pgfid394}{10938727}{34339334}
\pgfsyspdfmark {pgfid395}{13035879}{34339334}
\pgfsyspdfmark {pgfid396}{15133031}{34339334}
\pgfsyspdfmark {pgfid397}{17230183}{34339334}
\pgfsyspdfmark {nm-2-row-8}{3598695}{33513577}
\pgfsyspdfmark {pgfid398}{3598695}{33526684}
\pgfsyspdfmark {pgfid399}{3991911}{32399466}
\pgfsyspdfmark {pgfid400}{4647271}{32399466}
\pgfsyspdfmark {pgfid401}{6744423}{32399466}
\pgfsyspdfmark {pgfid402}{8841575}{32399466}
\pgfsyspdfmark {pgfid403}{10938727}{32399466}
\pgfsyspdfmark {pgfid404}{13035879}{32399466}
\pgfsyspdfmark {pgfid405}{15133031}{32399466}
\pgfsyspdfmark {pgfid406}{17230183}{32399466}
\pgfsyspdfmark {nm-2-row-9}{3598695}{31573709}
\pgfsyspdfmark {pgfid407}{3598695}{31586816}
\pgfsyspdfmark {pgfid408}{3991911}{30459598}
\pgfsyspdfmark {pgfid409}{4647271}{30459598}
\pgfsyspdfmark {pgfid410}{6744423}{30459598}
\pgfsyspdfmark {pgfid411}{8841575}{30459598}
\pgfsyspdfmark {pgfid412}{10938727}{30459598}
\pgfsyspdfmark {pgfid413}{13035879}{30459598}
\pgfsyspdfmark {pgfid414}{15133031}{30459598}
\pgfsyspdfmark {pgfid415}{17230183}{30459598}
\pgfsyspdfmark {nm-2-row-10}{3598695}{29633841}
\pgfsyspdfmark {pgfid416}{3598695}{29646948}
\pgfsyspdfmark {nm-2-col-1}{3611802}{29646948}
\pgfsyspdfmark {pgfid417}{3598695}{29646948}
\pgfsyspdfmark {nm-2-col-2}{5682740}{29646948}
\pgfsyspdfmark {pgfid418}{5695847}{29646948}
\pgfsyspdfmark {nm-2-col-3}{7779892}{29646948}
\pgfsyspdfmark {pgfid419}{7792999}{29646948}
\pgfsyspdfmark {nm-2-col-4}{9877044}{29646948}
\pgfsyspdfmark {pgfid420}{9890151}{29646948}
\pgfsyspdfmark {nm-2-col-5}{11974196}{29646948}
\pgfsyspdfmark {pgfid421}{11987303}{29646948}
\pgfsyspdfmark {nm-2-col-6}{14071348}{29646948}
\pgfsyspdfmark {pgfid422}{14084455}{29646948}
\pgfsyspdfmark {nm-2-col-7}{16168500}{29646948}
\pgfsyspdfmark {pgfid423}{16181607}{29646948}
\pgfsyspdfmark {nm-2-col-8}{18265652}{29646948}
\pgfsyspdfmark {pgfid424}{18278759}{29646948}
\pgfsyspdfmark {pgfid425}{18278759}{38212514}
\pgfsyspdfmark {pgfid426}{18278759}{38212514}
\pgfsyspdfmark {pgfid427}{18278759}{38212514}
\pgfsyspdfmark {pgfid428}{18278759}{38212514}
\pgfsyspdfmark {pgfid429}{18278759}{38212514}
\pgfsyspdfmark {pgfid430}{18278759}{38212514}
\pgfsyspdfmark {pgfid431}{18278759}{38212514}
\pgfsyspdfmark {pgfid432}{18278759}{38212514}
\pgfsyspdfmark {pgfid433}{18278759}{38212514}
\pgfsyspdfmark {pgfid434}{18278759}{38212514}
\pgfsyspdfmark {pgfid435}{18278759}{38212514}
\pgfsyspdfmark {pgfid436}{18278759}{38212514}
\pgfsyspdfmark {pgfid437}{18278759}{38212514}
\pgfsyspdfmark {pgfid438}{18278759}{38212514}
\pgfsyspdfmark {pgfid439}{18278759}{38212514}
\pgfsyspdfmark {pgfid440}{18278759}{38212514}
\pgfsyspdfmark {pgfid441}{18278759}{38212514}
\pgfsyspdfmark {pgfid442}{18278759}{38212514}
\pgfsyspdfmark {pgfid443}{18278759}{38212514}
\pgfsyspdfmark {pgfid444}{18278759}{38212514}
\pgfsyspdfmark {pgfid445}{18278759}{38212514}
\pgfsyspdfmark {pgfid446}{18278759}{38212514}
\pgfsyspdfmark {pgfid447}{18278759}{38212514}
\pgfsyspdfmark {pgfid448}{18278759}{38212514}
\pgfsyspdfmark {pgfid449}{18278759}{38212514}
\pgfsyspdfmark {pgfid450}{18278759}{38212514}
\pgfsyspdfmark {pgfid451}{18278759}{38212514}
\pgfsyspdfmark {pgfid452}{18278759}{38212514}
\pgfsyspdfmark {pgfid453}{18278759}{38212514}
\pgfsyspdfmark {pgfid454}{18278759}{38212514}
\pgfsyspdfmark {pgfid455}{18278759}{38212514}
\pgfsyspdfmark {pgfid456}{18278759}{38212514}
\pgfsyspdfmark {pgfid457}{18278759}{38212514}
\pgfsyspdfmark {pgfid458}{18278759}{38212514}
\pgfsyspdfmark {pgfid459}{18278759}{38212514}
\pgfsyspdfmark {pgfid460}{18278759}{38212514}
\pgfsyspdfmark {pgfid461}{18278759}{38212514}
\pgfsyspdfmark {pgfid462}{18278759}{38212514}
\pgfsyspdfmark {pgfid463}{18278759}{38212514}
\pgfsyspdfmark {pgfid464}{18278759}{38212514}
\pgfsyspdfmark {pgfid465}{18278759}{38212514}
\pgfsyspdfmark {pgfid466}{18278759}{38212514}
\pgfsyspdfmark {pgfid467}{18278759}{38212514}
\pgfsyspdfmark {pgfid468}{18278759}{38212514}
\pgfsyspdfmark {pgfid469}{18278759}{38212514}
\pgfsyspdfmark {pgfid470}{18278759}{38212514}
\pgfsyspdfmark {pgfid471}{18278759}{38212514}
\pgfsyspdfmark {pgfid472}{18278759}{38212514}
\pgfsyspdfmark {pgfid473}{18278759}{38212514}
\pgfsyspdfmark {pgfid474}{18278759}{38212514}
\pgfsyspdfmark {pgfid475}{18278759}{38212514}
\pgfsyspdfmark {pgfid476}{18278759}{38212514}
\pgfsyspdfmark {pgfid477}{18278759}{38212514}
\pgfsyspdfmark {pgfid478}{18278759}{38212514}
\pgfsyspdfmark {pgfid479}{18278759}{38212514}
\pgfsyspdfmark {pgfid480}{18278759}{38212514}
\pgfsyspdfmark {pgfid481}{18278759}{38212514}
\pgfsyspdfmark {pgfid482}{18278759}{38212514}
\pgfsyspdfmark {pgfid483}{18278759}{38212514}
\pgfsyspdfmark {pgfid484}{18278759}{38212514}
\pgfsyspdfmark {pgfid485}{18278759}{38212514}
\pgfsyspdfmark {pgfid486}{18278759}{38212514}
\pgfsyspdfmark {pgfid487}{18278759}{38212514}
\pgfsyspdfmark {pgfid488}{18278759}{38212514}
\savepicturepage{pgfid490}{10}
\pgfsyspdfmark {pgfid490}{18278759}{38212514}
\pgfsyspdfmark {pgfid491}{18278759}{38212514}
\pgfsyspdfmark {pgfid492}{18278759}{38212514}
\pgfsyspdfmark {pgfid493}{18278759}{38212514}
\pgfsyspdfmark {pgfid494}{18278759}{38212514}
\pgfsyspdfmark {pgfid495}{18278759}{38212514}
\pgfsyspdfmark {pgfid496}{18278759}{38212514}
\pgfsyspdfmark {pgfid497}{18278759}{38212514}
\pgfsyspdfmark {pgfid498}{18278759}{38212514}
\pgfsyspdfmark {pgfid499}{18278759}{38212514}
\pgfsyspdfmark {pgfid500}{18278759}{38212514}
\pgfsyspdfmark {pgfid501}{18278759}{38212514}
\pgfsyspdfmark {pgfid502}{18278759}{38212514}
\pgfsyspdfmark {pgfid503}{18278759}{38212514}
\pgfsyspdfmark {pgfid504}{18278759}{38212514}
\pgfsyspdfmark {pgfid505}{18278759}{38212514}
\pgfsyspdfmark {pgfid506}{18278759}{38212514}
\pgfsyspdfmark {pgfid507}{18278759}{38212514}
\pgfsyspdfmark {pgfid508}{18278759}{38212514}
\pgfsyspdfmark {pgfid509}{18278759}{38212514}
\pgfsyspdfmark {pgfid510}{18278759}{38212514}
\pgfsyspdfmark {pgfid511}{18278759}{38212514}
\pgfsyspdfmark {pgfid512}{18278759}{38212514}
\pgfsyspdfmark {pgfid513}{18278759}{38212514}
\pgfsyspdfmark {pgfid514}{18278759}{38212514}
\pgfsyspdfmark {pgfid515}{18278759}{38212514}
\pgfsyspdfmark {pgfid516}{18278759}{38212514}
\pgfsyspdfmark {pgfid517}{18278759}{38212514}
\pgfsyspdfmark {pgfid518}{18278759}{38212514}
\pgfsyspdfmark {pgfid519}{18278759}{38212514}
\pgfsyspdfmark {pgfid520}{18278759}{38212514}
\pgfsyspdfmark {pgfid521}{18278759}{38212514}
\pgfsyspdfmark {pgfid522}{18278759}{38212514}
\pgfsyspdfmark {pgfid523}{18278759}{38212514}
\pgfsyspdfmark {pgfid524}{18278759}{38212514}
\pgfsyspdfmark {pgfid525}{18278759}{38212514}
\pgfsyspdfmark {pgfid526}{18278759}{38212514}
\pgfsyspdfmark {pgfid527}{18278759}{38212514}
\pgfsyspdfmark {pgfid528}{18278759}{38212514}
\pgfsyspdfmark {pgfid529}{18278759}{38212514}
\pgfsyspdfmark {pgfid530}{18278759}{38212514}
\pgfsyspdfmark {pgfid531}{18278759}{38212514}
\pgfsyspdfmark {pgfid532}{18278759}{38212514}
\pgfsyspdfmark {pgfid533}{18278759}{38212514}
\pgfsyspdfmark {pgfid534}{18278759}{38212514}
\pgfsyspdfmark {pgfid535}{18278759}{38212514}
\gdef \@abspage@last{10}
