\relax 
\providecommand\hyper@newdestlabel[2]{}
\providecommand\zref@newlabel[2]{}
\providecommand\babel@aux[2]{}
\@nameuse{bbl@beforestart}
\catcode `"\active 
\catcode `-\active 
\catcode `^\active 
\catcode `'\active 
\providecommand\HyperFirstAtBeginDocument{\AtBeginDocument}
\HyperFirstAtBeginDocument{\ifx\hyper@anchor\@undefined
\global\let\oldcontentsline\contentsline
\gdef\contentsline#1#2#3#4{\oldcontentsline{#1}{#2}{#3}}
\global\let\oldnewlabel\newlabel
\gdef\newlabel#1#2{\newlabelxx{#1}#2}
\gdef\newlabelxx#1#2#3#4#5#6{\oldnewlabel{#1}{{#2}{#3}}}
\AtEndDocument{\ifx\hyper@anchor\@undefined
\let\contentsline\oldcontentsline
\let\newlabel\oldnewlabel
\fi}
\fi}
\global\let\hyper@last\relax 
\gdef\HyperFirstAtBeginDocument#1{#1}
\providecommand\HyField@AuxAddToFields[1]{}
\providecommand\HyField@AuxAddToCoFields[2]{}
\providecommand\pbs@newkey[2]{}
\providecommand\pbs@seq@push@cx[2]{}
\providecommand\pbs@at@end@dvi@check{}
\pbs@at@end@dvi@check
\providecommand\@anim@newkey[2]{}
\providecommand\mix@newkey[2]{}
\pbs@newkey{pbs@last@page}{1}
\providecommand \oddpage@label [2]{}
\babel@aux{czech}{}
\babel@aux{english}{}
\babel@aux{slovak}{}
\babel@aux{czech}{}
\pgfsyspdfmark {pgfid3}{5719326}{47216927}
\pbs@newkey{pbs@last@page}{2}
\pgfsyspdfmark {pgfid4}{5719326}{47216927}
\citation{DG73}
\pbs@newkey{pbs@last@page}{3}
\newlabel{zeman/zeman}{{}{3}{}{section*.1}{}}
\babel@aux{czech}{}
\@writefile{toc}{\contentsline {part}{Ond\v rej Zeman, Ji\v r\IeC {\'\i } Dvo\v r\'ak: Ne\'upln\'e vzorky z Poissonova rozd\v elen\IeC {\'\i }}{3}{section*.2}\protected@file@percent }
\babel@aux{czech}{}
\babel@aux{czech}{}
\babel@aux{czech}{}
\babel@aux{czech}{}
\babel@aux{english}{}
\babel@aux{czech}{}
\babel@aux{english}{}
\babel@aux{czech}{}
\@writefile{toc}{\contentsline {section}{\numberline {1.}\'Uvod}{3}{section.3}\protected@file@percent }
\citation{BDG78}
\citation{DG73}
\citation{BDG78}
\citation{DG73}
\citation{Zeman2018}
\pbs@newkey{pbs@last@page}{4}
\@writefile{brf}{\backcite{DG73}{{4}{1.}{section.3}}}
\@writefile{brf}{\backcite{BDG78}{{4}{1.}{section.3}}}
\@writefile{brf}{\backcite{DG73}{{4}{1.}{section.3}}}
\@writefile{brf}{\backcite{BDG78}{{4}{1.}{section.3}}}
\@writefile{brf}{\backcite{DG73}{{4}{1.}{section.3}}}
\@writefile{brf}{\backcite{Zeman2018}{{4}{1.}{section.3}}}
\@writefile{toc}{\contentsline {section}{\numberline {2.}Z\'akladn\IeC {\'\i } pojmy}{4}{section.4}\protected@file@percent }
\citation{DG73}
\citation{DG73}
\pbs@newkey{pbs@last@page}{5}
\@writefile{toc}{\contentsline {section}{\numberline {3.}Star\v s\IeC {\'\i } \v cl\'anek}{5}{section.5}\protected@file@percent }
\@writefile{brf}{\backcite{DG73}{{5}{3.}{section.5}}}
\newlabel{eq:01}{{1}{5}{Starší článek}{equation.6}{}}
\newlabel{eq:02}{{2}{5}{Starší článek}{equation.7}{}}
\@writefile{brf}{\backcite{DG73}{{5}{3.}{equation.7}}}
\citation{San72}
\citation{Chapman51}
\pbs@newkey{pbs@last@page}{6}
\@writefile{brf}{\backcite{San72}{{6}{3.}{section*.12}}}
\@writefile{brf}{\backcite{Chapman51}{{6}{3.}{section*.12}}}
\newlabel{L1}{{1}{6}{}{lemma.13}{}}
\pbs@newkey{pbs@last@page}{7}
\newlabel{eq:Nhat}{{5}{7}{Pomocné lemma}{equation.14}{}}
\newlabel{uneq01}{{6}{7}{Pomocné lemma}{equation.15}{}}
\citation{DG73}
\pbs@newkey{pbs@last@page}{8}
\@writefile{brf}{\backcite{DG73}{{8}{3.}{section*.16}}}
\pbs@newkey{pbs@last@page}{9}
\citation{DG73}
\citation{DG73}
\pbs@newkey{pbs@last@page}{10}
\@writefile{brf}{\backcite{DG73}{{10}{3.}{section*.17}}}
\@writefile{brf}{\backcite{DG73}{{10}{3.}{section*.18}}}
\newlabel{eqqN}{{7}{10}{Druhý postup}{equation.19}{}}
\newlabel{eqql}{{8}{10}{Druhý postup}{equation.20}{}}
\citation{DG73}
\citation{BDG78}
\citation{BDG78}
\pbs@newkey{pbs@last@page}{11}
\@writefile{brf}{\backcite{DG73}{{11}{3.}{equation.20}}}
\@writefile{toc}{\contentsline {section}{\numberline {4.}Nov\v ej\v s\IeC {\'\i } \v cl\'anek}{11}{section.21}\protected@file@percent }
\@writefile{brf}{\backcite{BDG78}{{11}{4.}{section.21}}}
\newlabel{eq:03}{{9}{11}{Novější článek}{equation.22}{}}
\newlabel{eq:04}{{10}{11}{Novější článek}{equation.23}{}}
\citation{BDG78}
\pbs@newkey{pbs@last@page}{12}
\@writefile{brf}{\backcite{BDG78}{{12}{4.}{section*.24}}}
\@writefile{brf}{\backcite{BDG78}{{12}{4.}{section*.28}}}
\newlabel{eqqqq}{{13}{12}{Odvození tvaru odhadů z novějšího článku}{equation.29}{}}
\newlabel{cond01}{{14}{12}{Odvození tvaru odhadů z novějšího článku}{equation.30}{}}
\citation{Irwin}
\citation{Cohen1960}
\citation{Bortkiewicz}
\citation{BDG78}
\pbs@newkey{pbs@last@page}{13}
\@writefile{brf}{\backcite{Irwin}{{13}{4.}{equation.30}}}
\@writefile{toc}{\contentsline {section}{\numberline {5.}Ilustra\v cn\IeC {\'\i } p\v r\IeC {\'\i }klad}{13}{section.31}\protected@file@percent }
\@writefile{brf}{\backcite{Cohen1960}{{13}{5.}{section.31}}}
\@writefile{brf}{\backcite{Bortkiewicz}{{13}{5.}{section.31}}}
\citation{BDG78}
\citation{DG73}
\citation{DG73}
\citation{BDG78}
\citation{BDG78}
\bibcite{BDG78}{1}
\pbs@newkey{pbs@last@page}{14}
\@writefile{lot}{\contentsline {table}{\numberline {1}{\ignorespaces Nahl\'a\v sen\'e \v cetnosti \'umrt\IeC {\'\i } -- kopnut\IeC {\'\i } kon\v em v prusk\'e arm\'ad\v e.\relax }}{14}{table.caption.32}\protected@file@percent }
\providecommand*\caption@xref[2]{\@setref\relax\@undefined{#1}}
\newlabel{tab:01}{{1}{14}{Nahlášené četnosti úmrtí -- kopnutí koněm v pruské armádě.\relax }{table.caption.32}{}}
\@writefile{brf}{\backcite{BDG78}{{14}{5.}{section.31}}}
\@writefile{toc}{\contentsline {section}{\numberline {6.}Z\'av\v er}{14}{section.33}\protected@file@percent }
\@writefile{brf}{\backcite{BDG78}{{14}{6.}{section.33}}}
\@writefile{brf}{\backcite{DG73}{{14}{6.}{section.33}}}
\@writefile{brf}{\backcite{DG73}{{14}{6.}{section.33}}}
\@writefile{brf}{\backcite{BDG78}{{14}{6.}{section.33}}}
\@writefile{brf}{\backcite{BDG78}{{14}{6.}{section.33}}}
\babel@aux{english}{}
\bibcite{Bortkiewicz}{2}
\bibcite{Chapman51}{3}
\bibcite{Cohen1960}{4}
\bibcite{DG73}{5}
\bibcite{Irwin}{6}
\bibcite{San72}{7}
\bibcite{Zeman2018}{8}
\pbs@newkey{pbs@last@page}{15}
\babel@aux{czech}{}
\babel@aux{czech}{}
\pbs@newkey{pbs@last@page}{16}
\newlabel{dohnal-fenstats/dohnal-fenstats}{{}{16}{}{section*.35}{}}
\babel@aux{czech}{}
\@writefile{toc}{\contentsline {part}{Gejza Dohnal: Evropsk\'a statistick\'a akreditace FENStatS}{16}{section*.36}\protected@file@percent }
\@writefile{toc}{\contentsline {section}{\numberline {1.}Statistick\'e akreditace}{16}{section.37}\protected@file@percent }
\pbs@newkey{pbs@last@page}{17}
\@writefile{toc}{\contentsline {section}{\numberline {2.}Akredita\v cn\IeC {\'\i } syst\'em FENStatS}{17}{section.42}\protected@file@percent }
\pbs@newkey{pbs@last@page}{18}
\@writefile{toc}{\contentsline {subsection}{\numberline {2.1.}Postup zapojen\IeC {\'\i } NS do akredita\v cn\IeC {\'\i }ho syst\'emu FENStatS}{18}{subsection.44}\protected@file@percent }
\@writefile{toc}{\contentsline {subsection}{\numberline {2.2.}Postup \v zadatel\r u o~akreditaci}{18}{subsection.50}\protected@file@percent }
\pbs@newkey{pbs@last@page}{19}
\@writefile{toc}{\contentsline {subsection}{\numberline {2.3.}Zru\v sen\IeC {\'\i } akreditace}{19}{subsection.60}\protected@file@percent }
\@writefile{toc}{\contentsline {subsection}{\numberline {2.4.}Krit\'eria pro akreditaci}{19}{subsection.61}\protected@file@percent }
\pbs@newkey{pbs@last@page}{20}
\babel@aux{czech}{}
\pbs@newkey{pbs@last@page}{21}
\newlabel{striz-novinky-r/striz-novinky-r}{{}{21}{}{section*.68}{}}
\babel@aux{czech}{}
\@writefile{toc}{\contentsline {part}{Pavel St\v r\IeC {\'\i }\v z: Novinky ze sv\v eta R+koronaviru}{21}{section*.69}\protected@file@percent }
\@writefile{toc}{\contentsline {section}{\numberline {1.}R v4.0.0}{21}{section.70}\protected@file@percent }
\@writefile{toc}{\contentsline {section}{\numberline {2.}COVID v19}{21}{section.83}\protected@file@percent }
\pbs@newkey{pbs@last@page}{22}
\@writefile{toc}{\contentsline {section}{\numberline {3.}Coronavirus Tracker v0.1.4}{22}{section.84}\protected@file@percent }
\pbs@newkey{pbs@last@page}{23}
\pbs@newkey{pbs@last@page}{24}
\@writefile{toc}{\contentsline {section}{\numberline {4.}Ha\v sovac\IeC {\'\i } kl\IeC {\'\i }\v c od \texttt  {newsapi.org} v2}{24}{section.123}\protected@file@percent }
\pbs@newkey{pbs@last@page}{25}
\@writefile{toc}{\contentsline {section}{\numberline {5.}PostgreSQL v10+190}{25}{section.134}\protected@file@percent }
\pbs@newkey{pbs@last@page}{26}
\pbs@newkey{pbs@last@page}{27}
\@writefile{toc}{\contentsline {section}{\numberline {6.}Bioconductor v3.11}{27}{section.175}\protected@file@percent }
\@writefile{toc}{\contentsline {section}{\numberline {7.}\v Re\v sen\IeC {\'\i } konfliktu n\'azvu knihovny v R}{27}{section.194}\protected@file@percent }
\pbs@newkey{pbs@last@page}{28}
\@writefile{toc}{\contentsline {section}{\numberline {8.}P\'ar tip\r u m\IeC {\'\i }sto Z\'av\v eru}{28}{section.219}\protected@file@percent }
\babel@aux{czech}{}
\pbs@newkey{pbs@last@page}{29}
\newlabel{kalina-superprognozy/kalina-superprognozy}{{}{29}{}{section*.220}{}}
\babel@aux{czech}{}
\@writefile{toc}{\contentsline {part}{Jan Kalina: Superprogn\'ozy -- Um\v en\IeC {\'\i } a v\v eda p\v redpov\IeC {\'\i }d\'an\IeC {\'\i } budoucnosti}{29}{section*.221}\protected@file@percent }
\citation{[1]}
\bibcite{[1]}{1}
\pbs@newkey{pbs@last@page}{30}
\@writefile{brf}{\backcite{[1]}{{30}{(document)}{Doc-Start}}}
\babel@aux{czech}{}
