\relax 
\providecommand\hyper@newdestlabel[2]{}
\providecommand\babel@aux[2]{}
\@nameuse{bbl@beforestart}
\catcode `"\active 
\catcode `-\active 
\catcode `^\active 
\catcode `'\active 
\providecommand\HyperFirstAtBeginDocument{\AtBeginDocument}
\HyperFirstAtBeginDocument{\ifx\hyper@anchor\@undefined
\global\let\oldcontentsline\contentsline
\gdef\contentsline#1#2#3#4{\oldcontentsline{#1}{#2}{#3}}
\global\let\oldnewlabel\newlabel
\gdef\newlabel#1#2{\newlabelxx{#1}#2}
\gdef\newlabelxx#1#2#3#4#5#6{\oldnewlabel{#1}{{#2}{#3}}}
\AtEndDocument{\ifx\hyper@anchor\@undefined
\let\contentsline\oldcontentsline
\let\newlabel\oldnewlabel
\fi}
\fi}
\global\let\hyper@last\relax 
\gdef\HyperFirstAtBeginDocument#1{#1}
\providecommand\HyField@AuxAddToFields[1]{}
\providecommand\HyField@AuxAddToCoFields[2]{}
\babel@aux{czech}{}
\babel@aux{english}{}
\babel@aux{slovak}{}
\babel@aux{czech}{}
\pgfsyspdfmark {pgfid4}{5719326}{47216927}
\pgfsyspdfmark {pgfid5}{5719326}{47216927}
\newlabel{antoch-slajdy/antoch1}{{}{3}{}{section*.1}{}}
\babel@aux{czech}{}
\@writefile{toc}{\contentsline {part}{Jarom\IeC {\'\i }r Antoch: N\v ekolik Mikukl\'a\v ssk\'ych \'uvah k pojmu n\'ahoda}{3}{section*.2}\protected@file@percent }
\babel@aux{czech}{}
\citation{10}
\citation{11}
\citation{12}
\citation{13}
\newlabel{antoch-clanek/antoch2}{{}{7}{}{section*.3}{}}
\babel@aux{czech}{}
\@writefile{toc}{\contentsline {part}{Jarom\IeC {\'\i }r Antoch: N\v ekolik pozn\'amek o~n\'ahod\v e}{7}{section*.4}\protected@file@percent }
\@writefile{brf}{\backcite{10}{{7}{1}{Item.7}}}
\@writefile{brf}{\backcite{11}{{7}{2}{Item.8}}}
\@writefile{brf}{\backcite{12}{{7}{3}{Item.9}}}
\@writefile{brf}{\backcite{13}{{7}{4}{Item.10}}}
\citation{14}
\citation{15}
\citation{16}
\citation{17}
\@writefile{brf}{\backcite{14}{{8}{5}{Item.11}}}
\@writefile{brf}{\backcite{15}{{8}{6}{Item.12}}}
\@writefile{brf}{\backcite{16}{{8}{7}{Item.13}}}
\@writefile{brf}{\backcite{17}{{8}{8}{Item.15}}}
\citation{13}
\@writefile{brf}{\backcite{13}{{10}{(document)}{Doc-Start}}}
\citation{2}
\citation{2}
\citation{2}
\citation{1}
\@writefile{brf}{\backcite{2}{{12}{(document)}{Doc-Start}}}
\@writefile{brf}{\backcite{2}{{12}{(document)}{Doc-Start}}}
\@writefile{brf}{\backcite{2}{{12}{(document)}{Doc-Start}}}
\@writefile{brf}{\backcite{1}{{12}{(document)}{Doc-Start}}}
\citation{2}
\@writefile{brf}{\backcite{2}{{14}{7}{Hfootnote.30}}}
\citation{6}
\citation{7}
\citation{8}
\citation{9}
\@writefile{brf}{\backcite{6,7}{{19}{(document)}{Doc-Start}}}
\@writefile{brf}{\backcite{8,9}{{19}{(document)}{Doc-Start}}}
\citation{3}
\citation{4}
\citation{5}
\citation{2}
\bibcite{1}{1}
\bibcite{2}{2}
\bibcite{3}{3}
\bibcite{4}{4}
\bibcite{5}{5}
\bibcite{6}{6}
\bibcite{7}{7}
\bibcite{8}{8}
\bibcite{9}{9}
\bibcite{10}{10}
\@writefile{brf}{\backcite{3,4}{{20}{4}{Item.46}}}
\@writefile{brf}{\backcite{5}{{20}{5}{Item.47}}}
\@writefile{brf}{\backcite{2}{{20}{6}{Item.48}}}
\bibcite{11}{11}
\bibcite{12}{12}
\bibcite{13}{13}
\bibcite{14}{14}
\bibcite{15}{15}
\bibcite{16}{16}
\bibcite{17}{17}
\babel@aux{czech}{}
\citation{v1}
\citation{v2}
\newlabel{vencalek/vencalek}{{}{22}{}{section*.53}{}}
\babel@aux{czech}{}
\@writefile{toc}{\contentsline {part}{Ond\v rej Venc\'alek: \'Uvaha o~n\'ahodnosti a~s~n\IeC {\'\i } spojen\'ych filosoficko-teologick\'ych ot\'azk\'ach}{22}{section*.54}\protected@file@percent }
\@writefile{brf}{\backcite{v1}{{22}{(document)}{Doc-Start}}}
\@writefile{brf}{\backcite{v2}{{22}{(document)}{Doc-Start}}}
\citation{v3}
\citation{v4}
\@writefile{brf}{\backcite{v3}{{24}{(document)}{Doc-Start}}}
\@writefile{brf}{\backcite{v4}{{24}{(document)}{Doc-Start}}}
\citation{v5}
\citation{v6}
\citation{v4}
\@writefile{brf}{\backcite{v5}{{25}{(document)}{Doc-Start}}}
\@writefile{brf}{\backcite{v6}{{25}{(document)}{Doc-Start}}}
\@writefile{brf}{\backcite{v4}{{25}{(document)}{Doc-Start}}}
\citation{v7}
\citation{v8}
\@writefile{brf}{\backcite{v7}{{26}{(document)}{Doc-Start}}}
\@writefile{brf}{\backcite{v8}{{26}{(document)}{Doc-Start}}}
\bibcite{v1}{1}
\bibcite{v2}{2}
\bibcite{v3}{3}
\bibcite{v4}{4}
\bibcite{v5}{5}
\bibcite{v6}{6}
\bibcite{v7}{7}
\bibcite{v8}{8}
\babel@aux{czech}{}
\newlabel{dvorak/dvorak}{{}{28}{}{section*.63}{}}
\babel@aux{czech}{}
\@writefile{toc}{\contentsline {part}{Ji\v r\IeC {\'\i } Dvo\v r\'ak: N\'ahoda a~douf\'an\IeC {\'\i }}{28}{section*.64}\protected@file@percent }
\babel@aux{czech}{}
\gdef \@abspage@last{30}
