\relax 
\providecommand \babel@aux [2]{\global \let \babel@toc \@gobbletwo }
\@nameuse{bbl@beforestart}
\catcode `^\active 
\catcode `"\active 
\catcode `'\active 
\catcode `-\active 
\providecommand\hyper@newdestlabel[2]{}
\providecommand\HyField@AuxAddToFields[1]{}
\providecommand\HyField@AuxAddToCoFields[2]{}
\babel@aux{czech}{}
\babel@aux{english}{}
\babel@aux{czech}{}
\babel@aux{czech}{}
\pgfsyspdfmark {pgfid1}{5719326}{47403394}
\pgfsyspdfmark {pgfid2}{5719326}{47403394}
\citation{1,2,4,5,6,7,8,12,13,14,15}
\newlabel{pulpan/pulpan}{{}{3}{}{section*.1}{}}
\babel@aux{czech}{}
\@writefile{toc}{\contentsline {part}{Zden\v ek P\r ulp\'an: Zobecn\v en\'a entropie (R\'enyiho $\alpha $-entropie a~dal\v s\IeC {\'\i })}{3}{section*.2}\protected@file@percent }
\babel@aux{czech}{}
\babel@aux{czech}{}
\babel@aux{czech}{}
\babel@aux{czech}{}
\babel@aux{english}{}
\babel@aux{czech}{}
\babel@aux{english}{}
\babel@aux{czech}{}
\@writefile{toc}{\contentsline {section}{\numberline {1}\'Uvod}{3}{section.3}\protected@file@percent }
\@writefile{brf}{\backcite{1,2,4,5,6,7,8,12,13,14,15}{{4}{1}{section.3}}}
\@writefile{toc}{\contentsline {section}{\numberline {2}R\'enyiho zobecn\v en\'a entropie}{4}{section.4}\protected@file@percent }
\citation{4}
\@writefile{brf}{\backcite{4}{{6}{2}{equation.5}}}
\citation{9}
\citation{18}
\@writefile{brf}{\backcite{9}{{7}{2}{equation.5}}}
\@writefile{brf}{\backcite{18}{{7}{2}{equation.5}}}
\@writefile{lof}{\contentsline {figure}{\numberline {1}{\ignorespaces Grafy hodnot $H_i\left (p,1-p\right )$ pro $i = 0, 1, 2,\infty $  v~z\'avislosti na $p\in \left <0;1\right >$.}}{8}{figure.caption.6}\protected@file@percent }
\citation{17}
\citation{12}
\@writefile{toc}{\contentsline {section}{\numberline {3}Dal\v s\IeC {\'\i } entropie}{9}{section.7}\protected@file@percent }
\@writefile{brf}{\backcite{17}{{9}{3}{section.7}}}
\@writefile{brf}{\backcite{12}{{9}{3}{section.7}}}
\@writefile{lof}{\contentsline {figure}{\numberline {2}{\ignorespaces Graf funkce $H\left (p,1-p\right )=2\cdot \min (p,1-p),\ 0\leq p\leq 1$.}}{9}{figure.caption.8}\protected@file@percent }
\citation{10,11}
\@writefile{lof}{\contentsline {figure}{\numberline {3}{\ignorespaces Sch\'ema rozhodov\'an\IeC {\'\i } ve dvou kroc\IeC {\'\i }ch, t\'ykaj\IeC {\'\i }c\IeC {\'\i } se n.\,v.\,$X=(p_1,p_2,p_3)$.}}{10}{figure.caption.9}\protected@file@percent }
\@writefile{brf}{\backcite{10,11}{{10}{3}{figure.caption.9}}}
\citation{3}
\@writefile{brf}{\backcite{3}{{11}{3}{equation.10}}}
\citation{5}
\@writefile{brf}{\backcite{5}{{12}{3}{equation.10}}}
\@writefile{lof}{\contentsline {figure}{\numberline {4}{\ignorespaces Graf $T_q\left (X\right )$ pro n.\,v.\,$X(p,1-p)$ a $k=2,$ $q=1,2,3$.  $T_1=-2\cdot \left \{p\ln p+(1-p)\ln (1-p)\right \};\ T_2=4\cdot p\cdot (1-p);\ T_3=3\cdot p\cdot (1-p)$.}}{13}{figure.caption.12}\protected@file@percent }
\citation{16}
\@writefile{brf}{\backcite{16}{{14}{3}{equation.13}}}
\@writefile{toc}{\contentsline {section}{\numberline {4}Aplikace}{14}{section.14}\protected@file@percent }
\citation{1,5,14}
\citation{10,11}
\citation{3}
\bibcite{1}{1}
\@writefile{toc}{\contentsline {section}{\numberline {5}Z\'av\v er}{16}{section.15}\protected@file@percent }
\@writefile{brf}{\backcite{1,5,14}{{16}{5}{section.15}}}
\@writefile{brf}{\backcite{10,11}{{16}{5}{section.15}}}
\@writefile{brf}{\backcite{3}{{16}{5}{section.15}}}
\bibcite{2}{2}
\bibcite{3}{3}
\bibcite{4}{4}
\bibcite{5}{5}
\bibcite{6}{6}
\bibcite{7}{7}
\bibcite{8}{8}
\bibcite{9}{9}
\bibcite{10}{10}
\bibcite{11}{11}
\bibcite{12}{12}
\bibcite{13}{13}
\bibcite{14}{14}
\bibcite{15}{15}
\bibcite{16}{16}
\bibcite{17}{17}
\bibcite{18}{18}
\babel@aux{czech}{}
\newlabel{robust/robust}{{}{18}{}{section*.18}{}}
\babel@aux{czech}{}
\@writefile{toc}{\contentsline {part}{Ond\v rej Venc\'alek: Robustn\IeC {\'\i } model konference se sm\IeC {\'\i }\v sen\'ymi efekty}{18}{section*.19}\protected@file@percent }
\babel@aux{czech}{}
\newlabel{benko/benko}{{}{22}{}{section*.20}{}}
\babel@aux{czech}{}
\@writefile{toc}{\contentsline {part}{Kolektiv \'Ustavu matematiky FSI VUT v~Brn\v e: Pern\'e Statistick\'e dny pod P\'alavou 2024}{22}{section*.21}\protected@file@percent }
\newlabel{sec01}{{}{22}{1. den: příjezd, první přednášky a~ochutnávka vín}{section*.22}{}}
\babel@aux{czech}{}
\newlabel{striz/striz}{{}{26}{}{section*.27}{}}
\babel@aux{czech}{}
\@writefile{toc}{\contentsline {part}{Pavel St\v r\IeC {\'\i }\v z: Novinky v~T\kern -.1667em\lower .5ex\hbox {E}\kern -.125emXLive 2024}{26}{section*.28}\protected@file@percent }
\babel@aux{czech}{}
\newlabel{ossconf2025/ossconf2025}{{}{29}{}{section*.36}{}}
\babel@aux{czech}{}
\@writefile{toc}{\contentsline {part}{Miroslav Kva\v s\v say: Pozv\'anka na konferenci OSSConf 2025}{29}{section*.37}\protected@file@percent }
\babel@aux{czech}{}
\newlabel{pf2025/pf2025}{{}{30}{}{section*.38}{}}
\babel@aux{czech}{}
\@writefile{toc}{\contentsline {part}{Pavel St\v r\IeC {\'\i }\v z: V\'ano\v cn\IeC {\'\i } d\'arek a~PF2025!}{30}{section*.39}\protected@file@percent }
\babel@aux{czech}{}
\gdef \@abspage@last{30}
