\relax 
\providecommand\hyper@newdestlabel[2]{}
\providecommand\babel@aux[2]{}
\@nameuse{bbl@beforestart}
\catcode `"\active 
\catcode `-\active 
\catcode `^\active 
\catcode `'\active 
\providecommand\HyperFirstAtBeginDocument{\AtBeginDocument}
\HyperFirstAtBeginDocument{\ifx\hyper@anchor\@undefined
\global\let\oldcontentsline\contentsline
\gdef\contentsline#1#2#3#4{\oldcontentsline{#1}{#2}{#3}}
\global\let\oldnewlabel\newlabel
\gdef\newlabel#1#2{\newlabelxx{#1}#2}
\gdef\newlabelxx#1#2#3#4#5#6{\oldnewlabel{#1}{{#2}{#3}}}
\AtEndDocument{\ifx\hyper@anchor\@undefined
\let\contentsline\oldcontentsline
\let\newlabel\oldnewlabel
\fi}
\fi}
\global\let\hyper@last\relax 
\gdef\HyperFirstAtBeginDocument#1{#1}
\providecommand\HyField@AuxAddToFields[1]{}
\providecommand\HyField@AuxAddToCoFields[2]{}
\babel@aux{czech}{}
\babel@aux{english}{}
\babel@aux{slovak}{}
\babel@aux{czech}{}
\pgfsyspdfmark {pgfid4}{5719326}{47216927}
\pgfsyspdfmark {pgfid5}{5719326}{47216927}
\citation{Devlin}
\citation{Mlodinow}
\citation{Saxl}
\citation{Macak}
\citation{Coufal}
\newlabel{vencalek/vencalek}{{}{3}{}{section*.1}{}}
\babel@aux{czech}{}
\babel@aux{czech}{}
\babel@aux{czech}{}
\babel@aux{czech}{}
\babel@aux{czech}{}
\babel@aux{english}{}
\babel@aux{czech}{}
\babel@aux{english}{}
\babel@aux{czech}{}
\@writefile{toc}{\contentsline {section}{\numberline {1}\'Uloha o~rozd\v elen\IeC {\'\i } s\'azky a~jej\IeC {\'\i } role v~rozvoji teorie pravd\v epodobnosti}{3}{section.2}\protected@file@percent }
\newlabel{sec01}{{1}{3}{Úloha o~rozdělení sázky a~její role v~rozvoji teorie pravděpodobnosti}{section.2}{}}
\citation{Andel}
\citation{Laplace}
\@writefile{toc}{\contentsline {subsection}{\numberline {1.1}Kr\'atk\'a historie a~v\'yznam \'ulohy o~rozd\v elen\IeC {\'\i } s\'azky}{4}{subsection.3}\protected@file@percent }
\@writefile{brf}{\backcite{Devlin}{{4}{1.1}{subsection.3}}}
\@writefile{brf}{\backcite{Mlodinow}{{4}{1.1}{subsection.3}}}
\@writefile{brf}{\backcite{Saxl}{{4}{1.1}{subsection.3}}}
\@writefile{brf}{\backcite{Macak}{{4}{1.1}{subsection.3}}}
\@writefile{brf}{\backcite{Coufal}{{4}{1.1}{subsection.3}}}
\@writefile{brf}{\backcite{Andel}{{4}{1.1}{subsection.3}}}
\@writefile{brf}{\backcite{Laplace}{{4}{1.1}{subsection.3}}}
\@writefile{toc}{\contentsline {subsection}{\numberline {1.2}Klasick\'e \v re\v sen\IeC {\'\i } \'ulohy o~rozd\v elen\IeC {\'\i } s\'azky}{4}{subsection.4}\protected@file@percent }
\newlabel{rov1}{{1}{6}{Klasické řešení úlohy o~rozdělení sázky}{equation.6}{}}
\@writefile{toc}{\contentsline {section}{\numberline {2}Jak rozd\v elit s\'azku, kdy\v z \v sance nejsou vyrovnan\'e a~stav je 0:0}{6}{section.7}\protected@file@percent }
\newlabel{sec02}{{2}{6}{Jak rozdělit sázku, když šance nejsou vyrovnané a~stav je 0:0}{section.7}{}}
\newlabel{w1}{{2}{6}{Jak rozdělit sázku, když šance nejsou vyrovnané a~stav je 0:0}{equation.8}{}}
\newlabel{w2}{{3}{6}{Jak rozdělit sázku, když šance nejsou vyrovnané a~stav je 0:0}{equation.9}{}}
\newlabel{p5}{{4}{7}{Jak rozdělit sázku, když šance nejsou vyrovnané a~stav je 0:0}{equation.11}{}}
\@writefile{lof}{\contentsline {figure}{\numberline {1}{\ignorespaces Z\'avislost pravd\v epodobnosti celkov\'e v\'yhry $w_1(p_1)$ na pravd\v epodobnosti v\'yhry v~jedn\'e partii $p_1$ p\v ri h\v re na t\v ri v\IeC {\'\i }t\v ezstv\IeC {\'\i }.\relax }}{7}{figure.caption.12}\protected@file@percent }
\providecommand*\caption@xref[2]{\@setref\relax\@undefined{#1}}
\newlabel{obr1}{{1}{7}{Závislost pravděpodobnosti celkové výhry $w_1(p_1)$ na pravděpodobnosti výhry v~jedné partii $p_1$ při hře na tři vítězství.\relax }{figure.caption.12}{}}
\@writefile{lof}{\contentsline {figure}{\numberline {2}{\ignorespaces Srovn\'an\IeC {\'\i } z\'avislosti pravd\v epodobnosti celkov\'e v\'yhry $w_1(p_1)$ na pravd\v epodobnosti v\'yhry v~jedn\'e partii $p_1$ pro r\r uzn\'e po\v cty v\IeC {\'\i }t\v ezn\'ych parti\IeC {\'\i } po\v zadovan\'ych pro celkov\'e v\IeC {\'\i }t\v ezstv\IeC {\'\i }.\relax }}{8}{figure.caption.13}\protected@file@percent }
\newlabel{obr2}{{2}{8}{Srovnání závislosti pravděpodobnosti celkové výhry $w_1(p_1)$ na pravděpodobnosti výhry v~jedné partii $p_1$ pro různé počty vítězných partií požadovaných pro celkové vítězství.\relax }{figure.caption.13}{}}
\@writefile{toc}{\contentsline {section}{\numberline {3}Kdy\v z \v sance nejsou vyrovnan\'e a~hra je rozehran\'a}{8}{section.14}\protected@file@percent }
\newlabel{sec03}{{3}{8}{Když šance nejsou vyrovnané a~hra je rozehraná}{section.14}{}}
\newlabel{w1b}{{5}{9}{Když šance nejsou vyrovnané a~hra je rozehraná}{equation.15}{}}
\@writefile{toc}{\contentsline {section}{\numberline {4}Pascalovo \v re\v sen\IeC {\'\i } \'ulohy o~rozd\v elen\IeC {\'\i } s\'azky}{9}{section.16}\protected@file@percent }
\newlabel{sec04a}{{4}{9}{Pascalovo řešení úlohy o~rozdělení sázky}{section.16}{}}
\citation{AndelMS}
\@writefile{toc}{\contentsline {section}{\numberline {5}Kdy\v z pravd\v epodobnost v\'yhry nezn\'ame -- Bayesovsk\'y p\v r\IeC {\'\i }stup}{10}{section.18}\protected@file@percent }
\newlabel{sec04}{{5}{10}{Když pravděpodobnost výhry neznáme -- Bayesovský přístup}{section.18}{}}
\@writefile{toc}{\contentsline {subsection}{\numberline {5.1}Volba apriorn\IeC {\'\i }ho rozd\v elen\IeC {\'\i } hodnoty $p_1$}{10}{subsection.19}\protected@file@percent }
\@writefile{brf}{\backcite{AndelMS}{{11}{5.1}{equation.20}}}
\citation{AndelMS}
\@writefile{toc}{\contentsline {subsection}{\numberline {5.2}Rozd\v elen\IeC {\'\i } hodnoty $p_1$ a~rozd\v elen\IeC {\'\i } hodnoty $w_1$}{12}{subsection.21}\protected@file@percent }
\@writefile{brf}{\backcite{AndelMS}{{12}{5.2}{subsection.21}}}
\@writefile{lof}{\contentsline {figure}{\numberline {3}{\ignorespaces Hustota n\'ahodn\'e veli\v ciny $p_1$ (pln\'a linka) a~j\IeC {\'\i } odpov\IeC {\'\i }daj\IeC {\'\i }c\IeC {\'\i } hustota n\'ahodn\'e veli\v ciny $w_1$ (p\v reru\v sovan\'a linka) ve t\v rech r\r uzn\'ych situac\IeC {\'\i }ch, kdy rozd\v elen\IeC {\'\i } veli\v ciny $p_1$ je beta rozd\v elen\IeC {\'\i } s~parametry $\alpha = 3,\ \beta =2$ (naho\v re), $\alpha = 30,\ \beta =20$ (uprost\v red) a~$\alpha = 150,\ \beta =100$ (dole).\relax }}{13}{figure.caption.23}\protected@file@percent }
\newlabel{obr-pw}{{3}{13}{Hustota náhodné veličiny $p_1$ (plná linka) a~jí odpovídající hustota náhodné veličiny $w_1$ (přerušovaná linka) ve třech různých situacích, kdy rozdělení veličiny $p_1$ je beta rozdělení s~parametry $\alpha = 3,\ \beta =2$ (nahoře), $\alpha = 30,\ \beta =20$ (uprostřed) a~$\alpha = 150,\ \beta =100$ (dole).\relax }{figure.caption.23}{}}
\citation{Andel}
\@writefile{toc}{\contentsline {subsection}{\numberline {5.3}Jak v~bayesovsk\'em p\v r\IeC {\'\i }stupu rozd\v elit s\'azku}{14}{subsection.24}\protected@file@percent }
\@writefile{brf}{\backcite{Andel}{{14}{5.3}{subsection.24}}}
\citation{Kotz}
\newlabel{f1}{{9}{15}{Jak v~bayesovském přístupu rozdělit sázku}{equation.25}{}}
\@writefile{brf}{\backcite{Kotz}{{15}{5.3}{equation.25}}}
\newlabel{f2}{{10}{15}{Jak v~bayesovském přístupu rozdělit sázku}{equation.26}{}}
\@writefile{toc}{\contentsline {subsection}{\numberline {5.4}Numerick\'a ilustrace}{15}{subsection.27}\protected@file@percent }
\@writefile{toc}{\contentsline {section}{\numberline {6}Z\'av\v er}{16}{section.29}\protected@file@percent }
\newlabel{RF1}{17}
\@writefile{lot}{\contentsline {table}{\numberline {1}{\ignorespaces Pom\v er, v~n\v em\v z bude s\'azka rozd\v elena p\v ri h\v re na 3 v\IeC {\'\i }t\v ezstv\IeC {\'\i }, r\r uzn\'ych pr\r ub\v e\v zn\'ych stavech a~r\r uzn\'ych apriorn\IeC {\'\i }ch rozd\v elen\IeC {\'\i }ch. Pom\v ery v~z\'avorce jsou po\v c\IeC {\'\i }t\'any za p\v redpokladu, \v ze apriorn\IeC {\'\i } rozd\v elen\IeC {\'\i } pr\r ub\v e\v zn\v e neaktualizujeme.\relax }}{17}{table.caption.28}\protected@file@percent }
\newlabel{tab1}{{1}{17}{Poměr, v~němž bude sázka rozdělena při hře na 3 vítězství, různých průběžných stavech a~různých apriorních rozděleních. Poměry v~závorce jsou počítány za předpokladu, že apriorní rozdělení průběžně neaktualizujeme.\relax }{table.caption.28}{}}
\bibcite{Andel}{1}
\bibcite{AndelMS}{2}
\bibcite{Coufal}{3}
\bibcite{Devlin}{4}
\bibcite{Kotz}{5}
\bibcite{Laplace}{6}
\bibcite{Macak}{7}
\bibcite{Mlodinow}{8}
\bibcite{Saxl}{9}
\babel@aux{czech}{}
\newlabel{kalina/kalina}{{}{19}{}{section*.31}{}}
\babel@aux{czech}{}
\citation{mikova}
\bibcite{mikova}{1}
\@writefile{brf}{\backcite{mikova}{{20}{(document)}{Doc-Start}}}
\babel@aux{czech}{}
\newlabel{rybicka/rybicka}{{}{21}{}{section*.33}{}}
\babel@aux{czech}{}
\babel@aux{czech}{}
\gdef \@abspage@last{22}
