\relax 
\providecommand\hyper@newdestlabel[2]{}
\providecommand\babel@aux[2]{}
\@nameuse{bbl@beforestart}
\catcode `"\active 
\catcode `-\active 
\providecommand\HyperFirstAtBeginDocument{\AtBeginDocument}
\HyperFirstAtBeginDocument{\ifx\hyper@anchor\@undefined
\global\let\oldcontentsline\contentsline
\gdef\contentsline#1#2#3#4{\oldcontentsline{#1}{#2}{#3}}
\global\let\oldnewlabel\newlabel
\gdef\newlabel#1#2{\newlabelxx{#1}#2}
\gdef\newlabelxx#1#2#3#4#5#6{\oldnewlabel{#1}{{#2}{#3}}}
\AtEndDocument{\ifx\hyper@anchor\@undefined
\let\contentsline\oldcontentsline
\let\newlabel\oldnewlabel
\fi}
\fi}
\global\let\hyper@last\relax 
\gdef\HyperFirstAtBeginDocument#1{#1}
\providecommand\HyField@AuxAddToFields[1]{}
\providecommand\HyField@AuxAddToCoFields[2]{}
\babel@aux{czech}{}
\babel@aux{english}{}
\babel@aux{czech}{}
\babel@aux{czech}{}
\pgfsyspdfmark {pgfid1}{5719326}{47216927}
\pgfsyspdfmark {pgfid2}{5719326}{47216927}
\newlabel{clenska-schuze/clenska-schuze}{{}{3}{}{section*.1}{}}
\babel@aux{czech}{}
\@writefile{toc}{\contentsline {part}{V\'ybor spole\v cnosti: Setk\'an\IeC {\'\i } \v clen\r u \v CStS}{3}{section*.2}\protected@file@percent }
\babel@aux{czech}{}
\newlabel{zprava/zprava}{{}{5}{}{section*.7}{}}
\babel@aux{czech}{}
\@writefile{toc}{\contentsline {part}{Ond\v rej Venc\'alek: Zpr\'ava o~\v cinnosti \v Cesk\'e statistick\'e spole\v cnosti v~roce 2022}{5}{section*.8}\protected@file@percent }
\@writefile{toc}{\contentsline {section}{\numberline {1}\v Clensk\'a z\'akladna}{5}{section.9}\protected@file@percent }
\@writefile{toc}{\contentsline {section}{\numberline {2}\v Clensk\'a sch\r uze \v CStS}{5}{section.10}\protected@file@percent }
\@writefile{toc}{\contentsline {section}{\numberline {3}Dal\v s\IeC {\'\i } akce \v CStS}{5}{section.11}\protected@file@percent }
\@writefile{toc}{\contentsline {section}{\numberline {4}Spolupr\'ace s~\v Cesk\'ym statistick\'ym \'u\v radem}{6}{section.12}\protected@file@percent }
\@writefile{toc}{\contentsline {section}{\numberline {5}\v Clenstv\IeC {\'\i } v~mezin\'arodn\IeC {\'\i }ch organizac\IeC {\'\i }ch}{6}{section.13}\protected@file@percent }
\@writefile{toc}{\contentsline {section}{\numberline {6}\v Clenstv\IeC {\'\i } v~Rad\v e v\v edeck\'ych spole\v cnost\IeC {\'\i } \v CR}{6}{section.14}\protected@file@percent }
\@writefile{toc}{\contentsline {section}{\numberline {7}Dal\v s\IeC {\'\i } \v cinnost \v CStS}{6}{section.15}\protected@file@percent }
\@writefile{toc}{\contentsline {section}{\numberline {8}Akce chystan\'e \v CStS v~roce 2023}{7}{section.16}\protected@file@percent }
\babel@aux{czech}{}
\newlabel{vencalek/vencalek}{{}{8}{}{section*.17}{}}
\babel@aux{czech}{}
\@writefile{toc}{\contentsline {part}{Ond\v rej Venc\'alek: T\v ri o\v r\IeC {\'\i }\v sky pro statistiky}{8}{section*.18}\protected@file@percent }
\babel@aux{czech}{}
\babel@aux{czech}{}
\babel@aux{czech}{}
\babel@aux{czech}{}
\babel@aux{english}{}
\babel@aux{czech}{}
\babel@aux{english}{}
\babel@aux{czech}{}
\citation{Kostakova}
\@writefile{toc}{\contentsline {section}{\numberline {1}Prvn\IeC {\'\i } o\v r\IeC {\'\i }\v sek -- volatilita v\'ynosu fondu}{9}{section.19}\protected@file@percent }
\newlabel{sec01}{{1}{9}{První oříšek -- volatilita výnosu fondu}{section.19}{}}
\@writefile{lof}{\contentsline {figure}{\numberline {1}{\ignorespaces V\'yvoj hodnoty investice do nejmenovan\'eho pod\IeC {\'\i }lov\'eho fondu od 1.\,10.\,2015 do 1.\,12.\,2022 p\v ri jednor\'azov\'e investici ve v\'y\v si 100 tis\IeC {\'\i }c K\v c na za\v c\'atku (vlevo) a~p\v ri stejn\'e po\v c\'ate\v cn\IeC {\'\i } investici a~pravideln\'e m\v es\IeC {\'\i }\v cn\IeC {\'\i } investici 1000 K\v c (vpravo). Grafy naho\v re pou\v z\IeC {\'\i }van\'e bankou ukazuj\IeC {\'\i }, jak pravideln\'e investov\'an\IeC {\'\i } sni\v zuje volatilitu. Grafy dole pou\v z\IeC {\'\i }vaj\IeC {\'\i }c\IeC {\'\i } stejn\'e m\v e\v r\IeC {\'\i }tko na svisl\'e ose nejsou pro p\v resv\v ed\v cen\IeC {\'\i } klienta o~tomto fenom\'enu vhodn\'e.\relax }}{10}{figure.caption.21}\protected@file@percent }
\providecommand*\caption@xref[2]{\@setref\relax\@undefined{#1}}
\newlabel{fig:graf0}{{1}{10}{Vývoj hodnoty investice do nejmenovaného podílového fondu od 1.\,10.\,2015 do 1.\,12.\,2022 při jednorázové investici ve výši 100 tisíc Kč na začátku (vlevo) a~při stejné počáteční investici a~pravidelné měsíční investici 1000 Kč (vpravo). Grafy nahoře používané bankou ukazují, jak pravidelné investování snižuje volatilitu. Grafy dole používající stejné měřítko na svislé ose nejsou pro přesvědčení klienta o~tomto fenoménu vhodné.\relax }{figure.caption.21}{}}
\citation{Kostakova}
\@writefile{toc}{\contentsline {section}{\numberline {2}Druh\'y o\v r\IeC {\'\i }\v sek -- hypot\'eky}{11}{section.22}\protected@file@percent }
\newlabel{sec02}{{2}{11}{Druhý oříšek -- hypotéky}{section.22}{}}
\@writefile{toc}{\contentsline {subsection}{\numberline {2.1}Meziro\v cn\IeC {\'\i } srovn\'av\'an\IeC {\'\i } v~dob\v e mimo\v r\'adn\'ych ud\'alost\IeC {\'\i }}{11}{subsection.23}\protected@file@percent }
\@writefile{brf}{\backcite{Kostakova}{{11}{2.1}{subsection.23}}}
\@writefile{brf}{\backcite{Kostakova}{{11}{2.1}{figure.caption.24}}}
\@writefile{toc}{\contentsline {subsection}{\numberline {2.2}Z\'ahada zmizel\'eho peaku}{11}{subsection.25}\protected@file@percent }
\citation{Arlt}
\@writefile{lof}{\contentsline {figure}{\numberline {2}{\ignorespaces Objem nov\v e poskytnut\'ych hypote\v cn\IeC {\'\i }ch \'uv\v er\r u v~mil. K\v c dle \v CNB (\v ctvrtletn\IeC {\'\i } data).\relax }}{12}{figure.caption.24}\protected@file@percent }
\newlabel{fig:graf1}{{2}{12}{Objem nově poskytnutých hypotečních úvěrů v~mil. Kč dle ČNB (čtvrtletní data).\relax }{figure.caption.24}{}}
\@writefile{lof}{\contentsline {figure}{\numberline {3}{\ignorespaces Objem nov\'ych \'uv\v er\r u na bydlen\IeC {\'\i } poskytnut\'ych bankami a~stavebn\IeC {\'\i }mi spo\v ritelnami obyvatelstvu v~mil. K\v c dle \v CNB. Srovn\'an\IeC {\'\i } graf\r u p\v ri volb\v e m\v es\IeC {\'\i }\v cn\IeC {\'\i } (naho\v re) a~kvart\'aln\IeC {\'\i } (dole) periodicity.\relax }}{13}{figure.caption.27}\protected@file@percent }
\newlabel{fig:graf2}{{3}{13}{Objem nových úvěrů na bydlení poskytnutých bankami a~stavebními spořitelnami obyvatelstvu v~mil. Kč dle ČNB. Srovnání grafů při volbě měsíční (nahoře) a~kvartální (dole) periodicity.\relax }{figure.caption.27}{}}
\@writefile{brf}{\backcite{Arlt}{{13}{2.2}{figure.caption.27}}}
\@writefile{toc}{\contentsline {subsection}{\numberline {2.3}P\'atr\'an\IeC {\'\i } po p\r uvodu peaku}{13}{subsection.28}\protected@file@percent }
\newlabel{puvod}{{2.3}{13}{Pátrání po původu peaku}{subsection.28}{}}
\citation{zprava}
\citation{CBA}
\@writefile{lof}{\contentsline {figure}{\numberline {4}{\ignorespaces Objem \v cist\'ych nov\'ych a~nov\v e ujednan\'ych \'uv\v er\r u poskytnut\'ych bankami dom\'acnostem a~neziskov\'ym instituc\IeC {\'\i }m slou\v z\IeC {\'\i }c\IeC {\'\i }m dom\'acnostem (NISD) v~\v CR v~mil. K\v c dle \v CNB.\relax }}{14}{figure.caption.29}\protected@file@percent }
\newlabel{fig:graf3}{{4}{14}{Objem čistých nových a~nově ujednaných úvěrů poskytnutých bankami domácnostem a~neziskovým institucím sloužícím domácnostem (NISD) v~ČR v~mil. Kč dle ČNB.\relax }{figure.caption.29}{}}
\citation{Cipra}
\@writefile{brf}{\backcite{zprava}{{15}{2.3}{figure.caption.29}}}
\@writefile{brf}{\backcite{CBA}{{15}{2.3}{figure.caption.29}}}
\@writefile{toc}{\contentsline {section}{\numberline {3}T\v ret\IeC {\'\i } o\v r\IeC {\'\i }\v sek -- \'umrtnost}{15}{section.31}\protected@file@percent }
\newlabel{sec03}{{3}{15}{Třetí oříšek -- úmrtnost}{section.31}{}}
\@writefile{toc}{\contentsline {subsection}{\numberline {3.1}Podivn\'y graf z~jara 2021}{15}{subsection.32}\protected@file@percent }
\@writefile{brf}{\backcite{Cipra}{{16}{3.1}{subsection.32}}}
\@writefile{toc}{\contentsline {subsection}{\numberline {3.2}Odhad pravd\v epodobnosti \'umrt\IeC {\'\i } ve v\v eku $x$}{16}{subsection.33}\protected@file@percent }
\newlabel{aprox}{{1}{16}{Odhad pravděpodobnosti úmrtí ve věku $x$}{equation.34}{}}
\citation{Mazouch}
\citation{Mazouch}
\newlabel{vz}{{2}{17}{Odhad pravděpodobnosti úmrtí ve věku $x$}{equation.35}{}}
\@writefile{brf}{\backcite{Mazouch}{{17}{3.2}{equation.35}}}
\@writefile{brf}{\backcite{Mazouch}{{17}{3.2}{equation.35}}}
\@writefile{toc}{\contentsline {subsection}{\numberline {3.3}Aproximativn\IeC {\'\i } v\'ypo\v cet a~jeho selh\'an\IeC {\'\i }}{17}{subsection.36}\protected@file@percent }
\@writefile{lof}{\contentsline {figure}{\numberline {5}{\ignorespaces \'Umrtnost (vyj\'ad\v ren\'a jako pod\IeC {\'\i }l) ve v\v eku 80 let. Srovn\'an\IeC {\'\i } odhadu vypo\v cten\'eho podle vztahu~(\ref  {vz}) a~odhadu aproximativn\IeC {\'\i }ho.\relax }}{18}{figure.caption.39}\protected@file@percent }
\newlabel{fig:graf4}{{5}{18}{Úmrtnost (vyjádřená jako podíl) ve věku 80 let. Srovnání odhadu vypočteného podle vztahu~(\ref {vz}) a~odhadu aproximativního.\relax }{figure.caption.39}{}}
\@writefile{lot}{\contentsline {table}{\numberline {1}{\ignorespaces Data o~v\'yvoji \'umrtnosti ve v\v ekov\'e  skupin\v e 80 let v~letech 1994 a\v z 2002.\relax }}{19}{table.caption.40}\protected@file@percent }
\newlabel{tab1}{{1}{19}{Data o~vývoji úmrtnosti ve věkové\\ skupině 80 let v~letech 1994 až 2002.\relax }{table.caption.40}{}}
\bibcite{Kostakova}{1}
\bibcite{Arlt}{2}
\bibcite{zprava}{3}
\bibcite{CBA}{4}
\bibcite{Cipra}{5}
\bibcite{Mazouch}{6}
\babel@aux{czech}{}
\newlabel{nova-kniha/nova-kniha}{{}{21}{}{section*.42}{}}
\babel@aux{czech}{}
\@writefile{toc}{\contentsline {part}{Redakce \v casopisu: Nov\'a kniha \v clen\r u \v CStS}{21}{section*.43}\protected@file@percent }
\babel@aux{czech}{}
\gdef \@abspage@last{22}
