\relax 
\providecommand\hyper@newdestlabel[2]{}
\providecommand\babel@aux[2]{}
\@nameuse{bbl@beforestart}
\catcode `"\active 
\catcode `-\active 
\catcode `^\active 
\catcode `'\active 
\providecommand\HyperFirstAtBeginDocument{\AtBeginDocument}
\HyperFirstAtBeginDocument{\ifx\hyper@anchor\@undefined
\global\let\oldcontentsline\contentsline
\gdef\contentsline#1#2#3#4{\oldcontentsline{#1}{#2}{#3}}
\global\let\oldnewlabel\newlabel
\gdef\newlabel#1#2{\newlabelxx{#1}#2}
\gdef\newlabelxx#1#2#3#4#5#6{\oldnewlabel{#1}{{#2}{#3}}}
\AtEndDocument{\ifx\hyper@anchor\@undefined
\let\contentsline\oldcontentsline
\let\newlabel\oldnewlabel
\fi}
\fi}
\global\let\hyper@last\relax 
\gdef\HyperFirstAtBeginDocument#1{#1}
\providecommand\HyField@AuxAddToFields[1]{}
\providecommand\HyField@AuxAddToCoFields[2]{}
\babel@aux{czech}{}
\babel@aux{english}{}
\babel@aux{slovak}{}
\babel@aux{czech}{}
\pgfsyspdfmark {pgfid3}{5719326}{47216927}
\pgfsyspdfmark {pgfid4}{5719326}{47216927}
\newlabel{stanek/stanek}{{}{3}{}{section*.1}{}}
\babel@aux{czech}{}
\@writefile{toc}{\contentsline {part}{Kate\v rina Helisov\'a, Jakub Stan\v ek: Rozli\v sov\'an\IeC {\'\i } realizac\IeC {\'\i } n\'ahodn\'ych mno\v zin}{3}{section*.2}\protected@file@percent }
\babel@aux{czech}{}
\babel@aux{czech}{}
\babel@aux{czech}{}
\babel@aux{czech}{}
\babel@aux{english}{}
\babel@aux{czech}{}
\babel@aux{english}{}
\babel@aux{czech}{}
\@writefile{toc}{\contentsline {section}{\numberline {1.}\'Uvod}{3}{section.3}\protected@file@percent }
\citation{matheron:1975}
\citation{molchanov:2005}
\citation{serra:1982}
\citation{moeller:2010}
\citation{hermann:2015}
\citation{neumann:2016}
\citation{mrkvicka:2011}
\citation{chiu:2013}
\citation{chiu:2013}
\citation{serra:1982}
\citation{serra:1982}
\citation{debayle:2020}
\citation{gotovac:2019a}
\citation{gotovac:2019b}
\citation{gotovac:2016}
\@writefile{brf}{\backcite{matheron:1975}{{4}{1.}{section.3}}}
\@writefile{brf}{\backcite{molchanov:2005}{{4}{1.}{section.3}}}
\@writefile{brf}{\backcite{serra:1982}{{4}{1.}{section.3}}}
\@writefile{brf}{\backcite{moeller:2010}{{4}{1.}{section.3}}}
\@writefile{brf}{\backcite{hermann:2015}{{4}{1.}{section.3}}}
\@writefile{brf}{\backcite{neumann:2016}{{4}{1.}{section.3}}}
\@writefile{brf}{\backcite{mrkvicka:2011}{{4}{1.}{section.3}}}
\@writefile{brf}{\backcite{chiu:2013}{{4}{1.}{section.3}}}
\@writefile{brf}{\backcite{chiu:2013}{{4}{1.}{section.3}}}
\@writefile{brf}{\backcite{serra:1982}{{4}{1.}{section.3}}}
\@writefile{brf}{\backcite{serra:1982}{{4}{1.}{section.3}}}
\@writefile{brf}{\backcite{debayle:2020}{{5}{1.}{section.3}}}
\@writefile{brf}{\backcite{gotovac:2019a}{{5}{1.}{section.3}}}
\@writefile{brf}{\backcite{gotovac:2019b}{{5}{1.}{section.3}}}
\@writefile{brf}{\backcite{gotovac:2016}{{5}{1.}{section.3}}}
\@writefile{toc}{\contentsline {section}{\numberline {2.}Teoretick\'e z\'aklady}{5}{section.4}\protected@file@percent }
\newlabel{sec:TB}{{2.}{5}{Teoretické základy}{section.4}{}}
\@writefile{toc}{\contentsline {subsection}{\numberline {2.1.}N\'ahodn\'e mno\v ziny a~mozaiky}{5}{subsection.5}\protected@file@percent }
\citation{lavie:2000}
\citation{chiu:2013}
\@writefile{lof}{\contentsline {figure}{\numberline {1}{\ignorespaces Uk\'azka op\v ern\'e funkce pro \v ctverec s~t\v e\v zi\v st\v em v~po\v c\'atku, tedy pro centrovan\'y geometrick\'y objekt s~rovn\'ymi hranicemi (lev\'e dva obr\'azky), a~pro kruh se st\v redem v~po\v c\'atku, tedy pro centrovan\'y geometrick\'y objekt se~zaoblen\'ymi hranicemi (prav\'e dva obr\'azky).\relax }}{6}{figure.caption.11}\protected@file@percent }
\providecommand*\caption@xref[2]{\@setref\relax\@undefined{#1}}
\newlabel{fig:support}{{1}{6}{Ukázka opěrné funkce pro čtverec s~těžištěm v~počátku, tedy pro centrovaný geometrický objekt s~rovnými hranicemi (levé dva obrázky), a~pro kruh se středem v~počátku, tedy pro centrovaný geometrický objekt se~zaoblenými hranicemi (pravé dva obrázky).\relax }{figure.caption.11}{}}
\@writefile{brf}{\backcite{lavie:2000}{{6}{2.1}{theorem.12}}}
\@writefile{brf}{\backcite{chiu:2013}{{6}{2.1.}{theorem.12}}}
\citation{serra:1982}
\@writefile{toc}{\contentsline {subsection}{\numberline {2.2.}Morfologick\'y skelet mno\v ziny}{7}{subsection.15}\protected@file@percent }
\newlabel{sec:skeleton}{{2.2.}{7}{Morfologický skelet množiny}{subsection.15}{}}
\@writefile{brf}{\backcite{serra:1982}{{7}{2.6}{definition.16}}}
\newlabel{def:DEOC}{{2.6}{7}{}{definition.16}{}}
\citation{maragos:1986}
\@writefile{lof}{\contentsline {figure}{\numberline {2}{\ignorespaces Uk\'azka morfologick\'ych operac\IeC {\'\i } z~def. \ref  {def:DEOC}: (a) mno\v zina $X$, (b) kompaktn\IeC {\'\i } prvek $A$, (c) dilatace, (d) eroze, (e) otev\v ren\IeC {\'\i } a~(f) zav\v ren\IeC {\'\i } mno\v ziny~$X$ prvkem $A$.\relax }}{8}{figure.caption.17}\protected@file@percent }
\newlabel{fig:DEOC}{{2}{8}{Ukázka morfologických operací z~def. \ref {def:DEOC}: (a) množina $X$, (b) kompaktní prvek $A$, (c) dilatace, (d) eroze, (e) otevření a~(f) zavření množiny~$X$ prvkem $A$.\relax }{figure.caption.17}{}}
\@writefile{brf}{\backcite{maragos:1986}{{8}{2.2.}{definition.19}}}
\citation{myllymaki:2017}
\citation{mrkvicka:2017}
\@writefile{lof}{\contentsline {figure}{\numberline {3}{\ignorespaces Uk\'azka bin\'arn\IeC {\'\i }ho obr\'azku mno\v ziny (vlevo), jej\IeC {\'\i }ho skeletu (uprost\v red) a~rekonstrukce p\r uvodn\IeC {\'\i } mno\v ziny pomoc\IeC {\'\i } skeletu a~p\v r\IeC {\'\i }slu\v sn\'ych maxim\'aln\IeC {\'\i }ch kruh\r u, tj. sjednocen\IeC {\'\i } v\v sech maxim\'aln\IeC {\'\i }ch kruh\r u (vpravo; pro lep\v s\IeC {\'\i } vizualizaci zobrazeny pouze hranice t\v echto kruh\r u).\relax }}{9}{figure.caption.26}\protected@file@percent }
\newlabel{fig:star}{{3}{9}{Ukázka binárního obrázku množiny (vlevo), jejího skeletu (uprostřed) a~rekonstrukce původní množiny pomocí skeletu a~příslušných maximálních kruhů, tj. sjednocení všech maximálních kruhů (vpravo; pro lepší vizualizaci zobrazeny pouze hranice těchto kruhů).\relax }{figure.caption.26}{}}
\@writefile{toc}{\contentsline {subsection}{\numberline {2.3.}Testov\'an\IeC {\'\i } shody rozd\v elen\IeC {\'\i } n\'ahodn\'ych funkc\IeC {\'\i }}{9}{subsection.27}\protected@file@percent }
\@writefile{toc}{\contentsline {subsubsection}{\numberline {2.3.1.}Ob\'alkov\'y test}{9}{subsubsection.28}\protected@file@percent }
\@writefile{brf}{\backcite{myllymaki:2017}{{9}{2.3.1.}{subsubsection.28}}}
\@writefile{brf}{\backcite{mrkvicka:2017}{{9}{2.3.1.}{subsubsection.28}}}
\citation{davison:1997}
\citation{klebanov:2006}
\citation{klebanov:2006}
\@writefile{lof}{\contentsline {figure}{\numberline {4}{\ignorespaces Uk\'azka v\'ypo\v ctu $R_i(u)$ a~$\mathbf  {N}_i$ v~ob\'alkov\'em testu.\relax }}{10}{figure.caption.29}\protected@file@percent }
\newlabel{fig:envelope}{{4}{10}{Ukázka výpočtu $R_i(u)$ a~$\mathbf {N}_i$ v~obálkovém testu.\relax }{figure.caption.29}{}}
\@writefile{brf}{\backcite{davison:1997}{{10}{2.3.1.}{figure.caption.29}}}
\newlabel{sec:Ndist}{{2.3.2.}{10}{Test založený na $\mathcal {N}$-vzdálenosti}{subsubsection.30}{}}
\@writefile{toc}{\contentsline {subsubsection}{\numberline {2.3.2.}Test zalo\v zen\'y na $\mathcal  {N}$-vzd\'alenosti}{10}{subsubsection.30}\protected@file@percent }
\@writefile{brf}{\backcite{klebanov:2006}{{10}{2.3.2.}{subsubsection.30}}}
\@writefile{brf}{\backcite{klebanov:2006}{{10}{2.3.2.}{subsubsection.30}}}
\citation{klebanov:2006}
\citation{klebanov:2006}
\citation{gotovac:2019b}
\@writefile{brf}{\backcite{klebanov:2006}{{11}{2.2}{theorem.32}}}
\newlabel{eq:Ndist}{{1}{11}{Klebanov \cite {klebanov:2006}}{equation.33}{}}
\@writefile{brf}{\backcite{klebanov:2006}{{11}{2.3.2.}{equation.33}}}
\@writefile{brf}{\backcite{gotovac:2019b}{{11}{2.3.2.}{equation.33}}}
\newlabel{eq:Nest}{{2}{11}{Test založený na $\mathcal {N}$-vzdálenosti}{equation.34}{}}
\citation{gotovac:2016}
\citation{moeller:2008}
\@writefile{toc}{\contentsline {section}{\numberline {3.}Metody rozli\v sov\'an\IeC {\'\i } realizac\IeC {\'\i } n\'ahodn\'ych mno\v zin}{12}{section.35}\protected@file@percent }
\newlabel{sec:methods}{{3.}{12}{Metody rozlišování realizací náhodných množin}{section.35}{}}
\@writefile{brf}{\backcite{gotovac:2016}{{12}{3.}{section.35}}}
\@writefile{brf}{\backcite{moeller:2008}{{12}{3.}{section.35}}}
\@writefile{lof}{\contentsline {figure}{\numberline {5}{\ignorespaces Uk\'azka realizac\IeC {\'\i } boolsk\'eho modelu (vlevo), shlukov\'eho modelu (uprost\v red) a~modelu odpuzuj\IeC {\'\i }c\IeC {\'\i }ch se komponent (vpravo), kter\'e byly pou\v zit\'e pro simula\v cn\IeC {\'\i } studii.\relax }}{12}{figure.caption.36}\protected@file@percent }
\newlabel{fig:models}{{5}{12}{Ukázka realizací boolského modelu (vlevo), shlukového modelu (uprostřed) a~modelu odpuzujících se komponent (vpravo), které byly použité pro simulační studii.\relax }{figure.caption.36}{}}
\citation{gotovac:2019b}
\citation{gotovac:2016}
\citation{ebeida:2011}
\@writefile{toc}{\contentsline {subsection}{\numberline {3.1.}Aproximace sjednocen\IeC {\'\i }m konvexn\IeC {\'\i }ch\\ kompaktn\IeC {\'\i }ch mno\v zin}{13}{subsection.37}\protected@file@percent }
\@writefile{brf}{\backcite{gotovac:2019b}{{13}{3.1.}{subsection.37}}}
\@writefile{brf}{\backcite{gotovac:2016}{{13}{3.1.}{subsection.37}}}
\@writefile{brf}{\backcite{ebeida:2011}{{13}{1}{Item.38}}}
\citation{gotovac:2016}
\@writefile{lof}{\contentsline {figure}{\numberline {6}{\ignorespaces Pokr\'yv\'an\IeC {\'\i } realizace sjednocen\IeC {\'\i }m kruh\r u se stejn\'ymi polom\v ery a~n\'asledn\'a konstrukce Voronoiovy mozaiky: aproximovan\'a realizace (a), jej\IeC {\'\i } eroze (b), pokr\'yv\'an\IeC {\'\i } hranice realizace po erozi (c), pokr\'yv\'an\IeC {\'\i } vnit\v rku (d) a~odpov\IeC {\'\i }daj\IeC {\'\i }c\IeC {\'\i } Voronoiova mozaika (e).\relax }}{14}{figure.caption.43}\protected@file@percent }
\newlabel{fig:voronoi}{{6}{14}{Pokrývání realizace sjednocením kruhů se stejnými poloměry a~následná konstrukce Voronoiovy mozaiky: aproximovaná realizace (a), její eroze (b), pokrývání hranice realizace po erozi (c), pokrývání vnitřku (d) a~odpovídající Voronoiova mozaika (e).\relax }{figure.caption.43}{}}
\citation{gotovac:2016}
\citation{debayle:2020}
\citation{debayle:2020}
\@writefile{brf}{\backcite{gotovac:2016}{{15}{3.1.}{figure.caption.43}}}
\@writefile{brf}{\backcite{gotovac:2016}{{15}{3.1.}{figure.caption.43}}}
\@writefile{toc}{\contentsline {subsection}{\numberline {3.2.}Srovn\'an\IeC {\'\i } skelet\r u a~p\v r\IeC {\'\i }slu\v sn\'ych maxim\'aln\IeC {\'\i }ch kruh\r u}{15}{subsection.44}\protected@file@percent }
\@writefile{brf}{\backcite{debayle:2020}{{15}{3.2.}{subsection.44}}}
\newlabel{eq:tf}{{3}{15}{Srovnání skeletů a~příslušných maximálních kruhů}{equation.45}{}}
\@writefile{brf}{\backcite{debayle:2020}{{16}{3.2.}{equation.45}}}
\@writefile{lof}{\contentsline {figure}{\numberline {7}{\ignorespaces Uk\'azka testovac\IeC {\'\i }ch funkc\IeC {\'\i } z~jedn\'e realizace boolsk\'eho procesu (vlevo), shlukov\'eho procesu (uprost\v red) a~procesu s~odpuzuj\IeC {\'\i }c\IeC {\'\i }mi se komponentami (vpravo) pou\v zit\'ych p\v ri rozli\v sov\'an\IeC {\'\i } metodou srovn\'av\'an\IeC {\'\i } skelet\r u a~p\v r\IeC {\'\i }slu\v sn\'ych maxim\'aln\IeC {\'\i }ch kruh\r u.\relax }}{16}{figure.caption.46}\protected@file@percent }
\newlabel{fig:tf}{{7}{16}{Ukázka testovacích funkcí z~jedné realizace boolského procesu (vlevo), shlukového procesu (uprostřed) a~procesu s~odpuzujícími se komponentami (vpravo) použitých při rozlišování metodou srovnávání skeletů a~příslušných maximálních kruhů.\relax }{figure.caption.46}{}}
\citation{gotovac:2019a}
\@writefile{toc}{\contentsline {subsection}{\numberline {3.3.}Srovn\'an\IeC {\'\i } komponent a~jejich sousedstv\IeC {\'\i }}{17}{subsection.47}\protected@file@percent }
\@writefile{brf}{\backcite{gotovac:2019a}{{17}{3.3.}{subsection.47}}}
\@writefile{lof}{\contentsline {figure}{\numberline {8}{\ignorespaces Uva\v zovan\'e komponenty (vyzna\v cen\'e \v cern\v e) v~boolsk\'em procesu (vlevo), shlukov\'em procesu (uprost\v red) a~procesu odpuzuj\IeC {\'\i }c\IeC {\'\i }ch se komponent (vpravo), jejich t\v e\v zi\v st\v e (\v cerven\'e body) a~uva\v zovan\'a sousedstv\IeC {\'\i } (r\r uzn\'e odst\IeC {\'\i }ny modr\'e).\relax }}{18}{figure.caption.48}\protected@file@percent }
\newlabel{fig:neighb}{{8}{18}{Uvažované komponenty (vyznačené černě) v~boolském procesu (vlevo), shlukovém procesu (uprostřed) a~procesu odpuzujících se komponent (vpravo), jejich těžiště (červené body) a~uvažovaná sousedství (různé odstíny modré).\relax }{figure.caption.48}{}}
\@writefile{toc}{\contentsline {section}{\numberline {4.}Srovn\'an\IeC {\'\i } metod}{18}{section.49}\protected@file@percent }
\newlabel{sec:overview}{{4.}{18}{Srovnání metod}{section.49}{}}
\@writefile{lot}{\contentsline {table}{\numberline {1}{\ignorespaces P\v rehled pou\v zit\IeC {\'\i }, v\'yhod a~nev\'yhod prezentovan\'ych metod.\relax }}{20}{table.caption.50}\protected@file@percent }
\newlabel{tab:summary}{{1}{20}{Přehled použití, výhod a~nevýhod prezentovaných metod.\relax }{table.caption.50}{}}
\@writefile{lof}{\contentsline {figure}{\numberline {9}{\ignorespaces Histogramy $p$-hodnot pro srovn\'an\IeC {\'\i } boolsk\'eho procesu s~procesem s~odpuzuj\IeC {\'\i }c\IeC {\'\i }m\IeC {\'\i } se komponentami (vlevo), boolsk\'eho se shlukov\'ym procesem (uprost\v red) a~shlukov\'eho procesu s~procesem s~odpuzuj\IeC {\'\i }c\IeC {\'\i }m\IeC {\'\i } se komponentami (vpravo) metodami AO (prvn\IeC {\'\i } \v r\'adek), AN (druh\'y \v r\'adek), K~(t\v ret\IeC {\'\i } \v r\'adek), S~(\v ctvrt\'y \v r\'adek), KS, SO and SN (stejn\'e histogramy v~p\'at\'em \v r\'adku).\relax }}{21}{figure.caption.51}\protected@file@percent }
\newlabel{fig:hist}{{9}{21}{Histogramy $p$-hodnot pro srovnání boolského procesu s~procesem s~odpuzujícímí se komponentami (vlevo), boolského se shlukovým procesem (uprostřed) a~shlukového procesu s~procesem s~odpuzujícímí se komponentami (vpravo) metodami AO (první řádek), AN (druhý řádek), K~(třetí řádek), S~(čtvrtý řádek), KS, SO and SN (stejné histogramy v~pátém řádku).\relax }{figure.caption.51}{}}
\bibcite{chiu:2013}{1}
\bibcite{davison:1997}{2}
\bibcite{debayle:2020}{3}
\bibcite{ebeida:2011}{4}
\bibcite{gotovac:2019a}{5}
\bibcite{gotovac:2019b}{6}
\bibcite{gotovac:2016}{7}
\@writefile{lot}{\contentsline {table}{\numberline {2}{\ignorespaces Procenta mal\'ych $p$-hodnot pro boolsk\'y proces  a~proces odpuzuj\IeC {\'\i }c\IeC {\'\i }ch se komponent.\relax }}{22}{table.caption.52}\protected@file@percent }
\newlabel{tab:percent}{{2}{22}{Procenta malých $p$-hodnot pro boolský proces\\ a~proces odpuzujících se komponent.\relax }{table.caption.52}{}}
\babel@aux{english}{}
\bibcite{hermann:2015}{8}
\bibcite{klebanov:2006}{9}
\bibcite{lavie:2000}{10}
\bibcite{maragos:1986}{11}
\bibcite{matheron:1975}{12}
\bibcite{molchanov:2005}{13}
\bibcite{moeller:2008}{14}
\bibcite{moeller:2010}{15}
\bibcite{mrkvicka:2011}{16}
\bibcite{mrkvicka:2017}{17}
\bibcite{myllymaki:2017}{18}
\bibcite{neumann:2016}{19}
\bibcite{serra:1982}{20}
\babel@aux{czech}{}
\babel@aux{czech}{}
\newlabel{turcicova/turcicova}{{}{24}{}{section*.55}{}}
\babel@aux{czech}{}
\@writefile{toc}{\contentsline {part}{Marie Tur\v ci\v cov\'a, Kry\v stof Eben: Odhad varian\v cn\IeC {\'\i } matice ve vysok\'e dimenzi}{24}{section*.56}\protected@file@percent }
\babel@aux{czech}{}
\babel@aux{czech}{}
\babel@aux{czech}{}
\babel@aux{czech}{}
\babel@aux{english}{}
\babel@aux{czech}{}
\babel@aux{english}{}
\babel@aux{czech}{}
\@writefile{toc}{\contentsline {section}{\numberline {1.}\'Uvod}{25}{section.57}\protected@file@percent }
\newlabel{sec01}{{1.}{25}{Úvod}{section.57}{}}
\newlabel{sample_cov}{{1}{25}{Úvod}{equation.58}{}}
\citation{Ledoit-2004-WEL}
\citation{Ledoit-2004-WEL}
\@writefile{toc}{\contentsline {section}{\numberline {2.}Neparametrick\'e metody}{26}{section.59}\protected@file@percent }
\newlabel{Neparametrick\'e metody}{{2.}{26}{Neparametrické metody}{section.59}{}}
\@writefile{toc}{\contentsline {subsection}{\numberline {2.1.}Odhad metodou smr\v st\v en\IeC {\'\i } (tzv. shrinkage odhad)}{26}{subsection.60}\protected@file@percent }
\newlabel{shrinkage}{{2.1.}{26}{Odhad metodou smrštění (tzv. shrinkage odhad)}{subsection.60}{}}
\@writefile{brf}{\backcite{Ledoit-2004-WEL}{{26}{2.1.}{subsection.60}}}
\newlabel{eq:shrinkage}{{2}{26}{Odhad metodou smrštění (tzv. shrinkage odhad)}{equation.61}{}}
\@writefile{brf}{\backcite{Ledoit-2004-WEL}{{26}{2.1.}{equation.61}}}
\citation{Ledoit-2004-WEL}
\citation{Ledoit-2004-WEL}
\citation{Muirhead-DEE-1987}
\newlabel{nu_and_rho}{{3}{27}{Odhad metodou smrštění (tzv. shrinkage odhad)}{equation.62}{}}
\@writefile{brf}{\backcite{Ledoit-2004-WEL}{{27}{2.1.}{equation.62}}}
\@writefile{brf}{\backcite{Ledoit-2004-WEL}{{27}{2.1.}{equation.62}}}
\@writefile{brf}{\backcite{Muirhead-DEE-1987}{{27}{2.1.}{equation.62}}}
\newlabel{eq:shrinkage_gen}{{4}{27}{Odhad metodou smrštění (tzv. shrinkage odhad)}{equation.63}{}}
\citation{Pourahmadi}
\citation{Horn_Johnson}
\citation{Houtekamer-2001-SEK}
\citation{Hamill-2001-DDF}
\citation{Houtekamer-2001-SEK}
\citation{Gaspari-Cohn}
\citation{Hamill-2001-DDF}
\citation{Gaspari-Cohn}
\citation{Furrer-2007-EHP}
\@writefile{toc}{\contentsline {subsection}{\numberline {2.2.}Pos\IeC {\'\i }len\IeC {\'\i } diagon\'aly matice (tzv. tapering)}{28}{subsection.64}\protected@file@percent }
\newlabel{tapering}{{5}{28}{Posílení diagonály matice (tzv. tapering)}{equation.65}{}}
\@writefile{brf}{\backcite{Pourahmadi}{{28}{2.2.}{equation.65}}}
\@writefile{brf}{\backcite{Horn_Johnson}{{28}{2.2.}{equation.65}}}
\@writefile{brf}{\backcite{Houtekamer-2001-SEK}{{28}{2.2.}{equation.65}}}
\@writefile{brf}{\backcite{Hamill-2001-DDF}{{28}{2.2.}{equation.65}}}
\@writefile{brf}{\backcite{Houtekamer-2001-SEK}{{28}{2.2.}{equation.65}}}
\@writefile{brf}{\backcite{Gaspari-Cohn}{{28}{2.2.}{equation.65}}}
\@writefile{brf}{\backcite{Hamill-2001-DDF}{{28}{2.2.}{equation.65}}}
\@writefile{brf}{\backcite{Gaspari-Cohn}{{28}{2.2.}{equation.65}}}
\@writefile{brf}{\backcite{Furrer-2007-EHP}{{28}{2.2.}{equation.65}}}
\citation{Houtekamer-2001-SEK}
\citation{Hamill-2001-DDF}
\citation{Bickel-2008}
\citation{Bickel-2008}
\citation{Bickel-2008}
\@writefile{brf}{\backcite{Houtekamer-2001-SEK}{{29}{2.2.}{equation.66}}}
\@writefile{brf}{\backcite{Hamill-2001-DDF}{{29}{2.2.}{equation.66}}}
\@writefile{toc}{\contentsline {subsection}{\numberline {2.3.}Vynulov\'an\IeC {\'\i } zanedbateln\'ych prvk\r u (tzv. tresholding)}{29}{subsection.67}\protected@file@percent }
\@writefile{brf}{\backcite{Bickel-2008}{{29}{2.3.}{subsection.67}}}
\@writefile{brf}{\backcite{Bickel-2008}{{29}{2.3.}{equation.68}}}
\@writefile{brf}{\backcite{Bickel-2008}{{29}{2.3.}{equation.69}}}
\@writefile{toc}{\contentsline {section}{\numberline {3.}Parametrick\'e metody}{29}{section.70}\protected@file@percent }
\newlabel{Parametrick\'e metody}{{3.}{29}{Parametrické metody}{section.70}{}}
\citation{Kasanicky-2015}
\citation{Turcicova-2019}
\@writefile{toc}{\contentsline {subsection}{\numberline {3.1.}Regularizace ve spektr\'aln\IeC {\'\i }m a~waveletov\'em prostoru}{30}{subsection.71}\protected@file@percent }
\newlabel{reg_spektr_wavelet}{{3.1.}{30}{Regularizace ve spektrálním a~waveletovém prostoru}{subsection.71}{}}
\newlabel{eq:expansion}{{9}{30}{Regularizace ve spektrálním a~waveletovém prostoru}{equation.72}{}}
\newlabel{eq:FDF}{{10}{30}{Regularizace ve spektrálním a~waveletovém prostoru}{equation.73}{}}
\@writefile{brf}{\backcite{Kasanicky-2015}{{30}{3.1.}{equation.73}}}
\citation{Dwivedi-2011}
\@writefile{brf}{\backcite{Turcicova-2019}{{31}{3.1.}{equation.73}}}
\newlabel{reg_spektr}{{3.1.1.}{31}{Regularizace ve spektrálním prostoru}{subsubsection.75}{}}
\@writefile{toc}{\contentsline {subsubsection}{\numberline {3.1.1.}Regularizace ve spektr\'aln\IeC {\'\i }m prostoru}{31}{subsubsection.75}\protected@file@percent }
\@writefile{brf}{\backcite{Dwivedi-2011}{{31}{3.1.1.}{subsubsection.75}}}
\newlabel{eq:Fourier}{{12}{31}{Regularizace ve spektrálním prostoru}{equation.77}{}}
\newlabel{def:diskr_Laplace}{{13}{31}{Regularizace ve spektrálním prostoru}{equation.78}{}}
\citation{Atkinson-1975}
\citation{Osborn-1975}
\citation{Kuo}
\newlabel{eigval_Laplace}{{15}{32}{Regularizace ve spektrálním prostoru}{equation.80}{}}
\@writefile{brf}{\backcite{Atkinson-1975,Osborn-1975}{{32}{3.1.1.}{equation.80}}}
\@writefile{brf}{\backcite{Kuo}{{32}{3.1.1.}{equation.80}}}
\citation{Turcicova-2019}
\citation{Lindgren-2011-ELG}
\citation{Simpson-2012}
\citation{Mirouze-RCF-2010}
\citation{Burrus}
\citation{Pannekoucke-2007}
\@writefile{brf}{\backcite{Turcicova-2019}{{33}{3.1.1.}{equation.80}}}
\@writefile{brf}{\backcite{Lindgren-2011-ELG}{{33}{3.1.1.}{equation.80}}}
\@writefile{brf}{\backcite{Simpson-2012}{{33}{3.1.1.}{equation.80}}}
\@writefile{brf}{\backcite{Mirouze-RCF-2010}{{33}{3.1.1.}{equation.80}}}
\@writefile{toc}{\contentsline {subsubsection}{\numberline {3.1.2.}Regularizace ve waveletov\'em prostoru}{33}{subsubsection.81}\protected@file@percent }
\@writefile{brf}{\backcite{Burrus}{{33}{3.1.2.}{subsubsection.81}}}
\@writefile{brf}{\backcite{Pannekoucke-2007}{{33}{3.1.2.}{subsubsection.81}}}
\citation{Anderson-1973}
\citation{Pourahmadi}
\@writefile{toc}{\contentsline {subsubsection}{\numberline {3.1.3.}Vyu\v zit\IeC {\'\i } dal\v s\IeC {\'\i }ch typ\r u rozkladu varian\v cn\IeC {\'\i } matice k~jej\IeC {\'\i }mu odhadu}{34}{subsubsection.82}\protected@file@percent }
\newlabel{cholesky_2}{{18}{34}{Využití dalších typů rozkladu varianční matice k~jejímu odhadu}{equation.85}{}}
\@writefile{toc}{\contentsline {subsection}{\numberline {3.2.}Line\'arn\IeC {\'\i } model kovariance}{34}{subsection.86}\protected@file@percent }
\@writefile{brf}{\backcite{Anderson-1973}{{34}{3.2.}{subsection.86}}}
\newlabel{lin_cov_mod}{{19}{34}{Lineární model kovariance}{equation.87}{}}
\citation{Szatrowski-1980}
\citation{Anderson-1973}
\citation{Chiu-1996}
\citation{Rue_Held}
\citation{Lindgren-2011-ELG}
\citation{Mirouze-RCF-2010}
\citation{Simpson-2012}
\@writefile{brf}{\backcite{Pourahmadi}{{35}{3.2.}{equation.87}}}
\@writefile{brf}{\backcite{Szatrowski-1980}{{35}{3.2.}{equation.87}}}
\@writefile{brf}{\backcite{Anderson-1973}{{35}{3.2.}{equation.87}}}
\newlabel{log_lin_cov_mod}{{20}{35}{Lineární model kovariance}{equation.88}{}}
\@writefile{brf}{\backcite{Chiu-1996}{{35}{3.2.}{equation.88}}}
\@writefile{toc}{\contentsline {subsection}{\numberline {3.3.}Regularizace v~inverzn\IeC {\'\i }m prostoru}{35}{subsection.89}\protected@file@percent }
\@writefile{brf}{\backcite{Rue_Held}{{35}{3.3.}{subsection.89}}}
\citation{Ueno}
\citation{smef7}
\citation{Hyvarinen}
\pgfsyspdfmark {pgfid31}{12590546}{40274281}
\@writefile{lof}{\contentsline {figure}{\numberline {1}{\ignorespaces Matice p\v resnosti dvourozm\v ern\'eho markovsk\'eho pole o~rozm\v eru $10 \times 10$ bod\r u (body jsou uspo\v r\'ad\'any do sloupce), v~n\v em\v z ka\v z\-d\'y bod z\'avis\IeC {\'\i } na 8 nejbli\v z\v s\IeC {\'\i }ch sousedech. Vpravo je sch\'ema bodu a~jeho 8 nejbli\v z\v s\IeC {\'\i }ch soused\r u.\relax }}{36}{figure.caption.90}\protected@file@percent }
\newlabel{fig:structure}{{1}{36}{Matice přesnosti dvourozměrného markovského pole o~rozměru $10 \times 10$ bodů (body jsou uspořádány do sloupce), v~němž kaž\-dý bod závisí na 8 nejbližších sousedech. Vpravo je schéma bodu a~jeho 8 nejbližších sousedů.\relax }{figure.caption.90}{}}
\@writefile{brf}{\backcite{Lindgren-2011-ELG}{{36}{3.3.}{figure.caption.90}}}
\@writefile{brf}{\backcite{Mirouze-RCF-2010}{{36}{3.3.}{figure.caption.90}}}
\@writefile{brf}{\backcite{Simpson-2012}{{36}{3.3.}{figure.caption.90}}}
\@writefile{toc}{\contentsline {subsubsection}{\numberline {3.3.1.}Line\'arn\IeC {\'\i } model pro matici p\v resnosti}{36}{subsubsection.91}\protected@file@percent }
\bibcite{Anderson-1973}{1}
\bibcite{Atkinson-1975}{2}
\bibcite{Bickel-2008}{3}
\bibcite{Burrus}{4}
\bibcite{Chiu-1996}{5}
\@writefile{brf}{\backcite{Ueno}{{37}{3.3.1.}{equation.92}}}
\@writefile{brf}{\backcite{smef7}{{37}{3.3.1.}{equation.92}}}
\@writefile{brf}{\backcite{Hyvarinen}{{37}{3.3.1.}{equation.92}}}
\@writefile{toc}{\contentsline {section}{\numberline {4.}Z\'av\v er}{37}{section.93}\protected@file@percent }
\babel@aux{english}{}
\bibcite{Dwivedi-2011}{6}
\bibcite{Furrer-2007-EHP}{7}
\bibcite{Gaspari-Cohn}{8}
\bibcite{Hamill-2001-DDF}{9}
\bibcite{Horn_Johnson}{10}
\bibcite{Houtekamer-2001-SEK}{11}
\bibcite{Hyvarinen}{12}
\bibcite{Kasanicky-2015}{13}
\bibcite{Kuo}{14}
\bibcite{Lindgren-2011-ELG}{15}
\bibcite{Ledoit-2004-WEL}{16}
\bibcite{Mirouze-RCF-2010}{17}
\bibcite{Muirhead-DEE-1987}{18}
\bibcite{Osborn-1975}{19}
\bibcite{Pannekoucke-2007}{20}
\bibcite{Pourahmadi}{21}
\bibcite{Rue_Held}{22}
\bibcite{Simpson-2012}{23}
\bibcite{Szatrowski-1980}{24}
\bibcite{Turcicova-2019}{25}
\bibcite{smef7}{26}
\bibcite{Ueno}{27}
\babel@aux{czech}{}
\babel@aux{czech}{}
\newlabel{striz-sum/striz-sum}{{}{40}{}{section*.96}{}}
\babel@aux{czech}{}
\@writefile{toc}{\contentsline {part}{Pavel St\v r\IeC {\'\i }\v z: PF2021! aneb Nen\IeC {\'\i } \v sum jako \v sum}{40}{section*.97}\protected@file@percent }
\@writefile{toc}{\contentsline {section}{\numberline {1.}\'Uvodem p\'ar vzpom\IeC {\'\i }nek}{41}{section.98}\protected@file@percent }
\@writefile{toc}{\contentsline {section}{\numberline {2.}PF aneb Z\'aklad \v cernob\IeC {\'\i }le}{41}{section.99}\protected@file@percent }
\@writefile{lol}{\contentsline {lstlisting}{zdrojaky/striz\textendash sum/obr/solo1.tex}{41}{lstlisting.100}\protected@file@percent }
\@writefile{lol}{\contentsline {lstlisting}{zdrojaky/striz\textendash sum/obr/solo2.tex}{42}{lstlisting.113}\protected@file@percent }
\@writefile{toc}{\contentsline {section}{\numberline {3.}2021 aneb P\v res stupn\v e \v sedi do barvy}{42}{section.128}\protected@file@percent }
\@writefile{toc}{\contentsline {subsection}{\numberline {3.1.}Robert Bridson}{42}{subsection.129}\protected@file@percent }
\@writefile{toc}{\contentsline {subsection}{\numberline {3.2.}Ken Perlin}{43}{subsection.130}\protected@file@percent }
\@writefile{toc}{\contentsline {subsection}{\numberline {3.3.}Steven Worley}{44}{subsection.131}\protected@file@percent }
\@writefile{toc}{\contentsline {section}{\numberline {4.}Koule na m\IeC {\'\i }sto vyk\v ri\v cn\IeC {\'\i }ku}{45}{section.139}\protected@file@percent }
\@writefile{toc}{\contentsline {section}{\numberline {5.}\v CStS aneb Vzorky pomoc\IeC {\'\i } procedur\'aln\IeC {\'\i }ch textur}{45}{section.140}\protected@file@percent }
\@writefile{toc}{\contentsline {section}{\numberline {6.}Kompletace novoro\v cenky m\IeC {\'\i }sto Z\'av\v eru}{46}{section.141}\protected@file@percent }
\@writefile{lol}{\contentsline {lstlisting}{zdrojaky/striz\textendash sum/tikz\textendash vypln/do\textendash clanku.tex}{46}{lstlisting.142}\protected@file@percent }
\babel@aux{czech}{}
\newlabel{hlavka/hlavka}{{}{47}{}{section*.167}{}}
\babel@aux{english}{}
\@writefile{toc}{\contentsline {part}{Zden\v ek Hl\'avka: Vyhl\'a\v sen\IeC {\'\i } sout\v e\v ze: Data Analysis Competition 2021}{47}{section*.168}\protected@file@percent }
\babel@aux{czech}{}
\newlabel{knihy/knihy}{{}{49}{}{section*.175}{}}
\babel@aux{czech}{}
\@writefile{toc}{\contentsline {part}{Redakce \v casopisu: Ned\'avno vydan\'e knihy}{49}{section*.176}\protected@file@percent }
\babel@aux{czech}{}
\gdef \@abspage@last{50}
