\relax 
\providecommand\hyper@newdestlabel[2]{}
\providecommand\zref@newlabel[2]{}
\providecommand\babel@aux[2]{}
\@nameuse{bbl@beforestart}
\catcode `"\active 
\catcode `-\active 
\catcode `^\active 
\catcode `'\active 
\providecommand\HyperFirstAtBeginDocument{\AtBeginDocument}
\HyperFirstAtBeginDocument{\ifx\hyper@anchor\@undefined
\global\let\oldcontentsline\contentsline
\gdef\contentsline#1#2#3#4{\oldcontentsline{#1}{#2}{#3}}
\global\let\oldnewlabel\newlabel
\gdef\newlabel#1#2{\newlabelxx{#1}#2}
\gdef\newlabelxx#1#2#3#4#5#6{\oldnewlabel{#1}{{#2}{#3}}}
\AtEndDocument{\ifx\hyper@anchor\@undefined
\let\contentsline\oldcontentsline
\let\newlabel\oldnewlabel
\fi}
\fi}
\global\let\hyper@last\relax 
\gdef\HyperFirstAtBeginDocument#1{#1}
\providecommand\HyField@AuxAddToFields[1]{}
\providecommand\HyField@AuxAddToCoFields[2]{}
\providecommand\pbs@newkey[2]{}
\providecommand\pbs@seq@push@cx[2]{}
\providecommand\pbs@at@end@dvi@check{}
\pbs@at@end@dvi@check
\providecommand\@anim@newkey[2]{}
\providecommand\mix@newkey[2]{}
\pbs@newkey{pbs@last@page}{1}
\providecommand \oddpage@label [2]{}
\babel@aux{czech}{}
\babel@aux{english}{}
\babel@aux{slovak}{}
\babel@aux{czech}{}
\newlabel{striz-animace-svg/striz-animace-svg}{{}{1}{}{section*.1}{}}
\babel@aux{czech}{}
\@writefile{toc}{\contentsline {part}{Pavel St\v r\IeC {\'\i }\v z: V\IeC {\'\i }tejte ve sv\v et\v e animac\IeC {\'\i }!}{1}{section*.2}\protected@file@percent }
\@writefile{toc}{\contentsline {section}{\numberline {1.}O animac\IeC {\'\i }ch}{1}{section.3}\protected@file@percent }
\pbs@newkey{pbs@last@page}{2}
\@writefile{toc}{\contentsline {section}{\numberline {2.}\textsf  {animate} v2020-04-25}{2}{section.12}\protected@file@percent }
\@writefile{toc}{\contentsline {subsection}{\numberline {2.1.}\MP  {} v2.0}{2}{subsection.13}\protected@file@percent }
\@writefile{lol}{\contentsline {lstlisting}{zdrojaky/striz\textendash animace\textendash svg/snippets/010.mp}{2}{lstlisting.16}\protected@file@percent }
\pbs@newkey{pbs@last@page}{3}
\@writefile{lol}{\contentsline {lstlisting}{zdrojaky/striz\textendash animace\textendash svg/snippets/010\textendash metapost.tex}{3}{lstlisting.71}\protected@file@percent }
\@anim@newkey{a0.poster}{124}
\pbs@newkey{pbs@last@page}{4}
\zref@newlabel{anim@abspage0}{\abspage{4}}
\@writefile{toc}{\contentsline {subsection}{\numberline {2.2.}PStricks v2.97 a nespo\v cet jeho bal\IeC {\'\i }\v ck\r u}{4}{subsection.82}\protected@file@percent }
\pbs@newkey{pbs@last@page}{5}
\@writefile{lol}{\contentsline {lstlisting}{zdrojaky/striz\textendash animace\textendash svg/snippets/020.tex}{5}{lstlisting.85}\protected@file@percent }
\@writefile{lol}{\contentsline {lstlisting}{zdrojaky/striz\textendash animace\textendash svg/snippets/020\textendash pstricks.tex}{5}{lstlisting.124}\protected@file@percent }
\@anim@newkey{a1.poster}{16}
\pbs@newkey{pbs@last@page}{6}
\zref@newlabel{anim@abspage1}{\abspage{6}}
\@writefile{toc}{\contentsline {subsection}{\numberline {2.3.}Asymptote v2.65}{6}{subsection.137}\protected@file@percent }
\@anim@newkey{a2.poster}{89}
\pbs@newkey{pbs@last@page}{7}
\@writefile{lol}{\contentsline {lstlisting}{zdrojaky/striz\textendash animace\textendash svg/snippets/030.asy}{7}{lstlisting.141}\protected@file@percent }
\@writefile{lol}{\contentsline {lstlisting}{zdrojaky/striz\textendash animace\textendash svg/snippets/030\textendash asymptote.tex}{7}{lstlisting.167}\protected@file@percent }
\pbs@newkey{pbs@last@page}{8}
\zref@newlabel{anim@abspage2}{\abspage{8}}
\@writefile{toc}{\contentsline {subsection}{\numberline {2.4.}Ti\textit  {k}Z{} v3.1.5b}{8}{subsection.183}\protected@file@percent }
\@anim@newkey{a3.poster}{36}
\pbs@newkey{pbs@last@page}{9}
\@writefile{lol}{\contentsline {lstlisting}{zdrojaky/striz\textendash animace\textendash svg/snippets/040.tex}{9}{lstlisting.188}\protected@file@percent }
\@writefile{lol}{\contentsline {lstlisting}{zdrojaky/striz\textendash animace\textendash svg/snippets/040\textendash tikz.tex}{9}{lstlisting.214}\protected@file@percent }
\pbs@newkey{pbs@last@page}{10}
\zref@newlabel{anim@abspage3}{\abspage{10}}
\@writefile{toc}{\contentsline {section}{\numberline {3.}Okular v20.04-1: zobrazen\IeC {\'\i } animace}{10}{section.228}\protected@file@percent }
\pbs@newkey{pbs@last@page}{11}
\@writefile{toc}{\contentsline {section}{\numberline {4.}Vstup do sv\v eta xml}{11}{section.236}\protected@file@percent }
\pbs@newkey{pbs@last@page}{12}
\@writefile{toc}{\contentsline {section}{\numberline {5.}\texttt  {dvisvgm} v2.9.1}{12}{section.242}\protected@file@percent }
\pbs@newkey{pbs@last@page}{13}
\pbs@newkey{pbs@last@page}{14}
\@writefile{toc}{\contentsline {section}{\numberline {6.}\textsf  {animate} + \texttt  {dvisvgm}}{14}{section.271}\protected@file@percent }
\@writefile{lol}{\contentsline {lstlisting}{zdrojaky/striz\textendash animace\textendash svg/pro\textendash blaska/animacka.tex}{14}{lstlisting.272}\protected@file@percent }
\pbs@newkey{pbs@last@page}{15}
\@writefile{lol}{\contentsline {lstlisting}{zdrojaky/striz\textendash animace\textendash svg/pro\textendash blaska/jadro.tex}{15}{lstlisting.306}\protected@file@percent }
\pbs@newkey{pbs@last@page}{16}
\@writefile{lol}{\contentsline {lstlisting}{zdrojaky/striz\textendash animace\textendash svg/pro\textendash blaska/webovka.html}{16}{lstlisting.323}\protected@file@percent }
\@writefile{toc}{\contentsline {section}{\numberline {7.}\texttt  {svganimation}}{16}{section.333}\protected@file@percent }
\pbs@newkey{pbs@last@page}{17}
\@writefile{toc}{\contentsline {section}{\numberline {8.}\textit  {Hello, world!} od bal\IeC {\'\i }\v cku \textsf  {media4svg} v0.4}{17}{section.347}\protected@file@percent }
\pbs@newkey{pbs@last@page}{18}
\@writefile{lol}{\contentsline {lstlisting}{zdrojaky/striz\textendash animace\textendash svg/pro\textendash blaska/export\textendash media.tex}{18}{lstlisting.351}\protected@file@percent }
\pbs@newkey{pbs@last@page}{19}
\pbs@newkey{pbs@last@page}{20}
\@writefile{toc}{\contentsline {section}{\numberline {9.}N\'ahled na interaktivitu z\'av\v erem: \LaTeX 2JS}{20}{section.417}\protected@file@percent }
\babel@aux{czech}{}
\pbs@newkey{pbs@last@page}{21}
\newlabel{striz-manim/striz-manim}{{}{21}{}{section*.418}{}}
\babel@aux{czech}{}
\@writefile{toc}{\contentsline {part}{Pavel St\v r\IeC {\'\i }\v z: Prvn\IeC {\'\i } kontakt s~programem Manim}{21}{section*.419}\protected@file@percent }
\babel@aux{czech}{}
\babel@aux{czech}{}
\babel@aux{czech}{}
\babel@aux{czech}{}
\babel@aux{english}{}
\babel@aux{czech}{}
\babel@aux{english}{}
\babel@aux{czech}{}
\@writefile{toc}{\contentsline {section}{\numberline {1.}Mohou za to kvaterniony}{21}{section.420}\protected@file@percent }
\pbs@newkey{pbs@last@page}{22}
\@writefile{toc}{\contentsline {section}{\numberline {2.}Hello World! aneb Manim\ animuje \v ctverec na kole\v cko}{22}{section.425}\protected@file@percent }
\pbs@newkey{pbs@last@page}{23}
\@writefile{toc}{\contentsline {section}{\numberline {3.}Hloub\v eji u spu\v st\v en\IeC {\'\i } z p\v r\IeC {\'\i }kazov\'eho \v r\'adku}{23}{section.436}\protected@file@percent }
\@writefile{toc}{\contentsline {section}{\numberline {4.}Inspirativn\IeC {\'\i } zdroje}{23}{section.437}\protected@file@percent }
\pbs@newkey{pbs@last@page}{24}
\@writefile{toc}{\contentsline {section}{\numberline {5.}Ot\'azky a odpov\v edi}{24}{section.438}\protected@file@percent }
\@writefile{toc}{\contentsline {subsection}{\numberline {5.1.}Jak \v re\v sit diakritick\'e znaky?}{24}{subsection.439}\protected@file@percent }
\@writefile{lol}{\contentsline {lstlisting}{zdrojaky/striz\textendash manim/manim/manimlib/tex\textunderscore template.tex}{24}{lstlisting.440}\protected@file@percent }
\pbs@newkey{pbs@last@page}{25}
\@writefile{lol}{\contentsline {lstlisting}{zdrojaky/striz\textendash manim/manim/ukazky/ahoj\textendash svete.py}{25}{lstlisting.457}\protected@file@percent }
\@writefile{toc}{\contentsline {subsection}{\numberline {5.2.}Lze za\v radit \href  {https://www.ctan.org/pkg/pgf}{Ti\emph  {k}Z?}}{25}{subsection.464}\protected@file@percent }
\@writefile{lol}{\contentsline {lstlisting}{zdrojaky/striz\textendash manim/manim/ukazky/moda\textendash live.py}{25}{lstlisting.465}\protected@file@percent }
\pbs@newkey{pbs@last@page}{26}
\@writefile{toc}{\contentsline {subsection}{\numberline {5.3.}Lze animovat matematiku?}{26}{subsection.480}\protected@file@percent }
\@writefile{lol}{\contentsline {lstlisting}{zdrojaky/striz\textendash manim/manim/ukazky/rovnice.py}{26}{lstlisting.481}\protected@file@percent }
\@writefile{toc}{\contentsline {subsection}{\numberline {5.4.}Lze animovat kand\v zi?}{26}{subsection.491}\protected@file@percent }
\pbs@newkey{pbs@last@page}{27}
\@writefile{lol}{\contentsline {lstlisting}{zdrojaky/striz\textendash manim/manim/manimlib/ctex\textunderscore template.tex}{27}{lstlisting.494}\protected@file@percent }
\@writefile{toc}{\contentsline {subsection}{\numberline {5.5.}Lze animovat v\'ystupy z teorie graf\r u?}{27}{subsection.510}\protected@file@percent }
\pbs@newkey{pbs@last@page}{28}
\@writefile{toc}{\contentsline {subsection}{\numberline {5.6.}Lze animovat diagramy?}{28}{subsection.518}\protected@file@percent }
\@writefile{toc}{\contentsline {section}{\numberline {6.}Co s programem Manim\ neum\IeC {\'\i }m?}{28}{section.522}\protected@file@percent }
\pbs@newkey{pbs@last@page}{29}
\babel@aux{czech}{}
\pbs@newkey{pbs@last@page}{30}
\newlabel{striz-horak/striz-horak}{{}{30}{}{section*.523}{}}
\babel@aux{czech}{}
\@writefile{toc}{\contentsline {part}{Pavel St\v r\IeC {\'\i }\v z: Sbohem, drah\'y Karle, sbohem!}{30}{section*.524}\protected@file@percent }
\pbs@newkey{pbs@last@page}{31}
\pbs@newkey{pbs@last@page}{32}
\pbs@newkey{pbs@last@page}{33}
\pbs@newkey{pbs@last@page}{34}
\pbs@newkey{pbs@last@page}{35}
\babel@aux{english}{}
\pbs@newkey{pbs@last@page}{36}
\babel@aux{czech}{}
\babel@aux{english}{}
\babel@aux{czech}{}
\babel@aux{czech}{}
\pbs@newkey{pbs@last@page}{37}
\babel@aux{english}{}
\babel@aux{czech}{}
\babel@aux{czech}{}
\babel@aux{english}{}
\babel@aux{czech}{}
\babel@aux{czech}{}
\pbs@newkey{pbs@last@page}{38}
\babel@aux{english}{}
\babel@aux{czech}{}
\babel@aux{czech}{}
\pbs@newkey{pbs@last@page}{39}
\babel@aux{czech}{}
\babel@aux{czech}{}
\babel@aux{czech}{}
\babel@aux{czech}{}
\babel@aux{english}{}
\babel@aux{czech}{}
\babel@aux{czech}{}
\pbs@newkey{pbs@last@page}{40}
\newlabel{striz-novinky-tex/striz-novinky-tex}{{}{40}{}{section*.531}{}}
\babel@aux{czech}{}
\@writefile{toc}{\contentsline {part}{Pavel St\v r\IeC {\'\i }\v z: T\kern -.1667em\lower .5ex\hbox {E}\kern -.125emXLive 2020: Novinky v T\kern -.1667em\lower .5ex\hbox {E}\kern -.125emXov\'em sv\v et\v e}{40}{section*.532}\protected@file@percent }
\@writefile{toc}{\contentsline {section}{\numberline {1.}Instalace}{40}{section.533}\protected@file@percent }
\@writefile{toc}{\contentsline {section}{\numberline {2.}Novinky}{40}{section.539}\protected@file@percent }
\pbs@newkey{pbs@last@page}{41}
\@writefile{toc}{\contentsline {subsection}{\numberline {2.1.}Bal\IeC {\'\i }\v cek \href  {https://ctan.org/pkg/nicematrix}{\textsf  {nicematrix}}}{41}{subsection.540}\protected@file@percent }
\@writefile{lol}{\contentsline {lstlisting}{zdrojaky/striz\textendash novinky\textendash tex/vzorky/mal\textendash nicematrix.tex}{41}{lstlisting.541}\protected@file@percent }
\pbs@newkey{pbs@last@page}{42}
\@writefile{toc}{\contentsline {subsection}{\numberline {2.2.}Bal\IeC {\'\i }\v cek \href  {https://ctan.org/pkg/witharrows}{\textsf  {witharrows}}}{42}{subsection.565}\protected@file@percent }
\@writefile{lol}{\contentsline {lstlisting}{zdrojaky/striz\textendash novinky\textendash tex/vzorky/mal\textendash witharrows.tex}{42}{lstlisting.566}\protected@file@percent }
\@writefile{toc}{\contentsline {subsection}{\numberline {2.3.}Bal\IeC {\'\i }\v cek \href  {https://ctan.org/pkg/siunitx}{\textsf  {siunitx}}}{42}{subsection.582}\protected@file@percent }
\@writefile{lol}{\contentsline {lstlisting}{zdrojaky/striz\textendash novinky\textendash tex/vzorky/mal\textendash siunitx.tex}{42}{lstlisting.583}\protected@file@percent }
\pbs@newkey{pbs@last@page}{43}
\@writefile{toc}{\contentsline {subsection}{\numberline {2.4.}Bal\IeC {\'\i }\v cek \href  {https://ctan.org/pkg/tikz-network}{\textsf  {tikz-network}}}{43}{subsection.599}\protected@file@percent }
\@writefile{lol}{\contentsline {lstlisting}{zdrojaky/striz\textendash novinky\textendash tex/vzorky/mal\textendash tikz-network.tex}{43}{lstlisting.605}\protected@file@percent }
\pbs@newkey{pbs@last@page}{44}
\@writefile{toc}{\contentsline {subsection}{\numberline {2.5.}Bal\IeC {\'\i }\v cek \href  {https://ctan.org/pkg/xlop}{\textsf  {xlop}}}{44}{subsection.615}\protected@file@percent }
\@writefile{lol}{\contentsline {lstlisting}{zdrojaky/striz\textendash novinky\textendash tex/vzorky/mal\textendash xlop.tex}{44}{lstlisting.616}\protected@file@percent }
\@writefile{toc}{\contentsline {subsection}{\numberline {2.6.}Bal\IeC {\'\i }\v cek \href  {https://ctan.org/pkg/codeanatomy}{\textsf  {codeanatomy}}}{44}{subsection.624}\protected@file@percent }
\@writefile{lol}{\contentsline {lstlisting}{zdrojaky/striz\textendash novinky\textendash tex/vzorky/mal\textendash codeanatomy.tex}{44}{lstlisting.625}\protected@file@percent }
\pbs@newkey{pbs@last@page}{45}
\@writefile{toc}{\contentsline {subsection}{\numberline {2.7.}Bal\IeC {\'\i }\v cek \href  {https://ctan.org/pkg/mercatormap}{\textsf  {mercatormap}}}{45}{subsection.650}\protected@file@percent }
\pbs@newkey{pbs@last@page}{46}
\@writefile{lol}{\contentsline {lstlisting}{zdrojaky/striz\textendash novinky\textendash tex/vzorky/mal\textendash mercatormap.tex}{46}{lstlisting.654}\protected@file@percent }
\pbs@newkey{pbs@last@page}{47}
\@writefile{toc}{\contentsline {subsection}{\numberline {2.8.}Bal\IeC {\'\i }\v cek \href  {https://ctan.org/pkg/tcolorbox}{\textsf  {tcolorbox}}}{47}{subsection.672}\protected@file@percent }
\@writefile{lol}{\contentsline {lstlisting}{zdrojaky/striz\textendash novinky\textendash tex/vzorky/mal\textendash tcolorbox.tex}{47}{lstlisting.673}\protected@file@percent }
\@writefile{toc}{\contentsline {subsection}{\numberline {2.9.}Bal\IeC {\'\i }\v cek \href  {https://ctan.org/pkg/tikz-planets}{\textsf  {tikz-planets}}}{47}{subsection.691}\protected@file@percent }
\@writefile{lol}{\contentsline {lstlisting}{zdrojaky/striz\textendash novinky\textendash tex/vzorky/mal\textendash tikz-planets.tex}{47}{lstlisting.692}\protected@file@percent }
\pbs@newkey{pbs@last@page}{48}
\@writefile{toc}{\contentsline {subsection}{\numberline {2.10.}Bal\IeC {\'\i }\v cek \href  {https://ctan.org/pkg/emoji}{\textsf  {emoji}}}{48}{subsection.716}\protected@file@percent }
\pbs@newkey{pbs@last@page}{49}
\@writefile{lol}{\contentsline {lstlisting}{zdrojaky/striz\textendash novinky\textendash tex/vzorky/mal\textendash emoji.tex}{49}{lstlisting.720}\protected@file@percent }
\@writefile{toc}{\contentsline {subsection}{\numberline {2.11.}Bal\IeC {\'\i }\v cek \href  {https://ctan.org/pkg/pgfornament}{\textsf  {pgfornament}}}{49}{subsection.733}\protected@file@percent }
\@writefile{lol}{\contentsline {lstlisting}{zdrojaky/striz\textendash novinky\textendash tex/vzorky/mal\textendash pgfornament.tex}{49}{lstlisting.734}\protected@file@percent }
\pbs@newkey{pbs@last@page}{50}
\@writefile{toc}{\contentsline {subsection}{\numberline {2.12.}Za pozornost je\v st\v e stoj\IeC {\'\i }}{50}{subsection.746}\protected@file@percent }
\@writefile{toc}{\contentsline {section}{\numberline {3.}\MP  {} ztracen a nalezen}{50}{section.747}\protected@file@percent }
\pbs@newkey{pbs@last@page}{51}
\@writefile{lol}{\contentsline {lstlisting}{zdrojaky/striz\textendash novinky\textendash tex/vzorky/metapost/zoonek.mp}{51}{lstlisting.748}\protected@file@percent }
\@writefile{lol}{\contentsline {lstlisting}{zdrojaky/striz\textendash novinky\textendash tex/vzorky/metapost/index.htm}{51}{lstlisting.768}\protected@file@percent }
\pbs@newkey{pbs@last@page}{52}
\@writefile{toc}{\contentsline {section}{\numberline {4.}Co dodat z\'av\v erem?}{52}{section.781}\protected@file@percent }
\babel@aux{czech}{}
