\relax 
\providecommand\babel@aux[2]{}
\@nameuse{bbl@beforestart}
\catcode `^\active 
\catcode `"\active 
\catcode `'\active 
\catcode `-\active 
\providecommand\hyper@newdestlabel[2]{}
\providecommand\HyField@AuxAddToFields[1]{}
\providecommand\HyField@AuxAddToCoFields[2]{}
\babel@aux{czech}{}
\babel@aux{english}{}
\babel@aux{czech}{}
\babel@aux{czech}{}
\pgfsyspdfmark {pgfid1}{5719326}{47403394}
\pgfsyspdfmark {pgfid2}{5719326}{47403394}
\newlabel{andel/andel}{{}{3}{}{section*.1}{}}
\babel@aux{czech}{}
\newlabel{andel-vzpominky-na}{{}{3}{}{section*.1}{}}
\newlabel{andel-vzpominky-ze}{{}{10}{Jiří Anděl a~já (a~mnozí další)}{section*.9}{}}
\@writefile{toc}{\contentsline {section}{\numberline {1}JI\v R\'I AND\v EL O~SOB\v E}{11}{section.10}\protected@file@percent }
\newlabel{andel-1}{{1}{11}{JIŘÍ ANDĚL O~SOBĚ}{section.10}{}}
\@writefile{toc}{\contentsline {subsection}{\numberline {1.1}Hmotn\'y bod}{11}{subsection.11}\protected@file@percent }
\@writefile{toc}{\contentsline {subsection}{\numberline {1.2}Vy\v re\v sen\'y probl\'em}{12}{subsection.12}\protected@file@percent }
\@writefile{toc}{\contentsline {subsection}{\numberline {1.3}Magick\'y \v ctverec}{12}{subsection.13}\protected@file@percent }
\@writefile{toc}{\contentsline {subsection}{\numberline {1.4}Kolik je bystr\'ych hlav}{13}{subsection.15}\protected@file@percent }
\@writefile{toc}{\contentsline {subsection}{\numberline {1.5}Celn\IeC {\'\i }k a~teorie mno\v zin}{13}{subsection.16}\protected@file@percent }
\@writefile{toc}{\contentsline {subsection}{\numberline {1.6}Policie v~Bratislav\v e}{14}{subsection.17}\protected@file@percent }
\@writefile{toc}{\contentsline {subsection}{\numberline {1.7}Cesta do Madridu}{14}{subsection.18}\protected@file@percent }
\@writefile{toc}{\contentsline {subsection}{\numberline {1.8}Mincemi se v~\v R\IeC {\'\i }m\v e neplat\IeC {\'\i }}{15}{subsection.19}\protected@file@percent }
\@writefile{toc}{\contentsline {subsection}{\numberline {1.9}Neapol vid\v et a~(ne)zem\v r\IeC {\'\i }t}{16}{subsection.20}\protected@file@percent }
\@writefile{toc}{\contentsline {subsection}{\numberline {1.10}P\v r\IeC {\'\i }pad Kr\'al\IeC {\'\i }k}{17}{subsection.22}\protected@file@percent }
\@writefile{toc}{\contentsline {subsection}{\numberline {1.11}Profesor And\v el ch\'atr\'a}{17}{subsection.23}\protected@file@percent }
\@writefile{toc}{\contentsline {section}{\numberline {2}JAROSLAV H\'AJEK}{17}{section.24}\protected@file@percent }
\newlabel{andel-2}{{2}{17}{JAROSLAV HÁJEK}{section.24}{}}
\@writefile{toc}{\contentsline {subsection}{\numberline {2.1}Nov\'y vedouc\IeC {\'\i } katedry}{17}{subsection.25}\protected@file@percent }
\@writefile{toc}{\contentsline {subsection}{\numberline {2.2}Jaroslav H\'ajek \'u\v raduje}{18}{subsection.26}\protected@file@percent }
\@writefile{toc}{\contentsline {subsection}{\numberline {2.3}Jaroslav H\'ajek v~ciz\IeC {\'\i } pracovn\v e}{18}{subsection.27}\protected@file@percent }
\@writefile{toc}{\contentsline {subsection}{\numberline {2.4}Hlasov\'an\IeC {\'\i }}{19}{subsection.29}\protected@file@percent }
\@writefile{toc}{\contentsline {subsection}{\numberline {2.5}Kolik \v re\v c\IeC {\'\i } um\IeC {\'\i }\v s\dots  }{19}{subsection.30}\protected@file@percent }
\@writefile{toc}{\contentsline {subsection}{\numberline {2.6}Pomal\'a odpov\v e\v d}{19}{subsection.31}\protected@file@percent }
\@writefile{toc}{\contentsline {subsection}{\numberline {2.7}Prozor}{20}{subsection.32}\protected@file@percent }
\@writefile{toc}{\contentsline {subsection}{\numberline {2.8}Jaroslav H\'ajek pe\v cuje o~auto}{20}{subsection.33}\protected@file@percent }
\@writefile{toc}{\contentsline {section}{\numberline {3}JOSEF MACHEK}{20}{section.34}\protected@file@percent }
\newlabel{andel-3}{{3}{20}{JOSEF MACHEK}{section.34}{}}
\@writefile{toc}{\contentsline {subsection}{\numberline {3.1}Mercedes}{20}{subsection.35}\protected@file@percent }
\@writefile{toc}{\contentsline {subsection}{\numberline {3.2}Svatba v~Havan\v e}{21}{subsection.37}\protected@file@percent }
\@writefile{toc}{\contentsline {subsection}{\numberline {3.3}Hl\'a\v sen\IeC {\'\i }}{21}{subsection.38}\protected@file@percent }
\@writefile{toc}{\contentsline {subsection}{\numberline {3.4}Machkovo publikov\'an\IeC {\'\i }}{22}{subsection.39}\protected@file@percent }
\@writefile{toc}{\contentsline {subsection}{\numberline {3.5}Pracovn\IeC {\'\i } doba}{22}{subsection.40}\protected@file@percent }
\@writefile{toc}{\contentsline {subsection}{\numberline {3.6}Machek a~Mandl na dvoj\'aku}{23}{subsection.41}\protected@file@percent }
\@writefile{toc}{\contentsline {subsection}{\numberline {3.7}Smolenice}{23}{subsection.42}\protected@file@percent }
\@writefile{toc}{\contentsline {subsection}{\numberline {3.8}Jak Machek zabloudil}{24}{subsection.43}\protected@file@percent }
\@writefile{toc}{\contentsline {subsection}{\numberline {3.9}Machkova bota}{25}{subsection.44}\protected@file@percent }
\@writefile{toc}{\contentsline {subsection}{\numberline {3.10}Machek muzikant}{25}{subsection.45}\protected@file@percent }
\@writefile{toc}{\contentsline {subsection}{\numberline {3.11}Jak Machek stav\v el gar\'a\v z}{25}{subsection.46}\protected@file@percent }
\@writefile{toc}{\contentsline {section}{\numberline {4}VLADIM\'IR KO\v R\'INEK}{27}{section.48}\protected@file@percent }
\newlabel{andel-4}{{4}{27}{VLADIMÍR KOŘÍNEK}{section.48}{}}
\@writefile{toc}{\contentsline {subsection}{\numberline {4.1}Profesor Ko\v r\IeC {\'\i }nek chod\IeC {\'\i } kolem posluch\'arny}{27}{subsection.49}\protected@file@percent }
\@writefile{toc}{\contentsline {subsection}{\numberline {4.2}Ko\v r\IeC {\'\i }nek a~k\v r\IeC {\'\i }da}{27}{subsection.50}\protected@file@percent }
\@writefile{toc}{\contentsline {subsection}{\numberline {4.3}Ko\v r\IeC {\'\i }nkova slina dolet\IeC {\'\i } daleko}{27}{subsection.51}\protected@file@percent }
\@writefile{toc}{\contentsline {subsection}{\numberline {4.4}Zav\v ren\'e dve\v re}{28}{subsection.52}\protected@file@percent }
\@writefile{toc}{\contentsline {subsection}{\numberline {4.5}Ko\v r\IeC {\'\i }nek a~Vop\v enka}{28}{subsection.53}\protected@file@percent }
\@writefile{toc}{\contentsline {subsection}{\numberline {4.6}Ko\v r\IeC {\'\i }nek zkou\v s\IeC {\'\i } jinde}{28}{subsection.54}\protected@file@percent }
\@writefile{toc}{\contentsline {subsection}{\numberline {4.7}Fundament\'aln\IeC {\'\i } v\v eta algebry}{29}{subsection.55}\protected@file@percent }
\@writefile{toc}{\contentsline {subsection}{\numberline {4.8}Ko\v r\IeC {\'\i }nek v\v e\v r\IeC {\'\i } na sny}{29}{subsection.56}\protected@file@percent }
\@writefile{toc}{\contentsline {section}{\numberline {5}KOLEGOV\'E Z~KATEDRY}{29}{section.57}\protected@file@percent }
\newlabel{andel-5}{{5}{29}{KOLEGOVÉ Z~KATEDRY}{section.57}{}}
\@writefile{toc}{\contentsline {subsection}{\numberline {5.1}Laskav\'y pan profesor Janko}{29}{subsection.58}\protected@file@percent }
\@writefile{toc}{\contentsline {subsection}{\numberline {5.2}V\'yuka docenta Seitze}{30}{subsection.59}\protected@file@percent }
\@writefile{toc}{\contentsline {subsection}{\numberline {5.3}Docent Seitz m\'a dietu}{31}{subsection.61}\protected@file@percent }
\@writefile{toc}{\contentsline {subsection}{\numberline {5.4}Stejn\'e v\v edeck\'e metody}{31}{subsection.63}\protected@file@percent }
\@writefile{toc}{\contentsline {subsection}{\numberline {5.5}V\'aclav Dupa\v c v\v zdy zdvo\v ril\'y}{31}{subsection.64}\protected@file@percent }
\@writefile{toc}{\contentsline {subsection}{\numberline {5.6}Divn\'y \v clov\v ek}{32}{subsection.65}\protected@file@percent }
\@writefile{toc}{\contentsline {subsection}{\numberline {5.7}Nebezpe\v cn\'y Jan Hurt}{32}{subsection.66}\protected@file@percent }
\@writefile{toc}{\contentsline {subsection}{\numberline {5.8}Past na zlod\v eje}{33}{subsection.67}\protected@file@percent }
\@writefile{toc}{\contentsline {subsection}{\numberline {5.9}Jan Hurt m\'a jm\'eno}{34}{subsection.68}\protected@file@percent }
\@writefile{toc}{\contentsline {subsection}{\numberline {5.10}Jan Hurt m\'a kr\'atk\'e jm\'eno}{34}{subsection.69}\protected@file@percent }
\@writefile{toc}{\contentsline {subsection}{\numberline {5.11}Studenti a~profeso\v ri}{34}{subsection.70}\protected@file@percent }
\@writefile{toc}{\contentsline {section}{\numberline {6}KOLEGOV\'E Z~DOMOVA I~CIZINY}{35}{section.71}\protected@file@percent }
\newlabel{andel-6}{{6}{35}{KOLEGOVÉ Z~DOMOVA I~CIZINY}{section.71}{}}
\@writefile{toc}{\contentsline {subsection}{\numberline {6.1}Josef Nov\'ak}{35}{subsection.72}\protected@file@percent }
\@writefile{toc}{\contentsline {subsection}{\numberline {6.2}Albert Perez}{35}{subsection.74}\protected@file@percent }
\@writefile{toc}{\contentsline {subsection}{\numberline {6.3}Albert Perez u~odvodu}{36}{subsection.75}\protected@file@percent }
\@writefile{toc}{\contentsline {subsection}{\numberline {6.4}Andrej Nikolajevi\v c Kolmogorov}{36}{subsection.76}\protected@file@percent }
\@writefile{toc}{\contentsline {subsection}{\numberline {6.5}Profesor Wiener zabloudil}{37}{subsection.78}\protected@file@percent }
\@writefile{toc}{\contentsline {subsection}{\numberline {6.6}Profesor Wiener jde na ob\v ed}{38}{subsection.79}\protected@file@percent }
\@writefile{toc}{\contentsline {section}{\numberline {7}KOLEGOV\'E Z~MFF UK}{38}{section.80}\protected@file@percent }
\newlabel{andel-7}{{7}{38}{KOLEGOVÉ Z~MFF UK}{section.80}{}}
\@writefile{toc}{\contentsline {subsection}{\numberline {7.1}L\'aze\v nsk\'a fyzika profesora Sedl\'aka}{38}{subsection.81}\protected@file@percent }
\@writefile{toc}{\contentsline {subsection}{\numberline {7.2}Naho\v re bez}{38}{subsection.82}\protected@file@percent }
\@writefile{toc}{\contentsline {subsection}{\numberline {7.3}Volba d\v ekana}{39}{subsection.83}\protected@file@percent }
\@writefile{toc}{\contentsline {subsection}{\numberline {7.4}Ost\v r\IeC {\'\i }han\'y Petr H\'ajek}{39}{subsection.85}\protected@file@percent }
\@writefile{toc}{\contentsline {subsection}{\numberline {7.5}Profesor Hu\v sek na hranici}{40}{subsection.86}\protected@file@percent }
\@writefile{toc}{\contentsline {subsection}{\numberline {7.6}Profesor \v S\IeC {\'\i }cha ztratil \v ridi\v csk\'y pr\r ukaz}{40}{subsection.88}\protected@file@percent }
\@writefile{toc}{\contentsline {subsection}{\numberline {7.7}Zv\v edav\'y a~zv\IeC {\'\i }dav\'y profesor Marek}{40}{subsection.89}\protected@file@percent }
\@writefile{toc}{\contentsline {section}{\numberline {8}MATFYZ\'ACK\'A SM\v ES}{41}{section.90}\protected@file@percent }
\newlabel{andel-8}{{8}{41}{MATFYZÁCKÁ SMĚS}{section.90}{}}
\@writefile{toc}{\contentsline {subsection}{\numberline {8.1}Jak poznat matfyz\'aka}{41}{subsection.91}\protected@file@percent }
\@writefile{toc}{\contentsline {subsection}{\numberline {8.2}Fakulta je na Mal\'e Stran\v e}{43}{subsection.92}\protected@file@percent }
\@writefile{toc}{\contentsline {subsection}{\numberline {8.3}Mikul\'a\v ssk\'a nad\IeC {\'\i }lka}{43}{subsection.94}\protected@file@percent }
\@writefile{toc}{\contentsline {subsection}{\numberline {8.4}Mno\v zina je v\v zdy ov\'aln\'a}{44}{subsection.95}\protected@file@percent }
\@writefile{toc}{\contentsline {subsection}{\numberline {8.5}Studentsk\'a logika}{44}{subsection.97}\protected@file@percent }
\@writefile{toc}{\contentsline {subsection}{\numberline {8.6}Komplexn\IeC {\'\i } anal\'yza}{45}{subsection.98}\protected@file@percent }
\@writefile{toc}{\contentsline {subsection}{\numberline {8.7}Jak se na MFF d\v elilo nulou}{45}{subsection.99}\protected@file@percent }
\@writefile{toc}{\contentsline {subsection}{\numberline {8.8}Jak se st\'at profesorem}{45}{subsection.100}\protected@file@percent }
\@writefile{toc}{\contentsline {section}{\numberline {9}\ MATFYZ\'ACK\'A POEZIE}{46}{section.101}\protected@file@percent }
\newlabel{andel-9}{{9}{46}{\ MATFYZÁCKÁ POEZIE}{section.101}{}}
\newlabel{andel/andel}{{9}{46}{\ MATFYZÁCKÁ POEZIE}{section.101}{}}
\babel@aux{czech}{}
\gdef \@abspage@last{46}
