\relax 
\providecommand\hyper@newdestlabel[2]{}
\providecommand\zref@newlabel[2]{}
\providecommand\babel@aux[2]{}
\@nameuse{bbl@beforestart}
\catcode `"\active 
\catcode `-\active 
\catcode `^\active 
\catcode `'\active 
\providecommand\HyperFirstAtBeginDocument{\AtBeginDocument}
\HyperFirstAtBeginDocument{\ifx\hyper@anchor\@undefined
\global\let\oldcontentsline\contentsline
\gdef\contentsline#1#2#3#4{\oldcontentsline{#1}{#2}{#3}}
\global\let\oldnewlabel\newlabel
\gdef\newlabel#1#2{\newlabelxx{#1}#2}
\gdef\newlabelxx#1#2#3#4#5#6{\oldnewlabel{#1}{{#2}{#3}}}
\AtEndDocument{\ifx\hyper@anchor\@undefined
\let\contentsline\oldcontentsline
\let\newlabel\oldnewlabel
\fi}
\fi}
\global\let\hyper@last\relax 
\gdef\HyperFirstAtBeginDocument#1{#1}
\providecommand\HyField@AuxAddToFields[1]{}
\providecommand\HyField@AuxAddToCoFields[2]{}
\providecommand\pbs@newkey[2]{}
\providecommand\pbs@seq@push@cx[2]{}
\providecommand\pbs@at@end@dvi@check{}
\pbs@at@end@dvi@check
\providecommand\@anim@newkey[2]{}
\providecommand\mix@newkey[2]{}
\pbs@newkey{pbs@last@page}{1}
\providecommand \oddpage@label [2]{}
\babel@aux{czech}{}
\babel@aux{english}{}
\babel@aux{slovak}{}
\babel@aux{czech}{}
\pgfsyspdfmark {pgfid3}{5719326}{47216927}
\pbs@newkey{pbs@last@page}{2}
\pgfsyspdfmark {pgfid4}{5719326}{47216927}
\pbs@newkey{pbs@last@page}{3}
\newlabel{striz-000/striz-000}{{}{3}{}{section*.1}{}}
\babel@aux{czech}{}
\@writefile{toc}{\contentsline {part}{Pavel St\v r\IeC {\'\i }\v z: \'Uvodn\IeC {\'\i } slovo autora}{3}{section*.2}\protected@file@percent }
\babel@aux{czech}{}
\pbs@newkey{pbs@last@page}{4}
\newlabel{striz-animace-svg/striz-animace-svg}{{}{4}{}{section*.3}{}}
\babel@aux{czech}{}
\@writefile{toc}{\contentsline {part}{Pavel St\v r\IeC {\'\i }\v z: V\IeC {\'\i }tejte ve sv\v et\v e animac\IeC {\'\i }!}{4}{section*.4}\protected@file@percent }
\@writefile{toc}{\contentsline {section}{\numberline {1.}O animac\IeC {\'\i }ch}{4}{section.5}\protected@file@percent }
\pbs@newkey{pbs@last@page}{5}
\@writefile{toc}{\contentsline {section}{\numberline {2.}\textsf  {animate} v2020-04-25}{5}{section.14}\protected@file@percent }
\@writefile{toc}{\contentsline {subsection}{\numberline {2.1.}\MP  {} v2.0}{5}{subsection.15}\protected@file@percent }
\@writefile{lol}{\contentsline {lstlisting}{zdrojaky/striz\textendash animace\textendash svg/snippets/010.mp}{5}{lstlisting.18}\protected@file@percent }
\pbs@newkey{pbs@last@page}{6}
\@writefile{lol}{\contentsline {lstlisting}{zdrojaky/striz\textendash animace\textendash svg/snippets/010\textendash metapost.tex}{6}{lstlisting.73}\protected@file@percent }
\pbs@newkey{pbs@last@page}{7}
\@writefile{toc}{\contentsline {subsection}{\numberline {2.2.}PStricks v2.97 a nespo\v cet jeho bal\IeC {\'\i }\v ck\r u}{7}{subsection.84}\protected@file@percent }
\pbs@newkey{pbs@last@page}{8}
\@writefile{lol}{\contentsline {lstlisting}{zdrojaky/striz\textendash animace\textendash svg/snippets/020.tex}{8}{lstlisting.87}\protected@file@percent }
\@writefile{lol}{\contentsline {lstlisting}{zdrojaky/striz\textendash animace\textendash svg/snippets/020\textendash pstricks.tex}{8}{lstlisting.126}\protected@file@percent }
\pbs@newkey{pbs@last@page}{9}
\@writefile{toc}{\contentsline {subsection}{\numberline {2.3.}Asymptote v2.65}{9}{subsection.139}\protected@file@percent }
\pbs@newkey{pbs@last@page}{10}
\@writefile{lol}{\contentsline {lstlisting}{zdrojaky/striz\textendash animace\textendash svg/snippets/030.asy}{10}{lstlisting.143}\protected@file@percent }
\@writefile{lol}{\contentsline {lstlisting}{zdrojaky/striz\textendash animace\textendash svg/snippets/030\textendash asymptote.tex}{10}{lstlisting.169}\protected@file@percent }
\pbs@newkey{pbs@last@page}{11}
\@writefile{toc}{\contentsline {subsection}{\numberline {2.4.}Ti\textit  {k}Z{} v3.1.5b}{11}{subsection.185}\protected@file@percent }
\pbs@newkey{pbs@last@page}{12}
\@writefile{lol}{\contentsline {lstlisting}{zdrojaky/striz\textendash animace\textendash svg/snippets/040.tex}{12}{lstlisting.190}\protected@file@percent }
\@writefile{lol}{\contentsline {lstlisting}{zdrojaky/striz\textendash animace\textendash svg/snippets/040\textendash tikz.tex}{12}{lstlisting.218}\protected@file@percent }
\pbs@newkey{pbs@last@page}{13}
\@writefile{toc}{\contentsline {section}{\numberline {3.}Okular v20.04-1: zobrazen\IeC {\'\i } animace}{13}{section.232}\protected@file@percent }
\pbs@newkey{pbs@last@page}{14}
\@writefile{toc}{\contentsline {section}{\numberline {4.}Vstup do sv\v eta xml}{14}{section.240}\protected@file@percent }
\pbs@newkey{pbs@last@page}{15}
\@writefile{toc}{\contentsline {section}{\numberline {5.}\texttt  {dvisvgm} v2.9.1}{15}{section.246}\protected@file@percent }
\pbs@newkey{pbs@last@page}{16}
\pbs@newkey{pbs@last@page}{17}
\@writefile{toc}{\contentsline {section}{\numberline {6.}\textsf  {animate} + \texttt  {dvisvgm}}{17}{section.275}\protected@file@percent }
\@writefile{lol}{\contentsline {lstlisting}{zdrojaky/striz\textendash animace\textendash svg/pro\textendash blaska/animacka.tex}{17}{lstlisting.276}\protected@file@percent }
\pbs@newkey{pbs@last@page}{18}
\@writefile{lol}{\contentsline {lstlisting}{zdrojaky/striz\textendash animace\textendash svg/pro\textendash blaska/jadro.tex}{18}{lstlisting.310}\protected@file@percent }
\pbs@newkey{pbs@last@page}{19}
\@writefile{lol}{\contentsline {lstlisting}{zdrojaky/striz\textendash animace\textendash svg/pro\textendash blaska/webovka.html}{19}{lstlisting.327}\protected@file@percent }
\@writefile{toc}{\contentsline {section}{\numberline {7.}\texttt  {svganimation}}{19}{section.337}\protected@file@percent }
\pbs@newkey{pbs@last@page}{20}
\@writefile{toc}{\contentsline {section}{\numberline {8.}\textit  {Hello, world!} od bal\IeC {\'\i }\v cku \textsf  {media4svg} v0.4}{20}{section.351}\protected@file@percent }
\pbs@newkey{pbs@last@page}{21}
\@writefile{lol}{\contentsline {lstlisting}{zdrojaky/striz\textendash animace\textendash svg/pro\textendash blaska/export\textendash media.tex}{21}{lstlisting.355}\protected@file@percent }
\pbs@newkey{pbs@last@page}{22}
\pbs@newkey{pbs@last@page}{23}
\@writefile{toc}{\contentsline {section}{\numberline {9.}N\'ahled na interaktivitu z\'av\v erem: \LaTeX 2JS}{23}{section.421}\protected@file@percent }
\babel@aux{czech}{}
\pbs@newkey{pbs@last@page}{24}
\newlabel{striz-manim/striz-manim}{{}{24}{}{section*.422}{}}
\babel@aux{czech}{}
\@writefile{toc}{\contentsline {part}{Pavel St\v r\IeC {\'\i }\v z: Prvn\IeC {\'\i } kontakt s~programem Manim}{24}{section*.423}\protected@file@percent }
\babel@aux{czech}{}
\babel@aux{czech}{}
\babel@aux{czech}{}
\babel@aux{czech}{}
\babel@aux{english}{}
\babel@aux{czech}{}
\babel@aux{english}{}
\babel@aux{czech}{}
\@writefile{toc}{\contentsline {section}{\numberline {1.}Mohou za to kvaterniony}{24}{section.424}\protected@file@percent }
\pbs@newkey{pbs@last@page}{25}
\@writefile{toc}{\contentsline {section}{\numberline {2.}Hello World! aneb Manim\ animuje \v ctverec na kole\v cko}{25}{section.429}\protected@file@percent }
\pbs@newkey{pbs@last@page}{26}
\@writefile{toc}{\contentsline {section}{\numberline {3.}Hloub\v eji u spu\v st\v en\IeC {\'\i } z p\v r\IeC {\'\i }kazov\'eho \v r\'adku}{26}{section.440}\protected@file@percent }
\@writefile{toc}{\contentsline {section}{\numberline {4.}Inspirativn\IeC {\'\i } zdroje}{26}{section.441}\protected@file@percent }
\pbs@newkey{pbs@last@page}{27}
\@writefile{toc}{\contentsline {section}{\numberline {5.}Ot\'azky a odpov\v edi}{27}{section.442}\protected@file@percent }
\@writefile{toc}{\contentsline {subsection}{\numberline {5.1.}Jak \v re\v sit diakritick\'e znaky?}{27}{subsection.443}\protected@file@percent }
\@writefile{lol}{\contentsline {lstlisting}{zdrojaky/striz\textendash manim/manim/manimlib/tex\textunderscore template.tex}{27}{lstlisting.444}\protected@file@percent }
\pbs@newkey{pbs@last@page}{28}
\@writefile{lol}{\contentsline {lstlisting}{zdrojaky/striz\textendash manim/manim/ukazky/ahoj\textendash svete.py}{28}{lstlisting.461}\protected@file@percent }
\@writefile{toc}{\contentsline {subsection}{\numberline {5.2.}Lze za\v radit \href  {https://www.ctan.org/pkg/pgf}{Ti\emph  {k}Z?}}{28}{subsection.468}\protected@file@percent }
\@writefile{lol}{\contentsline {lstlisting}{zdrojaky/striz\textendash manim/manim/ukazky/moda\textendash live.py}{28}{lstlisting.469}\protected@file@percent }
\pbs@newkey{pbs@last@page}{29}
\@writefile{toc}{\contentsline {subsection}{\numberline {5.3.}Lze animovat matematiku?}{29}{subsection.484}\protected@file@percent }
\@writefile{lol}{\contentsline {lstlisting}{zdrojaky/striz\textendash manim/manim/ukazky/rovnice.py}{29}{lstlisting.485}\protected@file@percent }
\@writefile{toc}{\contentsline {subsection}{\numberline {5.4.}Lze animovat kand\v zi?}{29}{subsection.495}\protected@file@percent }
\pbs@newkey{pbs@last@page}{30}
\@writefile{lol}{\contentsline {lstlisting}{zdrojaky/striz\textendash manim/manim/manimlib/ctex\textunderscore template.tex}{30}{lstlisting.498}\protected@file@percent }
\@writefile{toc}{\contentsline {subsection}{\numberline {5.5.}Lze animovat v\'ystupy z teorie graf\r u?}{30}{subsection.514}\protected@file@percent }
\pbs@newkey{pbs@last@page}{31}
\@writefile{toc}{\contentsline {subsection}{\numberline {5.6.}Lze animovat diagramy?}{31}{subsection.522}\protected@file@percent }
\@writefile{toc}{\contentsline {section}{\numberline {6.}Co s programem Manim\ neum\IeC {\'\i }m?}{31}{section.526}\protected@file@percent }
\pbs@newkey{pbs@last@page}{32}
\babel@aux{czech}{}
\pbs@newkey{pbs@last@page}{33}
\newlabel{striz-horak/striz-horak}{{}{33}{}{section*.527}{}}
\babel@aux{czech}{}
\@writefile{toc}{\contentsline {part}{Pavel St\v r\IeC {\'\i }\v z: Sbohem, drah\'y Karle, sbohem!}{33}{section*.528}\protected@file@percent }
\@writefile{toc}{\contentsline {section}{Setk\'av\'an\IeC {\'\i } s~panem doktorem}{33}{section*.529}\protected@file@percent }
\pbs@newkey{pbs@last@page}{34}
\pbs@newkey{pbs@last@page}{35}
\pbs@newkey{pbs@last@page}{36}
\@writefile{toc}{\contentsline {section}{Nakladatelstv\IeC {\'\i } Prometheus a J\v CMF}{36}{section*.530}\protected@file@percent }
\@writefile{toc}{\contentsline {section}{Matematick\'a olympi\'ada}{36}{section*.531}\protected@file@percent }
\pbs@newkey{pbs@last@page}{37}
\pbs@newkey{pbs@last@page}{38}
\@writefile{toc}{\contentsline {section}{Matematick\'y \'ustav AV \v CR}{38}{section*.533}\protected@file@percent }
\babel@aux{english}{}
\pbs@newkey{pbs@last@page}{39}
\babel@aux{czech}{}
\babel@aux{english}{}
\babel@aux{czech}{}
\babel@aux{czech}{}
\pbs@newkey{pbs@last@page}{40}
\babel@aux{english}{}
\babel@aux{czech}{}
\babel@aux{czech}{}
\babel@aux{english}{}
\babel@aux{czech}{}
\babel@aux{czech}{}
\pbs@newkey{pbs@last@page}{41}
\babel@aux{english}{}
\babel@aux{czech}{}
\babel@aux{czech}{}
\@writefile{toc}{\contentsline {section}{Byl jednou jeden pan doktor}{41}{section*.534}\protected@file@percent }
\pbs@newkey{pbs@last@page}{42}
\babel@aux{czech}{}
\babel@aux{czech}{}
\babel@aux{czech}{}
\babel@aux{czech}{}
\babel@aux{english}{}
\babel@aux{czech}{}
\babel@aux{czech}{}
\pbs@newkey{pbs@last@page}{43}
\newlabel{striz-novinky-tex/striz-novinky-tex}{{}{43}{}{section*.537}{}}
\babel@aux{czech}{}
\@writefile{toc}{\contentsline {part}{Pavel St\v r\IeC {\'\i }\v z: T\kern -.1667em\lower .5ex\hbox {E}\kern -.125emXLive 2020: Novinky v T\kern -.1667em\lower .5ex\hbox {E}\kern -.125emXov\'em sv\v et\v e}{43}{section*.538}\protected@file@percent }
\@writefile{toc}{\contentsline {section}{\numberline {1.}Instalace}{43}{section.539}\protected@file@percent }
\@writefile{toc}{\contentsline {section}{\numberline {2.}Novinky}{43}{section.545}\protected@file@percent }
\pbs@newkey{pbs@last@page}{44}
\@writefile{toc}{\contentsline {subsection}{\numberline {2.1.}Bal\IeC {\'\i }\v cek \href  {https://ctan.org/pkg/nicematrix}{\textsf  {nicematrix}}}{44}{subsection.546}\protected@file@percent }
\@writefile{lol}{\contentsline {lstlisting}{zdrojaky/striz\textendash novinky\textendash tex/vzorky/mal\textendash nicematrix.tex}{44}{lstlisting.547}\protected@file@percent }
\pbs@newkey{pbs@last@page}{45}
\@writefile{toc}{\contentsline {subsection}{\numberline {2.2.}Bal\IeC {\'\i }\v cek \href  {https://ctan.org/pkg/witharrows}{\textsf  {witharrows}}}{45}{subsection.571}\protected@file@percent }
\@writefile{lol}{\contentsline {lstlisting}{zdrojaky/striz\textendash novinky\textendash tex/vzorky/mal\textendash witharrows.tex}{45}{lstlisting.572}\protected@file@percent }
\@writefile{toc}{\contentsline {subsection}{\numberline {2.3.}Bal\IeC {\'\i }\v cek \href  {https://ctan.org/pkg/siunitx}{\textsf  {siunitx}}}{45}{subsection.588}\protected@file@percent }
\@writefile{lol}{\contentsline {lstlisting}{zdrojaky/striz\textendash novinky\textendash tex/vzorky/mal\textendash siunitx.tex}{45}{lstlisting.589}\protected@file@percent }
\pbs@newkey{pbs@last@page}{46}
\@writefile{toc}{\contentsline {subsection}{\numberline {2.4.}Bal\IeC {\'\i }\v cek \href  {https://ctan.org/pkg/tikz-network}{\textsf  {tikz-network}}}{46}{subsection.605}\protected@file@percent }
\@writefile{lol}{\contentsline {lstlisting}{zdrojaky/striz\textendash novinky\textendash tex/vzorky/mal\textendash tikz-network.tex}{46}{lstlisting.611}\protected@file@percent }
\pbs@newkey{pbs@last@page}{47}
\@writefile{toc}{\contentsline {subsection}{\numberline {2.5.}Bal\IeC {\'\i }\v cek \href  {https://ctan.org/pkg/xlop}{\textsf  {xlop}}}{47}{subsection.621}\protected@file@percent }
\@writefile{lol}{\contentsline {lstlisting}{zdrojaky/striz\textendash novinky\textendash tex/vzorky/mal\textendash xlop.tex}{47}{lstlisting.622}\protected@file@percent }
\@writefile{toc}{\contentsline {subsection}{\numberline {2.6.}Bal\IeC {\'\i }\v cek \href  {https://ctan.org/pkg/codeanatomy}{\textsf  {codeanatomy}}}{47}{subsection.630}\protected@file@percent }
\@writefile{lol}{\contentsline {lstlisting}{zdrojaky/striz\textendash novinky\textendash tex/vzorky/mal\textendash codeanatomy.tex}{47}{lstlisting.631}\protected@file@percent }
\pbs@newkey{pbs@last@page}{48}
\@writefile{toc}{\contentsline {subsection}{\numberline {2.7.}Bal\IeC {\'\i }\v cek \href  {https://ctan.org/pkg/mercatormap}{\textsf  {mercatormap}}}{48}{subsection.656}\protected@file@percent }
\pbs@newkey{pbs@last@page}{49}
\@writefile{lol}{\contentsline {lstlisting}{zdrojaky/striz\textendash novinky\textendash tex/vzorky/mal\textendash mercatormap.tex}{49}{lstlisting.660}\protected@file@percent }
\pbs@newkey{pbs@last@page}{50}
\@writefile{toc}{\contentsline {subsection}{\numberline {2.8.}Bal\IeC {\'\i }\v cek \href  {https://ctan.org/pkg/tcolorbox}{\textsf  {tcolorbox}}}{50}{subsection.678}\protected@file@percent }
\@writefile{lol}{\contentsline {lstlisting}{zdrojaky/striz\textendash novinky\textendash tex/vzorky/mal\textendash tcolorbox.tex}{50}{lstlisting.679}\protected@file@percent }
\@writefile{toc}{\contentsline {subsection}{\numberline {2.9.}Bal\IeC {\'\i }\v cek \href  {https://ctan.org/pkg/tikz-planets}{\textsf  {tikz-planets}}}{50}{subsection.697}\protected@file@percent }
\@writefile{lol}{\contentsline {lstlisting}{zdrojaky/striz\textendash novinky\textendash tex/vzorky/mal\textendash tikz-planets.tex}{50}{lstlisting.698}\protected@file@percent }
\pbs@newkey{pbs@last@page}{51}
\@writefile{toc}{\contentsline {subsection}{\numberline {2.10.}Bal\IeC {\'\i }\v cek \href  {https://ctan.org/pkg/emoji}{\textsf  {emoji}}}{51}{subsection.722}\protected@file@percent }
\pbs@newkey{pbs@last@page}{52}
\@writefile{lol}{\contentsline {lstlisting}{zdrojaky/striz\textendash novinky\textendash tex/vzorky/mal\textendash emoji.tex}{52}{lstlisting.726}\protected@file@percent }
\@writefile{toc}{\contentsline {subsection}{\numberline {2.11.}Bal\IeC {\'\i }\v cek \href  {https://ctan.org/pkg/pgfornament}{\textsf  {pgfornament}}}{52}{subsection.739}\protected@file@percent }
\@writefile{lol}{\contentsline {lstlisting}{zdrojaky/striz\textendash novinky\textendash tex/vzorky/mal\textendash pgfornament.tex}{52}{lstlisting.740}\protected@file@percent }
\pbs@newkey{pbs@last@page}{53}
\@writefile{toc}{\contentsline {subsection}{\numberline {2.12.}Za pozornost je\v st\v e stoj\IeC {\'\i }}{53}{subsection.752}\protected@file@percent }
\@writefile{toc}{\contentsline {section}{\numberline {3.}\MP  {} ztracen a nalezen}{53}{section.753}\protected@file@percent }
\pbs@newkey{pbs@last@page}{54}
\@writefile{lol}{\contentsline {lstlisting}{zdrojaky/striz\textendash novinky\textendash tex/vzorky/metapost/zoonek.mp}{54}{lstlisting.754}\protected@file@percent }
\@writefile{lol}{\contentsline {lstlisting}{zdrojaky/striz\textendash novinky\textendash tex/vzorky/metapost/index.htm}{54}{lstlisting.774}\protected@file@percent }
\pbs@newkey{pbs@last@page}{55}
\@writefile{toc}{\contentsline {section}{\numberline {4.}Co dodat z\'av\v erem?}{55}{section.787}\protected@file@percent }
\pbs@newkey{pbs@last@page}{56}
\@writefile{toc}{\contentsline {chapter}{Pl\'anovac\IeC {\'\i } kalend\'a\v r linuxov\'ych distribuc\IeC {\'\i }}{56}{section.787}\protected@file@percent }
\babel@aux{czech}{}
\pbs@newkey{pbs@last@page}{57}
\newlabel{fabian-nova-kniha/fabian-nova-kniha}{{}{57}{}{section*.788}{}}
\babel@aux{czech}{}
\@writefile{toc}{\contentsline {part}{Redakce \v casopisu: Nov\'a kniha Zde\v nka Fabi\'ana}{57}{section*.789}\protected@file@percent }
\pbs@newkey{pbs@last@page}{58}
\babel@aux{czech}{}
\gdef \@abspage@last{58}
