\relax 
\providecommand\hyper@newdestlabel[2]{}
\providecommand\babel@aux[2]{}
\@nameuse{bbl@beforestart}
\catcode `^\active 
\catcode `"\active 
\catcode `'\active 
\catcode `-\active 
\providecommand\HyperFirstAtBeginDocument{\AtBeginDocument}
\HyperFirstAtBeginDocument{\ifx\hyper@anchor\@undefined
\global\let\oldcontentsline\contentsline
\gdef\contentsline#1#2#3#4{\oldcontentsline{#1}{#2}{#3}}
\global\let\oldnewlabel\newlabel
\gdef\newlabel#1#2{\newlabelxx{#1}#2}
\gdef\newlabelxx#1#2#3#4#5#6{\oldnewlabel{#1}{{#2}{#3}}}
\AtEndDocument{\ifx\hyper@anchor\@undefined
\let\contentsline\oldcontentsline
\let\newlabel\oldnewlabel
\fi}
\fi}
\global\let\hyper@last\relax 
\gdef\HyperFirstAtBeginDocument#1{#1}
\providecommand\HyField@AuxAddToFields[1]{}
\providecommand\HyField@AuxAddToCoFields[2]{}
\babel@aux{czech}{}
\babel@aux{english}{}
\babel@aux{czech}{}
\babel@aux{czech}{}
\pgfsyspdfmark {pgfid1}{5719326}{47216927}
\pgfsyspdfmark {pgfid2}{5719326}{47216927}
\newlabel{volf1/volf1}{{}{3}{}{section*.1}{}}
\babel@aux{czech}{}
\babel@aux{czech}{}
\babel@aux{czech}{}
\babel@aux{english}{}
\babel@aux{czech}{}
\citation{Ma}
\citation{Ma}
\citation{DC}
\@writefile{toc}{\contentsline {section}{\numberline {1}\'{U}vod, modely zohled\v nuj\IeC {\'\i }c\IeC {\'\i } dom\'ac\IeC {\'\i } v\'yhodu}{4}{section.2}\protected@file@percent }
\@writefile{brf}{\backcite{Ma}{{4}{1}{section.2}}}
\newlabel{1}{{1}{4}{\'{U}vod, modely zohledňující domácí výhodu}{equation.3}{}}
\@writefile{brf}{\backcite{Ma}{{4}{1}{equation.3}}}
\@writefile{brf}{\backcite{DC}{{4}{1}{equation.3}}}
\citation{V2}
\citation{V1}
\citation{Po}
\citation{Po}
\citation{Po}
\citation{MV}
\@writefile{brf}{\backcite{V2}{{5}{1}{equation.3}}}
\@writefile{brf}{\backcite{V1}{{5}{1}{equation.3}}}
\@writefile{toc}{\contentsline {section}{\numberline {2}Jak jednodu\v {s}e m\v e\v {r}it dom\'ac\IeC {\'\i } v\'yhodu?}{5}{section.4}\protected@file@percent }
\@writefile{brf}{\backcite{Po}{{5}{2}{section.4}}}
\@writefile{brf}{\backcite{MV}{{5}{2}{figure.caption.11}}}
\@writefile{lof}{\contentsline {figure}{\numberline {1}{\ignorespaces Tabulka 1 z~Pollard (1986).\cite  {Po}\relax }}{6}{figure.caption.11}\protected@file@percent }
\@writefile{brf}{\backcite{Po}{{6}{1}{figure.caption.11}}}
\providecommand*\caption@xref[2]{\@setref\relax\@undefined{#1}}
\newlabel{obr1}{{1}{6}{Tabulka 1 z~Pollard (1986).\cite {Po}\relax }{figure.caption.11}{}}
\@writefile{toc}{\contentsline {section}{\numberline {3}Anal\'yza vlivu Covidu na fotbalovou Fortuna ligu}{6}{section.13}\protected@file@percent }
\@writefile{lof}{\contentsline {figure}{\numberline {2}{\ignorespaces Proporce dom\'ac\IeC {\'\i }ch v\'yher (spodn\IeC {\'\i }, nejtmav\v s\IeC {\'\i } pole), rem\IeC {\'\i }z, proher (horn\IeC {\'\i }, nejsv\v etlej\v s\IeC {\'\i } pole) po jednotliv\'ych kolech v~sez\'on\'ach 2018/2019 a\v z 2022/2023. Dole je tot\'e\v z vyhlazeno klouzav\'ym oknem \v {s}\IeC {\'\i }\v {r}ky 7.\relax }}{7}{figure.caption.12}\protected@file@percent }
\newlabel{obr2}{{2}{7}{Proporce domácích výher (spodní, nejtmavší pole), remíz, proher (horní, nejsvětlejší pole) po jednotlivých kolech v~sezónách 2018/2019 až 2022/2023. Dole je totéž vyhlazeno klouzavým oknem \v {s}í\v {r}ky 7.\relax }{figure.caption.12}{}}
\@writefile{lot}{\contentsline {table}{\numberline {1}{\ignorespaces \v Cetnosti a~relativn\IeC {\'\i } \v cetnosti dom\'ac\IeC {\'\i }ch v\'yher, rem\IeC {\'\i }z, proher.\relax }}{8}{table.caption.14}\protected@file@percent }
\newlabel{tab1}{{1}{8}{Četnosti a~relativní četnosti domácích výher, remíz, proher.\relax }{table.caption.14}{}}
\@writefile{lot}{\contentsline {table}{\numberline {2}{\ignorespaces Charakteristiky po\v ctu bod\r u z\IeC {\'\i }skan\'ych dom\'ac\IeC {\'\i }mi za 1 z\'apas.\relax }}{8}{table.caption.16}\protected@file@percent }
\newlabel{tab2}{{2}{8}{Charakteristiky počtu bodů získaných domácími za 1 zápas.\relax }{table.caption.16}{}}
\@writefile{lof}{\contentsline {figure}{\numberline {3}{\ignorespaces Pr\r um\v ern\'y po\v cet bod\r u z\IeC {\'\i }skan\'y dom\'ac\IeC {\'\i }m t\'ymem za 1 z\'apas, po jednotliv\'ych kolech.\relax }}{9}{figure.caption.15}\protected@file@percent }
\newlabel{obr3}{{3}{9}{Průměrný počet bodů získaný domácím týmem za 1 zápas, po jednotlivých kolech.\relax }{figure.caption.15}{}}
\@writefile{lot}{\contentsline {table}{\numberline {3}{\ignorespaces Charakteristiky po\v ctu vst\v {r}elen\'ych g\'ol\r u za jedno kolo.\relax }}{9}{table.caption.18}\protected@file@percent }
\newlabel{tab3}{{3}{9}{Charakteristiky počtu vst\v {r}elených gólů za jedno kolo.\relax }{table.caption.18}{}}
\@writefile{lof}{\contentsline {figure}{\numberline {4}{\ignorespaces Po\v cty g\'ol\r u vst\v {r}elen\'ych dom\'ac\IeC {\'\i }mi (naho\v {r}e) a~hosty (dole) v~jednotliv\'ych kolech.\relax }}{10}{figure.caption.17}\protected@file@percent }
\newlabel{obr4}{{4}{10}{Počty gólů vst\v {r}elených domácími (naho\v {r}e) a~hosty (dole) v~jednotlivých kolech.\relax }{figure.caption.17}{}}
\@writefile{lof}{\contentsline {figure}{\numberline {5}{\ignorespaces Rozd\IeC {\'\i }ly po\v ctu g\'ol\r u vst\v {r}elen\'ych dom\'ac\IeC {\'\i }mi a~hosty v~jednotliv\'ych kolech.\relax }}{11}{figure.caption.19}\protected@file@percent }
\newlabel{obr5}{{5}{11}{Rozdíly počtu gólů vst\v {r}elených domácími a~hosty v~jednotlivých kolech.\relax }{figure.caption.19}{}}
\@writefile{lof}{\contentsline {figure}{\numberline {6}{\ignorespaces Po\v cty dom\'ac\IeC {\'\i }ch v\'yher v~jednotliv\'ych kolech hokejov\'e extraligy (te\v ckovan\v e), vyrovnan\'e pro ka\v zdou sez\'onu klouzav\'ym oknem \v {s}\IeC {\'\i }\v {r}ky 7 (pln\'e k\v {r}ivky).\relax }}{12}{figure.caption.20}\protected@file@percent }
\newlabel{obr6}{{6}{12}{Počty domácích výher v~jednotlivých kolech hokejové extraligy (tečkovaně), vyrovnané pro každou sezónu klouzavým oknem \v {s}í\v {r}ky 7 (plné k\v {r}ivky).\relax }{figure.caption.20}{}}
\@writefile{toc}{\contentsline {section}{\numberline {4}V\'ysledky pro hokejovou Tipsport extraligu}{13}{section.21}\protected@file@percent }
\@writefile{lot}{\contentsline {table}{\numberline {4}{\ignorespaces \v Cetnosti dom\'ac\IeC {\'\i }ch v\'yher a~proher.\relax }}{13}{table.caption.22}\protected@file@percent }
\newlabel{tab4}{{4}{13}{Četnosti domácích výher a~proher.\relax }{table.caption.22}{}}
\@writefile{lof}{\contentsline {figure}{\numberline {7}{\ignorespaces Po\v cty dom\'ac\IeC {\'\i }ch v\IeC {\'\i }t\v ezstv\IeC {\'\i } za $d=5$ kol po sedmi z\'apasech. Linie jsou pr\r um\v er a~$+ -$ 2 sigma, 3 sigma p\'asy, po\v c\IeC {\'\i }tan\'e bez ro\v cn\IeC {\'\i }ku 2020/2021.\relax }}{14}{figure.caption.23}\protected@file@percent }
\newlabel{obr7}{{7}{14}{Počty domácích vítězství za $d=5$ kol po sedmi zápasech. Linie jsou průměr a~$+ -$ 2 sigma, 3 sigma pásy, počítané bez ročníku 2020/2021.\relax }{figure.caption.23}{}}
\citation{Wu}
\@writefile{toc}{\contentsline {section}{\numberline {5}Z\'av\v ere\v cn\'e pozn\'amky}{15}{section.24}\protected@file@percent }
\@writefile{brf}{\backcite{Wu}{{15}{5}{section.24}}}
\bibcite{DC}{1}
\bibcite{He}{2}
\bibcite{KN}{3}
\bibcite{Ma}{4}
\bibcite{MV}{5}
\bibcite{Po}{6}
\bibcite{Ra}{7}
\bibcite{V1}{8}
\bibcite{V2}{9}
\bibcite{V3}{10}
\bibcite{Wu}{11}
\babel@aux{czech}{}
\newlabel{bochum/bochum}{{}{17}{}{section*.26}{}}
\babel@aux{english}{}
\babel@aux{czech}{}
\newlabel{ossconf/ossconf}{{}{18}{}{section*.27}{}}
\babel@aux{slovak}{}
\babel@aux{czech}{}
\citation{Maly}
\citation{Dohnal}
\newlabel{mikuklas/mikuklas}{{}{19}{}{section*.28}{}}
\babel@aux{czech}{}
\@writefile{brf}{\backcite{Maly}{{19}{(document)}{Doc-Start}}}
\bibcite{Maly}{1}
\bibcite{Dohnal}{2}
\@writefile{brf}{\backcite{Dohnal}{{20}{(document)}{Doc-Start}}}
\babel@aux{czech}{}
\newlabel{energy-days/energy-days}{{}{21}{}{section*.30}{}}
\babel@aux{czech}{}
\babel@aux{czech}{}
\newlabel{chupan/chupan}{{}{23}{}{section*.31}{}}
\babel@aux{czech}{}
\@writefile{toc}{\contentsline {section}{\numberline {1}Statistick\'e dny v~Tel\v ci \IeC {\textendash } z\'a\v r\IeC {\'\i } 2022}{23}{section.32}\protected@file@percent }
\citation{smoljak}
\@writefile{brf}{\backcite{smoljak}{{24}{1}{section.32}}}
\@writefile{toc}{\contentsline {section}{\numberline {2}Statistick\'e dny na b\v rehu Tich\'e Orlice \IeC {\textendash } kv\v eten 2023}{25}{section.33}\protected@file@percent }
\bibcite{smoljak}{1}
\babel@aux{czech}{}
\newlabel{statisticke-dny/statisticke-dny}{{}{29}{}{section*.37}{}}
\babel@aux{czech}{}
\babel@aux{czech}{}
\newlabel{striz-sudoku/striz-sudoku}{{}{30}{}{section*.38}{}}
\babel@aux{czech}{}
\babel@aux{czech}{}
\gdef \@abspage@last{30}
