\relax 
\providecommand\hyper@newdestlabel[2]{}
\providecommand\zref@newlabel[2]{}
\providecommand\babel@aux[2]{}
\@nameuse{bbl@beforestart}
\catcode `"\active 
\catcode `-\active 
\catcode `^\active 
\catcode `'\active 
\providecommand\HyperFirstAtBeginDocument{\AtBeginDocument}
\HyperFirstAtBeginDocument{\ifx\hyper@anchor\@undefined
\global\let\oldcontentsline\contentsline
\gdef\contentsline#1#2#3#4{\oldcontentsline{#1}{#2}{#3}}
\global\let\oldnewlabel\newlabel
\gdef\newlabel#1#2{\newlabelxx{#1}#2}
\gdef\newlabelxx#1#2#3#4#5#6{\oldnewlabel{#1}{{#2}{#3}}}
\AtEndDocument{\ifx\hyper@anchor\@undefined
\let\contentsline\oldcontentsline
\let\newlabel\oldnewlabel
\fi}
\fi}
\global\let\hyper@last\relax 
\gdef\HyperFirstAtBeginDocument#1{#1}
\providecommand\HyField@AuxAddToFields[1]{}
\providecommand\HyField@AuxAddToCoFields[2]{}
\providecommand\pbs@newkey[2]{}
\providecommand\pbs@seq@push@cx[2]{}
\providecommand\pbs@at@end@dvi@check{}
\pbs@at@end@dvi@check
\providecommand\@anim@newkey[2]{}
\providecommand\mix@newkey[2]{}
\pbs@newkey{pbs@last@page}{1}
\providecommand \oddpage@label [2]{}
\babel@aux{czech}{}
\babel@aux{english}{}
\babel@aux{slovak}{}
\babel@aux{czech}{}
\pgfsyspdfmark {pgfid3}{5719326}{47216927}
\pbs@newkey{pbs@last@page}{2}
\pgfsyspdfmark {pgfid4}{5719326}{47216927}
\pbs@newkey{pbs@last@page}{3}
\newlabel{uvodnik-striz/uvodnik-striz}{{}{3}{}{section*.1}{}}
\babel@aux{czech}{}
\@writefile{toc}{\contentsline {part}{Pavel St\v r\IeC {\'\i }\v z: Pr\r uvodn\IeC {\'\i } slovo k mimo\v r\'adn\'emu \v c\IeC {\'\i }slu}{3}{section*.2}\protected@file@percent }
\babel@aux{czech}{}
\pbs@newkey{pbs@last@page}{4}
\newlabel{blasko-asy/blasko-asy}{{}{4}{}{section*.3}{}}
\babel@aux{slovak}{}
\@writefile{toc}{\contentsline {part}{Rudolf Bla\v sko: Asymptote a \LaTeX }{4}{section*.4}\protected@file@percent }
\babel@aux{czech}{}
\babel@aux{slovak}{}
\babel@aux{slovak}{}
\babel@aux{slovak}{}
\babel@aux{english}{}
\citation{texbook}
\pbs@newkey{pbs@last@page}{5}
\babel@aux{slovak}{}
\babel@aux{english}{}
\babel@aux{slovak}{}
\@writefile{toc}{\contentsline {section}{\'Uvod}{5}{section*.5}\protected@file@percent }
\@writefile{brf}{\backcite{texbook}{{5}{(document)}{Doc-Start}}}
\citation{hammerlindl}
\citation{blasko}
\citation{striz}
\pbs@newkey{pbs@last@page}{6}
\@writefile{toc}{\contentsline {section}{\numberline {1.}Asymptote}{6}{section.7}\protected@file@percent }
\@writefile{brf}{\backcite{hammerlindl,blasko}{{6}{1.}{section.7}}}
\pbs@newkey{pbs@last@page}{7}
\@writefile{brf}{\backcite{striz}{{7}{1.}{section.7}}}
\@writefile{toc}{\contentsline {section}{\numberline {2.}Asymptote a T\kern -.1667em\lower .5ex\hbox {E}\kern -.125emX}{7}{section.8}\protected@file@percent }
\pbs@newkey{pbs@last@page}{8}
\pbs@newkey{pbs@last@page}{9}
\@writefile{lof}{\contentsline {figure}{\numberline {1}{\ignorespaces Kardioida $f\!:\rho (\varphi )=a(1+\qopname  \relax o{cos}{\varphi })$, $\varphi \in \langle 0,2\pi \rangle $, $a>0$\relax }}{9}{figure.caption.9}\protected@file@percent }
\providecommand*\caption@xref[2]{\@setref\relax\@undefined{#1}}
\newlabel{obr01}{{1}{9}{Kardioida $f\!:\rho (\varphi )=a(1+\cos {\varphi })$, $\varphi \in \langle 0,2\pi \rangle $, $a>0$\relax }{figure.caption.9}{}}
\pbs@newkey{pbs@last@page}{10}
\@writefile{toc}{\contentsline {section}{\numberline {3.}Asymptote a 3D obr\'azky}{10}{section.11}\protected@file@percent }
\mix@newkey{main@mal-core-3}{420 0 R}
\mix@newkey{ann@mal-core-3}{424 0 R}
\mix@newkey{main@mal-core-4}{431 0 R}
\mix@newkey{ann@mal-core-4}{435 0 R}
\mix@newkey{main@mal-core-5}{442 0 R}
\mix@newkey{ann@mal-core-5}{446 0 R}
\pbs@newkey{pbs@last@page}{11}
\@writefile{lof}{\contentsline {figure}{\numberline {2}{\ignorespaces Pr\IeC {\'\i }klad anim\'acie hypocykloidy\relax }}{11}{figure.caption.10}\protected@file@percent }
\newlabel{obr02}{{2}{11}{Príklad animácie hypocykloidy\relax }{figure.caption.10}{}}
\pbs@newkey{pbs@last@page}{12}
\mix@newkey{page@mal-core-3}{11}
\mix@newkey{page@mal-core-4}{11}
\mix@newkey{page@mal-core-5}{11}
\@writefile{lof}{\contentsline {figure}{\numberline {3}{\ignorespaces Graf funkcie $z=\qopname  \relax o{sin}{x}\cdot \qopname  \relax o{sin}{y}$, $(x,y)\in \langle -\pi ,\pi \rangle \times \langle -\pi ,\pi \rangle $\relax }}{12}{figure.caption.12}\protected@file@percent }
\newlabel{obr03}{{3}{12}{Graf funkcie $z=\sin {x}\cdot \sin {y}$, $(x,y)\in \langle -\pi ,\pi \rangle \times \langle -\pi ,\pi \rangle $\relax }{figure.caption.12}{}}
\mix@newkey{main@mal-core-6}{499 0 R}
\mix@newkey{ann@mal-core-6}{503 0 R}
\mix@newkey{main@mal-core-7}{510 0 R}
\mix@newkey{ann@mal-core-7}{514 0 R}
\mix@newkey{main@mal-core-8}{522 0 R}
\mix@newkey{ann@mal-core-8}{526 0 R}
\pbs@newkey{pbs@last@page}{13}
\mix@newkey{page@mal-core-6}{12}
\@writefile{lof}{\contentsline {figure}{\numberline {4}{\ignorespaces Graf funkcie $f(x,y)=x^2-y^2$, $(x,y)\in R^2$\relax }}{13}{figure.caption.13}\protected@file@percent }
\newlabel{obr04}{{4}{13}{Graf funkcie $f(x,y)=x^2-y^2$, $(x,y)\in R^2$\relax }{figure.caption.13}{}}
\pbs@newkey{pbs@last@page}{14}
\mix@newkey{page@mal-core-7}{13}
\@writefile{lof}{\contentsline {figure}{\numberline {5}{\ignorespaces Graf funkcie $f(x,y)=\frac  {\sqrt  {x^2+y^2}}{\sqrt  {x^2+y^2+1}-1}$,  $(x,y)\in R^2-\{(0,0)\}$ v~okol\IeC {\'\i } bodu~$(0,0)$\relax }}{14}{figure.caption.14}\protected@file@percent }
\newlabel{obr05}{{5}{14}{Graf funkcie $f(x,y)=\frac {\sqrt {x^2+y^2}}{\sqrt {x^2+y^2+1}-1}$,\\ $(x,y)\in R^2-\{(0,0)\}$ v~okolí bodu~$(0,0)$\relax }{figure.caption.14}{}}
\pbs@newkey{pbs@last@page}{15}
\mix@newkey{page@mal-core-8}{14}
\@writefile{lof}{\contentsline {figure}{\numberline {6}{\ignorespaces Graf funkcie $f(x,y)=x^2-y^2+3$, $(x,y)\in R^2$\relax }}{15}{figure.caption.15}\protected@file@percent }
\newlabel{obr06}{{6}{15}{Graf funkcie $f(x,y)=x^2-y^2+3$, $(x,y)\in R^2$\relax }{figure.caption.15}{}}
\pbs@newkey{pbs@last@page}{16}
\mix@newkey{main@mal-core-9}{580 0 R}
\mix@newkey{ann@mal-core-9}{584 0 R}
\mix@newkey{main@mal-core-10}{591 0 R}
\mix@newkey{ann@mal-core-10}{595 0 R}
\mix@newkey{main@mal-core-11}{602 0 R}
\mix@newkey{ann@mal-core-11}{606 0 R}
\citation{tikz}
\citation{alesko01}
\pbs@newkey{pbs@last@page}{17}
\@writefile{toc}{\contentsline {section}{Z\'aver}{17}{figure.caption.16}\protected@file@percent }
\babel@aux{ngerman}{}
\babel@aux{slovak}{}
\@writefile{brf}{\backcite{tikz}{{17}{3.}{section*.17}}}
\@writefile{brf}{\backcite{alesko01}{{17}{3.}{section*.17}}}
\bibcite{blasko}{1}
\bibcite{hammerlindl}{2}
\bibcite{texbook}{3}
\bibcite{alesko01}{4}
\bibcite{striz}{5}
\bibcite{tikz}{6}
\pbs@newkey{pbs@last@page}{18}
\mix@newkey{page@mal-core-9}{17}
\@writefile{lof}{\contentsline {figure}{\numberline {7}{\ignorespaces \v Spir\'ala\relax }}{18}{figure.caption.16}\protected@file@percent }
\newlabel{obr07}{{7}{18}{Špirála\relax }{figure.caption.16}{}}
\mix@newkey{page@mal-core-10}{17}
\@writefile{lof}{\contentsline {figure}{\numberline {8}{\ignorespaces Vektory\relax }}{18}{figure.caption.16}\protected@file@percent }
\newlabel{obr08}{{8}{18}{Vektory\relax }{figure.caption.16}{}}
\mix@newkey{page@mal-core-11}{17}
\@writefile{lof}{\contentsline {figure}{\numberline {9}{\ignorespaces Graf funkcie\relax }}{18}{figure.caption.16}\protected@file@percent }
\newlabel{obr09}{{9}{18}{Graf funkcie\relax }{figure.caption.16}{}}
\@writefile{toc}{\contentsline {section}{Literat\'ura}{18}{section*.17}\protected@file@percent }
\babel@aux{czech}{}
\pbs@newkey{pbs@last@page}{19}
\newlabel{striz-asy-dodatek/striz-asy-dodatek}{{}{19}{}{section*.19}{}}
\babel@aux{czech}{}
\@writefile{toc}{\contentsline {part}{Pavel St\v r\IeC {\'\i }\v z: N\v ekolik post\v reh\r u k Asymptote}{19}{section*.20}\protected@file@percent }
\@writefile{toc}{\contentsline {section}{\numberline {1.}Vzpom\IeC {\'\i }nky na Asymptote}{19}{section.21}\protected@file@percent }
\@writefile{toc}{\contentsline {section}{\numberline {2.}Instalace Asymptote}{19}{section.24}\protected@file@percent }
\@writefile{toc}{\contentsline {section}{\numberline {3.}WebGL}{19}{section.30}\protected@file@percent }
\pbs@newkey{pbs@last@page}{20}
\pbs@newkey{pbs@last@page}{21}
\pbs@newkey{pbs@last@page}{22}
\@writefile{toc}{\contentsline {section}{\numberline {4.}Ovl\'ad\'an\IeC {\'\i } T\kern -.1667em\lower .5ex\hbox {E}\kern -.125emXov\'e prom\v enn\'e mimo T\kern -.1667em\lower .5ex\hbox {E}\kern -.125emX{}}{22}{section.88}\protected@file@percent }
\@writefile{toc}{\contentsline {section}{\numberline {5.}Generov\'an\IeC {\'\i } asy soubor\r u p\v res R: jednoduch\'a uk\'azka}{22}{section.107}\protected@file@percent }
\pbs@newkey{pbs@last@page}{23}
\pbs@newkey{pbs@last@page}{24}
\@writefile{toc}{\contentsline {section}{\numberline {6.}Generov\'an\IeC {\'\i } asy soubor\r u p\v res R: pokro\v cilej\v s\IeC {\'\i } uk\'azka}{24}{section.118}\protected@file@percent }
\pbs@newkey{pbs@last@page}{25}
\babel@aux{czech}{}
\pbs@newkey{pbs@last@page}{26}
\newlabel{striz-superpowers/striz-superpowers}{{}{26}{}{section*.170}{}}
\babel@aux{czech}{}
\@writefile{toc}{\contentsline {part}{Pavel St\v r\IeC {\'\i }\v z: Obs\'ahlej\v s\IeC {\'\i } recenze knihy AI Superpowers}{26}{section*.171}\protected@file@percent }
\@writefile{toc}{\contentsline {section}{P\v redstaven\IeC {\'\i } knihy a autora}{26}{section*.172}\protected@file@percent }
\pbs@newkey{pbs@last@page}{27}
\@writefile{toc}{\contentsline {section}{Kapitola 1: China's Sputnik Moment}{27}{section*.173}\protected@file@percent }
\@writefile{toc}{\contentsline {section}{Kapitola 2: Copycats in the Coliseum}{27}{section*.174}\protected@file@percent }
\pbs@newkey{pbs@last@page}{28}
\@writefile{toc}{\contentsline {section}{Kapitola 3: China's Alternate Internet Universe}{28}{section*.175}\protected@file@percent }
\@writefile{toc}{\contentsline {section}{Kapitola 4: A~Tale of Two Countries}{28}{section*.176}\protected@file@percent }
\@writefile{toc}{\contentsline {section}{Kapitola 5: The Four Waves of AI}{28}{section*.177}\protected@file@percent }
\pbs@newkey{pbs@last@page}{29}
\@writefile{toc}{\contentsline {section}{Kapitola 6: Utopia, Dystopia, and the Real AI Crisis}{29}{section*.178}\protected@file@percent }
\@writefile{toc}{\contentsline {section}{Kapitola 7: The Wisdom of Cancer}{29}{section*.179}\protected@file@percent }
\pbs@newkey{pbs@last@page}{30}
\@writefile{toc}{\contentsline {section}{Kapitola 8: A~Blueprint for Human Coexistence with AI}{30}{section*.180}\protected@file@percent }
\@writefile{toc}{\contentsline {section}{Kapitola 9: Our Global AI Story}{30}{section*.181}\protected@file@percent }
\pbs@newkey{pbs@last@page}{31}
\@writefile{toc}{\contentsline {section}{V\IeC {\'\i }ce informac\IeC {\'\i } pro z\'ajemce}{31}{section*.181}\protected@file@percent }
\@writefile{toc}{\contentsline {section}{Voln\'y p\v reklad vybran\'ych term\IeC {\'\i }n\r u a~zkratek}{31}{section*.181}\protected@file@percent }
\babel@aux{czech}{}
\pbs@newkey{pbs@last@page}{32}
\newlabel{striz-data-sketches/striz-data-sketches}{{}{32}{}{section*.184}{}}
\babel@aux{czech}{}
\@writefile{toc}{\contentsline {part}{Pavel St\v r\IeC {\'\i }\v z: Obs\'ahlej\v s\IeC {\'\i } recenze knihy Data Sketches}{32}{section*.185}\protected@file@percent }
\@writefile{toc}{\contentsline {section}{Co knihu p\v redch\'az\IeC {\'\i }}{32}{section*.186}\protected@file@percent }
\@writefile{toc}{\contentsline {section}{O \v cem kniha je: 5 \'urovn\IeC {\'\i }}{32}{section*.187}\protected@file@percent }
\pbs@newkey{pbs@last@page}{33}
\pbs@newkey{pbs@last@page}{34}
\@writefile{toc}{\contentsline {section}{\numberline {1.}Movies, July 2016}{34}{section.195}\protected@file@percent }
\pbs@newkey{pbs@last@page}{35}
\@writefile{toc}{\contentsline {section}{\numberline {2.}Olympics, August 2016}{35}{section.196}\protected@file@percent }
\pbs@newkey{pbs@last@page}{36}
\@writefile{toc}{\contentsline {section}{\numberline {3.}Travel, September 2016}{36}{section.197}\protected@file@percent }
\@writefile{toc}{\contentsline {section}{\numberline {4.}Presidents \& Royals, October 2016}{36}{section.198}\protected@file@percent }
\pbs@newkey{pbs@last@page}{37}
\@writefile{toc}{\contentsline {section}{\numberline {5.}Books, November 2016}{37}{section.199}\protected@file@percent }
\pbs@newkey{pbs@last@page}{38}
\@writefile{toc}{\contentsline {section}{\numberline {6.}Music, December 2016}{38}{section.200}\protected@file@percent }
\pbs@newkey{pbs@last@page}{39}
\@writefile{toc}{\contentsline {section}{\numberline {7.}Nostalgia, January 2017}{39}{section.201}\protected@file@percent }
\pbs@newkey{pbs@last@page}{40}
\@writefile{toc}{\contentsline {section}{\numberline {8.}Nature, February 2017}{40}{section.202}\protected@file@percent }
\pbs@newkey{pbs@last@page}{41}
\@writefile{toc}{\contentsline {section}{\numberline {9.}Culture, March 2017}{41}{section.203}\protected@file@percent }
\pbs@newkey{pbs@last@page}{42}
\@writefile{toc}{\contentsline {section}{\numberline {10.}Community, April 2017}{42}{section.204}\protected@file@percent }
\pbs@newkey{pbs@last@page}{43}
\@writefile{toc}{\contentsline {section}{\numberline {11.}Myths \& Legends, May+ 2017}{43}{section.214}\protected@file@percent }
\pbs@newkey{pbs@last@page}{44}
\@writefile{toc}{\contentsline {section}{\numberline {12.}Fearless, June+ 2017}{44}{section.215}\protected@file@percent }
\pbs@newkey{pbs@last@page}{45}
\@writefile{toc}{\contentsline {section}{Interview with Series Editor Tamara Munzner}{45}{section.215}\protected@file@percent }
\@writefile{toc}{\contentsline {section}{Z\'av\v ere\v cn\'e post\v rehy}{45}{section*.216}\protected@file@percent }
\babel@aux{czech}{}
\pbs@newkey{pbs@last@page}{46}
\newlabel{jurczyk/jurczyk}{{}{46}{}{section*.218}{}}
\babel@aux{czech}{}
\@writefile{toc}{\contentsline {part}{Redakce \v casopisu: Nov\'a kniha Tom\'a\v se Jurczyka}{46}{section*.219}\protected@file@percent }
\babel@aux{czech}{}
\gdef \@abspage@last{46}
