This is LuaHBTeX, Version 1.13.2 (TeX Live 2021)  (format=lualatex 2021.6.8)  31 OCT 2021 05:28
 restricted system commands enabled.
**ib-temp-a.tex
(./ib-temp-a.tex
LaTeX2e <2021-06-01>
Lua module: luaotfload 2021-05-21 3.18 Lua based OpenType font support
Lua module: lualibs 2021-05-20 2.74 ConTeXt Lua standard libraries.
Lua module: lualibs-extended 2021-05-20 2.74 ConTeXt Lua libraries -- extended c
ollection.
luaotfload | conf : Root cache directory is "/home/malipivo/texlive/2021/texmf-v
ar/luatex-cache/generic/names".
luaotfload | init : Loading fontloader "fontloader-2021-05-20.lua" from kpse-res
olved path "/home/malipivo/texlive/2021/texmf-dist/tex/luatex/luaotfload/fontloa
der-2021-05-20.lua".
Lua-only attribute luaotfload@noligature = 1
Lua-only attribute luaotfload@syllabe = 2
luaotfload | init : Context OpenType loader version 3.116
Inserting `luaotfload.node_processor' at position 1 in `pre_linebreak_filter'.
Inserting `luaotfload.node_processor' at position 1 in `hpack_filter'.
Inserting `luaotfload.glyph_stream' at position 1 in `glyph_stream_provider'.
Inserting `luaotfload.define_font' at position 1 in `define_font'.
Lua-only attribute luaotfload_color_attribute = 3
luaotfload | conf : Root cache directory is "/home/malipivo/texlive/2021/texmf-v
ar/luatex-cache/generic/names".
Inserting `luaotfload.harf.strip_prefix' at position 1 in `find_opentype_file'.
Inserting `luaotfload.harf.strip_prefix' at position 1 in `find_truetype_file'.
Inserting `luaotfload.harf.finalize_vlist' at position 1 in `post_linebreak_filt
er'.
Inserting `luaotfload.harf.finalize_hlist' at position 2 in `hpack_filter'.
Inserting `luaotfload.cleanup_files' at position 1 in `wrapup_run'.
Inserting `luaotfload.harf.finalize_unicode' at position 1 in `finish_pdffile'.
Inserting `luaotfload.glyphinfo' at position 1 in `glyph_info'.
Lua-only attribute luaotfload.letterspace_done = 4
Inserting `luaotfload.aux.set_sscale_dimens' at position 1 in `luaotfload.patch_
font'.
Inserting `luaotfload.aux.set_font_index' at position 2 in `luaotfload.patch_fon
t'.
Inserting `luaotfload.aux.patch_cambria_domh' at position 3 in `luaotfload.patch
_font'.
Inserting `luaotfload.aux.fixup_fontdata' at position 1 in `luaotfload.patch_fon
t_unsafe'.
Inserting `luaotfload.aux.set_capheight' at position 4 in `luaotfload.patch_font
'.
Inserting `luaotfload.aux.set_xheight' at position 5 in `luaotfload.patch_font'.
Inserting `luaotfload.rewrite_fontname' at position 6 in `luaotfload.patch_font'
. L3 programming layer <2021-06-01>
Inserting `tracingstacklevels' at position 1 in `input_level_string'.
(/home/malipivo/texlive/2021/texmf-dist/tex/latex/base/article.cls
Document Class: article 2021/02/12 v1.4n Standard LaTeX document class
(/home/malipivo/texlive/2021/texmf-dist/tex/latex/base/size10.clo
File: size10.clo 2021/02/12 v1.4n Standard LaTeX file (size option)
luaotfload | db : Font names database loaded from /home/malipivo/texlive/2021/te
xmf-var/luatex-cache/generic/names/luaotfload-names.luc)
\c@part=\count179
\c@section=\count180
\c@subsection=\count181
\c@subsubsection=\count182
\c@paragraph=\count183
\c@subparagraph=\count184
\c@figure=\count185
\c@table=\count186
\abovecaptionskip=\skip47
\belowcaptionskip=\skip48
\bibindent=\dimen138
)
(/home/malipivo/texlive/2021/texmf-dist/tex/latex/pdfpages/pdfpages.sty
Package: pdfpages 2021/03/06 v0.5t Insert pages of external PDF documents (AM)

(/home/malipivo/texlive/2021/texmf-dist/tex/latex/base/ifthen.sty
Package: ifthen 2020/11/24 v1.1c Standard LaTeX ifthen package (DPC)
)
(/home/malipivo/texlive/2021/texmf-dist/tex/latex/tools/calc.sty
Package: calc 2017/05/25 v4.3 Infix arithmetic (KKT,FJ)
\calc@Acount=\count187
\calc@Bcount=\count188
\calc@Adimen=\dimen139
\calc@Bdimen=\dimen140
\calc@Askip=\skip49
\calc@Bskip=\skip50
LaTeX Info: Redefining \setlength on input line 80.
LaTeX Info: Redefining \addtolength on input line 81.
\calc@Ccount=\count189
\calc@Cskip=\skip51
)
(/home/malipivo/texlive/2021/texmf-dist/tex/latex/eso-pic/eso-pic.sty
Package: eso-pic 2020/10/14 v3.0a eso-pic (RN)
\ESO@tempdima=\dimen141
\ESO@tempdimb=\dimen142

(/home/malipivo/texlive/2021/texmf-dist/tex/latex/graphics/keyval.sty
Package: keyval 2014/10/28 v1.15 key=value parser (DPC)
\KV@toks@=\toks16
)
(/home/malipivo/texlive/2021/texmf-dist/tex/latex/xcolor/xcolor.sty
Package: xcolor 2016/05/11 v2.12 LaTeX color extensions (UK)

(/home/malipivo/texlive/2021/texmf-dist/tex/latex/graphics-cfg/color.cfg
File: color.cfg 2016/01/02 v1.6 sample color configuration
)
Package xcolor Info: Driver file: luatex.def on input line 225.

(/home/malipivo/texlive/2021/texmf-dist/tex/latex/graphics-def/luatex.def
File: luatex.def 2021/06/01 v1.2c Graphics/color driver for luatex
)
Package xcolor Info: Model `cmy' substituted by `cmy0' on input line 1348.
Package xcolor Info: Model `hsb' substituted by `rgb' on input line 1352.
Package xcolor Info: Model `RGB' extended on input line 1364.
Package xcolor Info: Model `HTML' substituted by `rgb' on input line 1366.
Package xcolor Info: Model `Hsb' substituted by `hsb' on input line 1367.
Package xcolor Info: Model `tHsb' substituted by `hsb' on input line 1368.
Package xcolor Info: Model `HSB' substituted by `hsb' on input line 1369.
Package xcolor Info: Model `Gray' substituted by `gray' on input line 1370.
Package xcolor Info: Model `wave' substituted by `hsb' on input line 1371.
))
(/home/malipivo/texlive/2021/texmf-dist/tex/latex/graphics/graphicx.sty
Package: graphicx 2020/12/05 v1.2c Enhanced LaTeX Graphics (DPC,SPQR)

(/home/malipivo/texlive/2021/texmf-dist/tex/latex/graphics/graphics.sty
Package: graphics 2021/03/04 v1.4d Standard LaTeX Graphics (DPC,SPQR)

(/home/malipivo/texlive/2021/texmf-dist/tex/latex/graphics/trig.sty
Package: trig 2016/01/03 v1.10 sin cos tan (DPC)
)
(/home/malipivo/texlive/2021/texmf-dist/tex/latex/graphics-cfg/graphics.cfg
File: graphics.cfg 2016/06/04 v1.11 sample graphics configuration
)
Package graphics Info: Driver file: luatex.def on input line 107.
)
\Gin@req@height=\dimen143
\Gin@req@width=\dimen144
)
\AM@pagewidth=\dimen145
\AM@pageheight=\dimen146
\AM@fboxrule=\dimen147

(/home/malipivo/texlive/2021/texmf-dist/tex/latex/pdfpages/ppluatex.def
File: ppluatex.def 2021/03/06 v0.5t Pdfpages driver for LuaTeX (AM)
)
\pdfpages@includegraphics@status=\count190
\AM@pagebox=\box50
\AM@global@opts=\toks17
\AM@pagecnt=\count191
\AM@toc@title=\toks18
\c@AM@survey=\count192
\AM@templatesizebox=\box51
)
\stran=\count193

(../stran.tex)
\mtemp=\count194

(/home/malipivo/texlive/2021/texmf-dist/tex/latex/l3backend/l3backend-luatex.de
f
File: l3backend-luatex.def 2021-05-07 L3 backend support: PDF output (LuaTeX)
\l__color_backend_stack_int=\count195
\l__pdf_internal_box=\box52
) (./ib-temp-a.aux)
\openout1 = ib-temp-a.aux

LaTeX Font Info:    Checking defaults for OML/cmm/m/it on input line 13.
LaTeX Font Info:    ... okay on input line 13.
LaTeX Font Info:    Checking defaults for OMS/cmsy/m/n on input line 13.
LaTeX Font Info:    ... okay on input line 13.
LaTeX Font Info:    Checking defaults for OT1/cmr/m/n on input line 13.
LaTeX Font Info:    ... okay on input line 13.
LaTeX Font Info:    Checking defaults for T1/cmr/m/n on input line 13.
LaTeX Font Info:    ... okay on input line 13.
LaTeX Font Info:    Checking defaults for TS1/cmr/m/n on input line 13.
LaTeX Font Info:    Trying to load font information for TS1+cmr on input line 1
3.

(/home/malipivo/texlive/2021/texmf-dist/tex/latex/base/ts1cmr.fd
File: ts1cmr.fd 2019/12/16 v2.5j Standard LaTeX font definitions
)
LaTeX Font Info:    ... okay on input line 13.
LaTeX Font Info:    Checking defaults for TU/lmr/m/n on input line 13.
LaTeX Font Info:    ... okay on input line 13.
LaTeX Font Info:    Checking defaults for OMX/cmex/m/n on input line 13.
LaTeX Font Info:    ... okay on input line 13.
LaTeX Font Info:    Checking defaults for U/cmr/m/n on input line 13.
LaTeX Font Info:    ... okay on input line 13.

(/home/malipivo/texlive/2021/texmf-dist/tex/context/base/mkii/supp-pdf.mkii
[Loading MPS to PDF converter (version 2006.09.02).]
\scratchcounter=\count196
\scratchdimen=\dimen148
\scratchbox=\box53
\nofMPsegments=\count197
\nofMParguments=\count198
\everyMPshowfont=\toks19
\MPscratchCnt=\count199
\MPscratchDim=\dimen149
\MPnumerator=\count266
\makeMPintoPDFobject=\count267
\everyMPtoPDFconversion=\toks20
)
(/home/malipivo/texlive/2021/texmf-dist/tex/latex/epstopdf-pkg/epstopdf-base.st
y
Package: epstopdf-base 2020-01-24 v2.11 Base part for package epstopdf
Package epstopdf-base Info: Redefining graphics rule for `.eps' on input line 4
85.

(/home/malipivo/texlive/2021/texmf-dist/tex/latex/latexconfig/epstopdf-sys.cfg
File: epstopdf-sys.cfg 2010/07/13 v1.3 Configuration of (r)epstopdf for TeX Liv
e
)) (/home/malipivo/texlive/2021/texmf-dist/tex/latex/pdflscape/pdflscape.sty
Package: pdflscape 2019/12/05 v0.12 Display of landscape pages in PDF (HO)

(/home/malipivo/texlive/2021/texmf-dist/tex/generic/iftex/iftex.sty
Package: iftex 2020/03/06 v1.0d TeX engine tests
)
(/home/malipivo/texlive/2021/texmf-dist/tex/latex/graphics/lscape.sty
Package: lscape 2020/05/28 v3.02 Landscape Pages (DPC)
)
Package pdflscape Info: Auto-detected driver: pdftex on input line 81.
)
<../obalka/obalka.pdf, id=1, 902.36723pt x 654.44098pt>
File: ../obalka/obalka.pdf Graphic file (type pdf)
<use ../obalka/obalka.pdf>
Package luatex.def Info: ../obalka/obalka.pdf  used on input line 14.
(luatex.def)             Requested size: 902.36504pt x 654.43938pt.
File: ../obalka/obalka.pdf Graphic file (type pdf)
<use ../obalka/obalka.pdf>
Package luatex.def Info: ../obalka/obalka.pdf  used on input line 14.
(luatex.def)             Requested size: 902.36504pt x 654.43938pt.
<../obalka/obalka.pdf, id=4, page=1, 902.36723pt x 654.44098pt>
File: ../obalka/obalka.pdf Graphic file (type pdf)
<use ../obalka/obalka.pdf, page 1>
Package luatex.def Info: ../obalka/obalka.pdf , page1 used on input line 14.
(luatex.def)             Requested size: 422.84273pt x 598.42671pt.
File: ../obalka/obalka.pdf Graphic file (type pdf)
<use ../obalka/obalka.pdf, page 1>
Package luatex.def Info: ../obalka/obalka.pdf , page1 used on input line 14.
(luatex.def)             Requested size: 597.52602pt x 845.64662pt.
File: ../obalka/obalka.pdf Graphic file (type pdf)
<use ../obalka/obalka.pdf, page 1>
Package luatex.def Info: ../obalka/obalka.pdf , page1 used on input line 14.
(luatex.def)             Requested size: 597.52602pt x 845.64662pt.
File: ../obalka/obalka.pdf Graphic file (type pdf)
<use ../obalka/obalka.pdf, page 1>
Package luatex.def Info: ../obalka/obalka.pdf , page1 used on input line 14.
(luatex.def)             Requested size: 597.52602pt x 845.64662pt.
File: ../obalka/obalka.pdf Graphic file (type pdf)
<use ../obalka/obalka.pdf, page 1>
Package luatex.def Info: ../obalka/obalka.pdf , page1 used on input line 14.
(luatex.def)             Requested size: 597.52602pt x 845.64662pt.

[1

<../obalka/obalka.pdf>]
<../mal-core.pdf, id=74, 597.50829pt x 845.04709pt>
File: ../mal-core.pdf Graphic file (type pdf)
<use ../mal-core.pdf>
Package luatex.def Info: ../mal-core.pdf  used on input line 15.
(luatex.def)             Requested size: 597.50682pt x 845.04503pt.
File: ../mal-core.pdf Graphic file (type pdf)
<use ../mal-core.pdf>
Package luatex.def Info: ../mal-core.pdf  used on input line 15.
(luatex.def)             Requested size: 597.50682pt x 845.04503pt.
<../mal-core.pdf, id=77, page=3, 597.50829pt x 845.04709pt>
File: ../mal-core.pdf Graphic file (type pdf)
<use ../mal-core.pdf, page 3>
Package luatex.def Info: ../mal-core.pdf , page3 used on input line 15.
(luatex.def)             Requested size: 407.02063pt x 579.16376pt.
File: ../mal-core.pdf Graphic file (type pdf)
<use ../mal-core.pdf, page 3>
Package luatex.def Info: ../mal-core.pdf , page3 used on input line 15.
(luatex.def)             Requested size: 594.04169pt x 845.2825pt.
File: ../mal-core.pdf Graphic file (type pdf)
<use ../mal-core.pdf, page 3>
Package luatex.def Info: ../mal-core.pdf , page3 used on input line 15.
(luatex.def)             Requested size: 594.04169pt x 845.2825pt.
File: ../mal-core.pdf Graphic file (type pdf)
<use ../mal-core.pdf, page 3>
Package luatex.def Info: ../mal-core.pdf , page3 used on input line 15.
(luatex.def)             Requested size: 594.04169pt x 845.2825pt.
File: ../mal-core.pdf Graphic file (type pdf)
<use ../mal-core.pdf, page 3>
Package luatex.def Info: ../mal-core.pdf , page3 used on input line 15.
(luatex.def)             Requested size: 594.04169pt x 845.2825pt.
 [2<../mal-core.pdf>]
<../mal-core.pdf, id=122, page=4, 597.50829pt x 845.04709pt>
File: ../mal-core.pdf Graphic file (type pdf)
<use ../mal-core.pdf, page 4>
Package luatex.def Info: ../mal-core.pdf , page4 used on input line 15.
(luatex.def)             Requested size: 594.04169pt x 845.2825pt.
File: ../mal-core.pdf Graphic file (type pdf)
<use ../mal-core.pdf, page 4>
Package luatex.def Info: ../mal-core.pdf , page4 used on input line 15.
(luatex.def)             Requested size: 594.04169pt x 845.2825pt.
File: ../mal-core.pdf Graphic file (type pdf)
<use ../mal-core.pdf, page 4>
Package luatex.def Info: ../mal-core.pdf , page4 used on input line 15.
(luatex.def)             Requested size: 594.04169pt x 845.2825pt.
 [3<../mal-core.pdf>]
<../mal-core.pdf, id=175, page=5, 597.50829pt x 845.04709pt>
File: ../mal-core.pdf Graphic file (type pdf)
<use ../mal-core.pdf, page 5>
Package luatex.def Info: ../mal-core.pdf , page5 used on input line 15.
(luatex.def)             Requested size: 594.04169pt x 845.2825pt.
File: ../mal-core.pdf Graphic file (type pdf)
<use ../mal-core.pdf, page 5>
Package luatex.def Info: ../mal-core.pdf , page5 used on input line 15.
(luatex.def)             Requested size: 594.04169pt x 845.2825pt.
File: ../mal-core.pdf Graphic file (type pdf)
<use ../mal-core.pdf, page 5>
Package luatex.def Info: ../mal-core.pdf , page5 used on input line 15.
(luatex.def)             Requested size: 594.04169pt x 845.2825pt.
 [4<../mal-core.pdf>]
<../mal-core.pdf, id=187, page=6, 597.50829pt x 845.04709pt>
File: ../mal-core.pdf Graphic file (type pdf)
<use ../mal-core.pdf, page 6>
Package luatex.def Info: ../mal-core.pdf , page6 used on input line 15.
(luatex.def)             Requested size: 594.04169pt x 845.2825pt.
File: ../mal-core.pdf Graphic file (type pdf)
<use ../mal-core.pdf, page 6>
Package luatex.def Info: ../mal-core.pdf , page6 used on input line 15.
(luatex.def)             Requested size: 594.04169pt x 845.2825pt.
File: ../mal-core.pdf Graphic file (type pdf)
<use ../mal-core.pdf, page 6>
Package luatex.def Info: ../mal-core.pdf , page6 used on input line 15.
(luatex.def)             Requested size: 594.04169pt x 845.2825pt.
 [5<../mal-core.pdf>]
<../mal-core.pdf, id=207, page=7, 597.50829pt x 845.04709pt>
File: ../mal-core.pdf Graphic file (type pdf)
<use ../mal-core.pdf, page 7>
Package luatex.def Info: ../mal-core.pdf , page7 used on input line 15.
(luatex.def)             Requested size: 594.04169pt x 845.2825pt.
File: ../mal-core.pdf Graphic file (type pdf)
<use ../mal-core.pdf, page 7>
Package luatex.def Info: ../mal-core.pdf , page7 used on input line 15.
(luatex.def)             Requested size: 594.04169pt x 845.2825pt.
File: ../mal-core.pdf Graphic file (type pdf)
<use ../mal-core.pdf, page 7>
Package luatex.def Info: ../mal-core.pdf , page7 used on input line 15.
(luatex.def)             Requested size: 594.04169pt x 845.2825pt.
 [6<../mal-core.pdf>]
<../mal-core.pdf, id=215, page=8, 597.50829pt x 845.04709pt>
File: ../mal-core.pdf Graphic file (type pdf)
<use ../mal-core.pdf, page 8>
Package luatex.def Info: ../mal-core.pdf , page8 used on input line 15.
(luatex.def)             Requested size: 594.04169pt x 845.2825pt.
File: ../mal-core.pdf Graphic file (type pdf)
<use ../mal-core.pdf, page 8>
Package luatex.def Info: ../mal-core.pdf , page8 used on input line 15.
(luatex.def)             Requested size: 594.04169pt x 845.2825pt.
File: ../mal-core.pdf Graphic file (type pdf)
<use ../mal-core.pdf, page 8>
Package luatex.def Info: ../mal-core.pdf , page8 used on input line 15.
(luatex.def)             Requested size: 594.04169pt x 845.2825pt.
 [7<../mal-core.pdf>]
<../mal-core.pdf, id=223, page=9, 597.50829pt x 845.04709pt>
File: ../mal-core.pdf Graphic file (type pdf)
<use ../mal-core.pdf, page 9>
Package luatex.def Info: ../mal-core.pdf , page9 used on input line 15.
(luatex.def)             Requested size: 594.04169pt x 845.2825pt.
File: ../mal-core.pdf Graphic file (type pdf)
<use ../mal-core.pdf, page 9>
Package luatex.def Info: ../mal-core.pdf , page9 used on input line 15.
(luatex.def)             Requested size: 594.04169pt x 845.2825pt.
File: ../mal-core.pdf Graphic file (type pdf)
<use ../mal-core.pdf, page 9>
Package luatex.def Info: ../mal-core.pdf , page9 used on input line 15.
(luatex.def)             Requested size: 594.04169pt x 845.2825pt.

[8<../mal-core.pdf>]
<../mal-core.pdf, id=231, page=10, 597.50829pt x 845.04709pt>
File: ../mal-core.pdf Graphic file (type pdf)
<use ../mal-core.pdf, page 10>
Package luatex.def Info: ../mal-core.pdf , page10 used on input line 15.
(luatex.def)             Requested size: 594.04169pt x 845.2825pt.
File: ../mal-core.pdf Graphic file (type pdf)
<use ../mal-core.pdf, page 10>
Package luatex.def Info: ../mal-core.pdf , page10 used on input line 15.
(luatex.def)             Requested size: 594.04169pt x 845.2825pt.
File: ../mal-core.pdf Graphic file (type pdf)
<use ../mal-core.pdf, page 10>
Package luatex.def Info: ../mal-core.pdf , page10 used on input line 15.
(luatex.def)             Requested size: 594.04169pt x 845.2825pt.
 [9<../mal-core.pdf>]
<../mal-core.pdf, id=252, page=11, 597.50829pt x 845.04709pt>
File: ../mal-core.pdf Graphic file (type pdf)
<use ../mal-core.pdf, page 11>
Package luatex.def Info: ../mal-core.pdf , page11 used on input line 15.
(luatex.def)             Requested size: 594.04169pt x 845.2825pt.
File: ../mal-core.pdf Graphic file (type pdf)
<use ../mal-core.pdf, page 11>
Package luatex.def Info: ../mal-core.pdf , page11 used on input line 15.
(luatex.def)             Requested size: 594.04169pt x 845.2825pt.
File: ../mal-core.pdf Graphic file (type pdf)
<use ../mal-core.pdf, page 11>
Package luatex.def Info: ../mal-core.pdf , page11 used on input line 15.
(luatex.def)             Requested size: 594.04169pt x 845.2825pt.
 [10<../mal-core.pdf>]
<../mal-core.pdf, id=265, page=12, 597.50829pt x 845.04709pt>
File: ../mal-core.pdf Graphic file (type pdf)
<use ../mal-core.pdf, page 12>
Package luatex.def Info: ../mal-core.pdf , page12 used on input line 15.
(luatex.def)             Requested size: 594.04169pt x 845.2825pt.
File: ../mal-core.pdf Graphic file (type pdf)
<use ../mal-core.pdf, page 12>
Package luatex.def Info: ../mal-core.pdf , page12 used on input line 15.
(luatex.def)             Requested size: 594.04169pt x 845.2825pt.
File: ../mal-core.pdf Graphic file (type pdf)
<use ../mal-core.pdf, page 12>
Package luatex.def Info: ../mal-core.pdf , page12 used on input line 15.
(luatex.def)             Requested size: 594.04169pt x 845.2825pt.
 [11<../mal-core.pdf>]
<../mal-core.pdf, id=274, page=13, 597.50829pt x 845.04709pt>
File: ../mal-core.pdf Graphic file (type pdf)
<use ../mal-core.pdf, page 13>
Package luatex.def Info: ../mal-core.pdf , page13 used on input line 15.
(luatex.def)             Requested size: 594.04169pt x 845.2825pt.
File: ../mal-core.pdf Graphic file (type pdf)
<use ../mal-core.pdf, page 13>
Package luatex.def Info: ../mal-core.pdf , page13 used on input line 15.
(luatex.def)             Requested size: 594.04169pt x 845.2825pt.
File: ../mal-core.pdf Graphic file (type pdf)
<use ../mal-core.pdf, page 13>
Package luatex.def Info: ../mal-core.pdf , page13 used on input line 15.
(luatex.def)             Requested size: 594.04169pt x 845.2825pt.
 [12<../mal-core.pdf>]
<../mal-core.pdf, id=282, page=14, 597.50829pt x 845.04709pt>
File: ../mal-core.pdf Graphic file (type pdf)
<use ../mal-core.pdf, page 14>
Package luatex.def Info: ../mal-core.pdf , page14 used on input line 15.
(luatex.def)             Requested size: 594.04169pt x 845.2825pt.
File: ../mal-core.pdf Graphic file (type pdf)
<use ../mal-core.pdf, page 14>
Package luatex.def Info: ../mal-core.pdf , page14 used on input line 15.
(luatex.def)             Requested size: 594.04169pt x 845.2825pt.
File: ../mal-core.pdf Graphic file (type pdf)
<use ../mal-core.pdf, page 14>
Package luatex.def Info: ../mal-core.pdf , page14 used on input line 15.
(luatex.def)             Requested size: 594.04169pt x 845.2825pt.
 [13<../mal-core.pdf>]
<../mal-core.pdf, id=294, page=15, 597.50829pt x 845.04709pt>
File: ../mal-core.pdf Graphic file (type pdf)
<use ../mal-core.pdf, page 15>
Package luatex.def Info: ../mal-core.pdf , page15 used on input line 15.
(luatex.def)             Requested size: 594.04169pt x 845.2825pt.
File: ../mal-core.pdf Graphic file (type pdf)
<use ../mal-core.pdf, page 15>
Package luatex.def Info: ../mal-core.pdf , page15 used on input line 15.
(luatex.def)             Requested size: 594.04169pt x 845.2825pt.
File: ../mal-core.pdf Graphic file (type pdf)
<use ../mal-core.pdf, page 15>
Package luatex.def Info: ../mal-core.pdf , page15 used on input line 15.
(luatex.def)             Requested size: 594.04169pt x 845.2825pt.
 [14<../mal-core.pdf>]
<../mal-core.pdf, id=302, page=16, 597.50829pt x 845.04709pt>
File: ../mal-core.pdf Graphic file (type pdf)
<use ../mal-core.pdf, page 16>
Package luatex.def Info: ../mal-core.pdf , page16 used on input line 15.
(luatex.def)             Requested size: 594.04169pt x 845.2825pt.
File: ../mal-core.pdf Graphic file (type pdf)
<use ../mal-core.pdf, page 16>
Package luatex.def Info: ../mal-core.pdf , page16 used on input line 15.
(luatex.def)             Requested size: 594.04169pt x 845.2825pt.
File: ../mal-core.pdf Graphic file (type pdf)
<use ../mal-core.pdf, page 16>
Package luatex.def Info: ../mal-core.pdf , page16 used on input line 15.
(luatex.def)             Requested size: 594.04169pt x 845.2825pt.

[15<../mal-core.pdf>]
<../mal-core.pdf, id=315, page=17, 597.50829pt x 845.04709pt>
File: ../mal-core.pdf Graphic file (type pdf)
<use ../mal-core.pdf, page 17>
Package luatex.def Info: ../mal-core.pdf , page17 used on input line 15.
(luatex.def)             Requested size: 594.04169pt x 845.2825pt.
File: ../mal-core.pdf Graphic file (type pdf)
<use ../mal-core.pdf, page 17>
Package luatex.def Info: ../mal-core.pdf , page17 used on input line 15.
(luatex.def)             Requested size: 594.04169pt x 845.2825pt.
File: ../mal-core.pdf Graphic file (type pdf)
<use ../mal-core.pdf, page 17>
Package luatex.def Info: ../mal-core.pdf , page17 used on input line 15.
(luatex.def)             Requested size: 594.04169pt x 845.2825pt.
 [16<../mal-core.pdf>]
<../mal-core.pdf, id=323, page=18, 597.50829pt x 845.04709pt>
File: ../mal-core.pdf Graphic file (type pdf)
<use ../mal-core.pdf, page 18>
Package luatex.def Info: ../mal-core.pdf , page18 used on input line 15.
(luatex.def)             Requested size: 594.04169pt x 845.2825pt.
File: ../mal-core.pdf Graphic file (type pdf)
<use ../mal-core.pdf, page 18>
Package luatex.def Info: ../mal-core.pdf , page18 used on input line 15.
(luatex.def)             Requested size: 594.04169pt x 845.2825pt.
File: ../mal-core.pdf Graphic file (type pdf)
<use ../mal-core.pdf, page 18>
Package luatex.def Info: ../mal-core.pdf , page18 used on input line 15.
(luatex.def)             Requested size: 594.04169pt x 845.2825pt.
 [17<../mal-core.pdf>]
<../mal-core.pdf, id=335, page=19, 597.50829pt x 845.04709pt>
File: ../mal-core.pdf Graphic file (type pdf)
<use ../mal-core.pdf, page 19>
Package luatex.def Info: ../mal-core.pdf , page19 used on input line 15.
(luatex.def)             Requested size: 594.04169pt x 845.2825pt.
File: ../mal-core.pdf Graphic file (type pdf)
<use ../mal-core.pdf, page 19>
Package luatex.def Info: ../mal-core.pdf , page19 used on input line 15.
(luatex.def)             Requested size: 594.04169pt x 845.2825pt.
File: ../mal-core.pdf Graphic file (type pdf)
<use ../mal-core.pdf, page 19>
Package luatex.def Info: ../mal-core.pdf , page19 used on input line 15.
(luatex.def)             Requested size: 594.04169pt x 845.2825pt.
 [18<../mal-core.pdf>]
<../mal-core.pdf, id=343, page=20, 597.50829pt x 845.04709pt>
File: ../mal-core.pdf Graphic file (type pdf)
<use ../mal-core.pdf, page 20>
Package luatex.def Info: ../mal-core.pdf , page20 used on input line 15.
(luatex.def)             Requested size: 594.04169pt x 845.2825pt.
File: ../mal-core.pdf Graphic file (type pdf)
<use ../mal-core.pdf, page 20>
Package luatex.def Info: ../mal-core.pdf , page20 used on input line 15.
(luatex.def)             Requested size: 594.04169pt x 845.2825pt.
File: ../mal-core.pdf Graphic file (type pdf)
<use ../mal-core.pdf, page 20>
Package luatex.def Info: ../mal-core.pdf , page20 used on input line 15.
(luatex.def)             Requested size: 594.04169pt x 845.2825pt.
 [19<../mal-core.pdf>]
<../mal-core.pdf, id=351, page=21, 597.50829pt x 845.04709pt>
File: ../mal-core.pdf Graphic file (type pdf)
<use ../mal-core.pdf, page 21>
Package luatex.def Info: ../mal-core.pdf , page21 used on input line 15.
(luatex.def)             Requested size: 594.04169pt x 845.2825pt.
File: ../mal-core.pdf Graphic file (type pdf)
<use ../mal-core.pdf, page 21>
Package luatex.def Info: ../mal-core.pdf , page21 used on input line 15.
(luatex.def)             Requested size: 594.04169pt x 845.2825pt.
File: ../mal-core.pdf Graphic file (type pdf)
<use ../mal-core.pdf, page 21>
Package luatex.def Info: ../mal-core.pdf , page21 used on input line 15.
(luatex.def)             Requested size: 594.04169pt x 845.2825pt.
 [20<../mal-core.pdf>]
<../mal-core.pdf, id=361, page=22, 597.50829pt x 845.04709pt>
File: ../mal-core.pdf Graphic file (type pdf)
<use ../mal-core.pdf, page 22>
Package luatex.def Info: ../mal-core.pdf , page22 used on input line 15.
(luatex.def)             Requested size: 594.04169pt x 845.2825pt.
File: ../mal-core.pdf Graphic file (type pdf)
<use ../mal-core.pdf, page 22>
Package luatex.def Info: ../mal-core.pdf , page22 used on input line 15.
(luatex.def)             Requested size: 594.04169pt x 845.2825pt.
File: ../mal-core.pdf Graphic file (type pdf)
<use ../mal-core.pdf, page 22>
Package luatex.def Info: ../mal-core.pdf , page22 used on input line 15.
(luatex.def)             Requested size: 594.04169pt x 845.2825pt.
 [21<../mal-core.pdf>]
File: ../obalka/obalka.pdf Graphic file (type pdf)
<use ../obalka/obalka.pdf>
Package luatex.def Info: ../obalka/obalka.pdf  used on input line 16.
(luatex.def)             Requested size: 902.36504pt x 654.43938pt.
File: ../obalka/obalka.pdf Graphic file (type pdf)
<use ../obalka/obalka.pdf>
Package luatex.def Info: ../obalka/obalka.pdf  used on input line 16.
(luatex.def)             Requested size: 902.36504pt x 654.43938pt.
File: ../obalka/obalka.pdf Graphic file (type pdf)
<use ../obalka/obalka.pdf, page 1>
Package luatex.def Info: ../obalka/obalka.pdf , page1 used on input line 16.
(luatex.def)             Requested size: 422.45729pt x 598.42671pt.
File: ../obalka/obalka.pdf Graphic file (type pdf)
<use ../obalka/obalka.pdf, page 1>
Package luatex.def Info: ../obalka/obalka.pdf , page1 used on input line 16.
(luatex.def)             Requested size: 596.98134pt x 845.64662pt.
File: ../obalka/obalka.pdf Graphic file (type pdf)
<use ../obalka/obalka.pdf, page 1>
Package luatex.def Info: ../obalka/obalka.pdf , page1 used on input line 16.
(luatex.def)             Requested size: 596.98134pt x 845.64662pt.
File: ../obalka/obalka.pdf Graphic file (type pdf)
<use ../obalka/obalka.pdf, page 1>
Package luatex.def Info: ../obalka/obalka.pdf , page1 used on input line 16.
(luatex.def)             Requested size: 596.98134pt x 845.64662pt.
File: ../obalka/obalka.pdf Graphic file (type pdf)
<use ../obalka/obalka.pdf, page 1>
Package luatex.def Info: ../obalka/obalka.pdf , page1 used on input line 16.
(luatex.def)             Requested size: 596.98134pt x 845.64662pt.

[22] (./ib-temp-a.aux))

Here is how much of LuaTeX's memory you used:
 3264 strings out of 478087
 100000,383344 words of node,token memory allocated
 2311 words of node memory still in use:
   103 hlist, 1 vlist, 51 rule, 52 glue, 3 kern, 1 glyph, 54 attribute, 49 glue_
spec, 54 attribute_list, 1 write nodes
   avail lists: 2:84,3:13,4:10,5:43,6:5,7:45,9:99
 23090 multiletter control sequences out of 65536+600000
 23 fonts using 2647927 bytes
 72i,18n,76p,218b,488s stack positions out of 5000i,500n,10000p,200000b,80000s
Output written on ib-temp-a.pdf (22 pages, 1513277 bytes).

PDF statistics: 388 PDF objects out of 1000 (max. 8388607)
 208 compressed objects within 3 object streams
 0 named destinations out of 1000 (max. 131072)
 721 words of extra memory for PDF output out of 10000 (max. 100000000)

