\relax 
\providecommand\hyper@newdestlabel[2]{}
\providecommand\babel@aux[2]{}
\@nameuse{bbl@beforestart}
\catcode `"\active 
\catcode `-\active 
\catcode `^\active 
\catcode `'\active 
\providecommand\HyperFirstAtBeginDocument{\AtBeginDocument}
\HyperFirstAtBeginDocument{\ifx\hyper@anchor\@undefined
\global\let\oldcontentsline\contentsline
\gdef\contentsline#1#2#3#4{\oldcontentsline{#1}{#2}{#3}}
\global\let\oldnewlabel\newlabel
\gdef\newlabel#1#2{\newlabelxx{#1}#2}
\gdef\newlabelxx#1#2#3#4#5#6{\oldnewlabel{#1}{{#2}{#3}}}
\AtEndDocument{\ifx\hyper@anchor\@undefined
\let\contentsline\oldcontentsline
\let\newlabel\oldnewlabel
\fi}
\fi}
\global\let\hyper@last\relax 
\gdef\HyperFirstAtBeginDocument#1{#1}
\providecommand\HyField@AuxAddToFields[1]{}
\providecommand\HyField@AuxAddToCoFields[2]{}
\babel@aux{czech}{}
\babel@aux{english}{}
\babel@aux{slovak}{}
\babel@aux{czech}{}
\pgfsyspdfmark {pgfid4}{5719326}{47216927}
\pgfsyspdfmark {pgfid5}{5719326}{47216927}
\newlabel{zprava/zprava}{{}{3}{}{section*.1}{}}
\babel@aux{czech}{}
\@writefile{toc}{\contentsline {part}{Ond\v rej Venc\'alek: Zpr\'ava o~\v cinnosti \v CStS v~roce 2021}{3}{section*.2}\protected@file@percent }
\babel@aux{czech}{}
\newlabel{pulpan/pulpan}{{}{5}{}{section*.12}{}}
\babel@aux{czech}{}
\@writefile{toc}{\contentsline {part}{Zden\v ek P\r ulp\'an: Informace a~neur\v citosti v~expertn\IeC {\'\i }ch odhadech}{5}{section*.13}\protected@file@percent }
\babel@aux{czech}{}
\babel@aux{czech}{}
\babel@aux{czech}{}
\babel@aux{czech}{}
\babel@aux{english}{}
\babel@aux{czech}{}
\babel@aux{english}{}
\babel@aux{czech}{}
\@writefile{toc}{\contentsline {section}{\numberline {1}\'Uvod}{5}{section.14}\protected@file@percent }
\citation{3}
\@writefile{toc}{\contentsline {section}{\numberline {2}R\r uzn\'e m\IeC {\'\i }ry neur\v citosti a~odpov\IeC {\'\i }daj\IeC {\'\i }c\IeC {\'\i } informace}{6}{section.15}\protected@file@percent }
\@writefile{brf}{\backcite{3}{{6}{2}{section.15}}}
\citation{2}
\citation{3}
\@writefile{brf}{\backcite{2}{{7}{2}{AMS.21}}}
\@writefile{brf}{\backcite{3}{{7}{2}{AMS.26}}}
\@writefile{lof}{\contentsline {figure}{\numberline {1}{\ignorespaces Z\'avislost neur\v citosti $H(p)$ podle (1b) (graf m\'a neline\'arn\IeC {\'\i } pr\r ub\v eh, pln\'a linka) a~$H(p)$ podle (4) (graf neur\v citosti je po \v c\'astech line\'arn\IeC {\'\i } v~z\'avislosti na pravd\v epodobnosti $p$, p\v reru\v sovan\'a linka).\relax }}{8}{figure.caption.24}\protected@file@percent }
\@writefile{toc}{\contentsline {section}{\numberline {3}P\v r\IeC {\'\i }klad}{8}{section.27}\protected@file@percent }
\citation{5}
\citation{8}
\citation{6}
\citation{11}
\@writefile{lof}{\contentsline {figure}{\numberline {2}{\ignorespaces Neur\v citost $h(p_i)$, definovan\'a vztahem (5) pro $n=2$.\relax }}{10}{figure.caption.38}\protected@file@percent }
\citation{2}
\citation{7}
\@writefile{brf}{\backcite{5,8}{{11}{3}{figure.caption.38}}}
\@writefile{brf}{\backcite{6,11}{{11}{3}{figure.caption.38}}}
\@writefile{brf}{\backcite{2}{{11}{3}{AMS.42}}}
\@writefile{brf}{\backcite{7}{{11}{3}{AMS.42}}}
\citation{10}
\@writefile{lof}{\contentsline {figure}{\numberline {3}{\ignorespaces Graf s\'emantick\'e informace polo\v zky, odvozen\'y z~(3) dosazen\IeC {\'\i }m za $p$ z~prav\'e strany vztahu (9) pro $x = 2$ v~z\'avislosti na parametrech $a, b$.\relax }}{12}{figure.caption.43}\protected@file@percent }
\@writefile{toc}{\contentsline {section}{\numberline {4}Neur\v citost modelovan\'a fuzzy mno\v zinami a~intuicionistick\'ymi fuzzy mno\v zinami}{12}{section.47}\protected@file@percent }
\@writefile{brf}{\backcite{10}{{12}{4}{section.47}}}
\citation{10}
\@writefile{lof}{\contentsline {figure}{\numberline {4}{\ignorespaces Dvourozm\v ern\'y graf s\'emantick\'e informace dotazn\IeC {\'\i }kov\'e polo\v zky ze vztahu (3) po dosazen\IeC {\'\i } za $p$ z~prav\'e strany v\'yrazu (9) p\v ri hodnot\v e parametru $b = 0$ a~v~z\'avislosti na \'urovni respondenta $x$ p\v ri r\r uzn\'ych hodnot\'ach parametru~$a$: pln\'a linka je pro parametr $a=1$, p\v reru\v sovan\'a linka je pro parametr $a=0{,}75$ a~te\v ckovan\'a linka je pro parametr $a=0{,}5$.\relax }}{13}{figure.caption.44}\protected@file@percent }
\@writefile{brf}{\backcite{10}{{13}{4}{section.47}}}
\citation{2}
\citation{2}
\citation{2}
\citation{4}
\@writefile{brf}{\backcite{2}{{14}{4}{AMS.51}}}
\@writefile{brf}{\backcite{2}{{14}{4}{AMS.55}}}
\@writefile{brf}{\backcite{2,4}{{14}{4}{AMS.55}}}
\citation{2}
\citation{2}
\citation{2}
\@writefile{brf}{\backcite{2}{{15}{4}{AMS.59}}}
\@writefile{brf}{\backcite{2}{{15}{4}{AMS.61}}}
\@writefile{brf}{\backcite{2}{{15}{4}{AMS.61}}}
\citation{1}
\@writefile{brf}{\backcite{1}{{16}{4}{AMS.63}}}
\citation{9}
\bibcite{1}{1}
\bibcite{2}{2}
\bibcite{3}{3}
\bibcite{4}{4}
\bibcite{5}{5}
\@writefile{toc}{\contentsline {section}{\numberline {5}Z\'av\v er}{18}{section.83}\protected@file@percent }
\@writefile{brf}{\backcite{9}{{18}{5}{section.83}}}
\bibcite{6}{6}
\bibcite{7}{7}
\bibcite{8}{8}
\bibcite{9}{9}
\bibcite{10}{10}
\bibcite{11}{11}
\babel@aux{czech}{}
\newlabel{vencalek/vencalek}{{}{20}{}{section*.85}{}}
\babel@aux{czech}{}
\@writefile{toc}{\contentsline {part}{Ond\v rej Venc\'alek: Kni\v zn\IeC {\'\i } recenze: \v Sum}{20}{section*.86}\protected@file@percent }
\babel@aux{czech}{}
\newlabel{boruvka/boruvka}{{}{22}{}{section*.88}{}}
\babel@aux{czech}{}
\@writefile{toc}{\contentsline {part}{Redakce \v casopisu: Slavnostn\IeC {\'\i } semin\'a\v r}{22}{section*.89}\protected@file@percent }
\babel@aux{czech}{}
\gdef \@abspage@last{22}
