\relax 
\providecommand\hyper@newdestlabel[2]{}
\providecommand\babel@aux[2]{}
\@nameuse{bbl@beforestart}
\catcode `"\active 
\catcode `-\active 
\catcode `^\active 
\catcode `'\active 
\providecommand\HyperFirstAtBeginDocument{\AtBeginDocument}
\HyperFirstAtBeginDocument{\ifx\hyper@anchor\@undefined
\global\let\oldcontentsline\contentsline
\gdef\contentsline#1#2#3#4{\oldcontentsline{#1}{#2}{#3}}
\global\let\oldnewlabel\newlabel
\gdef\newlabel#1#2{\newlabelxx{#1}#2}
\gdef\newlabelxx#1#2#3#4#5#6{\oldnewlabel{#1}{{#2}{#3}}}
\AtEndDocument{\ifx\hyper@anchor\@undefined
\let\contentsline\oldcontentsline
\let\newlabel\oldnewlabel
\fi}
\fi}
\global\let\hyper@last\relax 
\gdef\HyperFirstAtBeginDocument#1{#1}
\providecommand\HyField@AuxAddToFields[1]{}
\providecommand\HyField@AuxAddToCoFields[2]{}
\providecommand \oddpage@label [2]{}
\babel@aux{czech}{}
\babel@aux{english}{}
\babel@aux{slovak}{}
\babel@aux{czech}{}
\pgfsyspdfmark {pgfid3}{5719326}{47216927}
\pgfsyspdfmark {pgfid4}{5719326}{47216927}
\newlabel{dvorak/dvorak}{{}{3}{}{section*.1}{}}
\babel@aux{czech}{}
\@writefile{toc}{\contentsline {part}{Martina Petr\'akov\'a, Ji\v r\IeC {\'\i } Dvo\v r\'ak: Vyu\v zit\IeC {\'\i } $\chi ^2$ test\r u v~prostorov\'e statistice}{3}{section*.2}\protected@file@percent }
\babel@aux{czech}{}
\babel@aux{czech}{}
\babel@aux{czech}{}
\babel@aux{czech}{}
\babel@aux{english}{}
\babel@aux{czech}{}
\babel@aux{english}{}
\babel@aux{czech}{}
\@writefile{toc}{\contentsline {section}{\numberline {1.}\'Uvod}{3}{section.3}\protected@file@percent }
\newlabel{sec01}{{1.}{3}{Úvod}{section.3}{}}
\@writefile{toc}{\contentsline {section}{\numberline {2.}Bodov\'e procesy}{4}{section.4}\protected@file@percent }
\@writefile{toc}{\contentsline {subsection}{\numberline {2.1.}Binomick\'y bodov\'y proces}{5}{subsection.6}\protected@file@percent }
\@writefile{lof}{\contentsline {figure}{\numberline {1}{\ignorespaces Uk\'azka realizace homogenn\IeC {\'\i }ho (vlevo) a~nehomogenn\IeC {\'\i }ho bodov\'eho procesu v~$\mathbb  {R}^2$ (vpravo) v~pozorovac\IeC {\'\i }m okn\v e $W=[0,1]^2$. Vlevo vid\IeC {\'\i }me realizaci Poissonova procesu (viz \v c\'ast \ref  {defpoisson}) s~intenzitou $\lambda =100$, vpravo pak realizaci Poissonova procesu s~funkc\IeC {\'\i } intenzity $\lambda (x,y)=500\cdot |x-y|$.\relax }}{6}{figure.caption.5}\protected@file@percent }
\providecommand*\caption@xref[2]{\@setref\relax\@undefined{#1}}
\newlabel{obrfunkceint}{{1}{6}{Ukázka realizace homogenního (vlevo) a~nehomogenního bodového procesu v~$\mathbb {R}^2$ (vpravo) v~pozorovacím okně $W=[0,1]^2$. Vlevo vidíme realizaci Poissonova procesu (viz část \ref {defpoisson}) s~intenzitou $\lambda =100$, vpravo pak realizaci Poissonova procesu s~funkcí intenzity $\lambda (x,y)=500\cdot |x-y|$.\relax }{figure.caption.5}{}}
\@writefile{toc}{\contentsline {subsection}{\numberline {2.2.}Poisson\r uv bodov\'y proces}{6}{subsection.7}\protected@file@percent }
\newlabel{defpoisson}{{2.2.}{6}{Poissonův bodový proces}{subsection.7}{}}
\citation{Petrakova2020}
\@writefile{lof}{\contentsline {figure}{\numberline {2}{\ignorespaces Uk\'azka realizace binomick\'eho (vlevo) a~Poissonova bodov\'eho procesu (vpravo) v~okn\v e $W=[0,1]^2$ s~intenzitou $\lambda =100$.\relax }}{7}{figure.caption.8}\protected@file@percent }
\newlabel{obrbinxpoisson}{{2}{7}{Ukázka realizace binomického (vlevo) a~Poissonova bodového procesu (vpravo) v~okně $W=[0,1]^2$ s~intenzitou $\lambda =100$.\relax }{figure.caption.8}{}}
\newlabel{vetapodminenerozd\v eleni}{{1}{7}{}{veta.9}{}}
\@writefile{brf}{\backcite{Petrakova2020}{{7}{2.2.}{veta.9}}}
\@writefile{toc}{\contentsline {section}{\numberline {3.}Testy $\chi ^2$ pro bodov\'e procesy}{7}{section.11}\protected@file@percent }
\citation{Spatstat2015}
\citation{Andel2007}
\@writefile{lof}{\contentsline {figure}{\numberline {3}{\ignorespaces Uk\'azka realizace homogenn\IeC {\'\i }ho Poissonova procesu v~okn\v e $W=[0,1]^2$ s~intenzitou $\lambda =100$ (vlevo) a~realizace homogenn\IeC {\'\i }ho bodov\'eho procesu ve stejn\'em okn\v e se stejnou intenzitou, ale s~p\v rita\v zliv\'ymi interakcemi mezi body (vpravo).\relax }}{8}{figure.caption.10}\protected@file@percent }
\newlabel{obrpoissxthomas}{{3}{8}{Ukázka realizace homogenního Poissonova procesu v~okně $W=[0,1]^2$ s~intenzitou $\lambda =100$ (vlevo) a~realizace homogenního bodového procesu ve stejném okně se stejnou intenzitou, ale s~přitažlivými interakcemi mezi body (vpravo).\relax }{figure.caption.10}{}}
\@writefile{toc}{\contentsline {subsection}{\numberline {3.1.}Test Poissonova rozd\v elen\IeC {\'\i } homogenn\IeC {\'\i }ho procesu}{8}{subsection.12}\protected@file@percent }
\newlabel{sekcepoissonovskost}{{3.1.}{8}{Test Poissonova rozdělení homogenního procesu}{subsection.12}{}}
\@writefile{brf}{\backcite{Spatstat2015}{{8}{3.1.}{subsection.12}}}
\@writefile{brf}{\backcite{Andel2007}{{8}{3.1.}{subsection.12}}}
\citation{Spatstat2015}
\@writefile{toc}{\contentsline {subsection}{\numberline {3.2.}Homogenita Poissonova procesu}{9}{subsection.13}\protected@file@percent }
\newlabel{sekcehomogenita}{{3.2.}{9}{Homogenita Poissonova procesu}{subsection.13}{}}
\@writefile{brf}{\backcite{Spatstat2015}{{9}{3.2.}{subsection.13}}}
\@writefile{toc}{\contentsline {subsection}{\numberline {3.3.}Z\'avislost Poissonova procesu na dan\'e kovari\'at\v e}{10}{subsection.15}\protected@file@percent }
\newlabel{sekcekovariata}{{3.3.}{10}{Závislost Poissonova procesu na dané kovariátě}{subsection.15}{}}
\@writefile{lof}{\contentsline {figure}{\numberline {4}{\ignorespaces \v Sv\'edsk\'y dataset. Lev\'y panel: poloha 71 semen\'a\v ck\r u borovic v~obd\'eln\IeC {\'\i }kov\'em okn\v e o~rozm\v erech $9{,}6\,\times \,10$ metr\r u. Prav\'y panel: rozd\v elen\IeC {\'\i } pozorovac\IeC {\'\i }ho okna na 9 disjunktn\IeC {\'\i }ch podmno\v zin se stejn\'ym tvarem a~velikost\IeC {\'\i }, \v c\IeC {\'\i }sla ud\'avaj\IeC {\'\i } pozorovan\'y po\v cet bod\r u v~jednotliv\'ych mno\v zin\'ach.\relax }}{11}{figure.caption.14}\protected@file@percent }
\newlabel{fig:swedishpines}{{4}{11}{Švédský dataset. Levý panel: poloha 71 semenáčků borovic v~obdélníkovém okně o~rozměrech $9{,}6\,\times \,10$ metrů. Pravý panel: rozdělení pozorovacího okna na 9 disjunktních podmnožin se stejným tvarem a~velikostí, čísla udávají pozorovaný počet bodů v~jednotlivých množinách.\relax }{figure.caption.14}{}}
\@writefile{lof}{\contentsline {figure}{\numberline {5}{\ignorespaces Barro Colorado Island dataset. Lev\'y panel: poloha v\v sech $3\,604$ strom\r u druhu \emph  {Beilschmiedia pendula} v~obd\'eln\IeC {\'\i }kov\'em okn\v e o~rozm\v erech $500\,\times \,1000$ metr\r u. Prost\v redn\IeC {\'\i } panel: nadmo\v rsk\'a v\'y\v ska, sv\v etl\'e odst\IeC {\'\i }ny zna\v c\IeC {\'\i } vysok\'e hodnoty, tmav\'e odst\IeC {\'\i }ny zna\v c\IeC {\'\i } n\IeC {\'\i }zk\'e hodnoty. Prav\'y panel: rozd\v elen\IeC {\'\i } pozorovac\IeC {\'\i }ho okna na \v cty\v ri podmno\v ziny podle hodnot kovari\'aty (nadmo\v rsk\'e v\'y\v sky).\relax }}{12}{figure.caption.16}\protected@file@percent }
\newlabel{fig:kovariata}{{5}{12}{Barro Colorado Island dataset. Levý panel: poloha všech $3\,604$ stromů druhu \emph {Beilschmiedia pendula} v~obdélníkovém okně o~rozměrech $500\,\times \,1000$ metrů. Prostřední panel: nadmořská výška, světlé odstíny značí vysoké hodnoty, tmavé odstíny značí nízké hodnoty. Pravý panel: rozdělení pozorovacího okna na čtyři podmnožiny podle hodnot kovariáty (nadmořské výšky).\relax }{figure.caption.16}{}}
\citation{Petrakova2020}
\@writefile{toc}{\contentsline {subsection}{\numberline {3.4.}Test dobr\'e shody Poissonova procesu}{13}{subsection.17}\protected@file@percent }
\newlabel{sekcetestdobreshody}{{3.4.}{13}{Test dobré shody Poissonova procesu}{subsection.17}{}}
\@writefile{brf}{\backcite{Petrakova2020}{{13}{3.4.}{subsection.17}}}
\citation{Andel2007}
\citation{Petrakova2020}
\citation{Andel2007}
\citation{Spatstat2015}
\@writefile{brf}{\backcite{Andel2007}{{14}{3.4.}{subsection.17}}}
\@writefile{brf}{\backcite{Petrakova2020}{{14}{3.4.}{subsection.17}}}
\@writefile{brf}{\backcite{Andel2007}{{14}{3.4.}{subsection.17}}}
\@writefile{brf}{\backcite{Spatstat2015}{{14}{3.4.}{subsection.17}}}
\@writefile{toc}{\contentsline {subsection}{\numberline {3.5.}Separabilita funkce intenzity Poissonova procesu}{14}{subsection.18}\protected@file@percent }
\newlabel{sekceseparabilita}{{3.5.}{14}{Separabilita funkce intenzity Poissonova procesu}{subsection.18}{}}
\citation{Separability2020}
\citation{Andel2007}
\newlabel{fceint}{{1}{15}{Separabilita funkce intenzity Poissonova procesu}{equation.19}{}}
\@writefile{brf}{\backcite{Separability2020}{{15}{3.5.}{equation.19}}}
\newlabel{sephustota}{{2}{15}{Separabilita funkce intenzity Poissonova procesu}{equation.20}{}}
\@writefile{brf}{\backcite{Andel2007}{{15}{3.5.}{equation.20}}}
\citation{Separability2020}
\bibcite{Andel2007}{1}
\bibcite{Spatstat2015}{2}
\bibcite{Separability2020}{3}
\bibcite{Petrakova2020}{4}
\@writefile{brf}{\backcite{Separability2020}{{16}{3.5.}{equation.20}}}
\@writefile{toc}{\contentsline {section}{\numberline {4.}Z\'av\v er}{16}{section.21}\protected@file@percent }
\babel@aux{czech}{}
\newlabel{rezankova/rezankova}{{}{17}{}{section*.24}{}}
\babel@aux{czech}{}
\@writefile{toc}{\contentsline {part}{Hana \v Rezankov\'a: Informa\v cn\IeC {\'\i } bulletin \v Cesk\'e statistick\'e spole\v cnosti -- 30. v\'yro\v c\IeC {\'\i } vyd\'av\'an\IeC {\'\i } \v casopisu}{17}{section*.25}\protected@file@percent }
\@writefile{toc}{\contentsline {section}{\numberline {1.}Listov\'an\IeC {\'\i } aneb o~\v cem se psalo v~Informa\v cn\IeC {\'\i }m bulletinu}{18}{section.26}\protected@file@percent }
\@writefile{toc}{\contentsline {section}{\numberline {2.}T\kern -.1667em\lower .5ex\hbox {E}\kern -.125emXnick\'a str\'anka v\v eci}{19}{section.27}\protected@file@percent }
\@writefile{toc}{\contentsline {section}{\numberline {3.}Lid\'e kolem Informa\v cn\IeC {\'\i }ho bulletinu}{20}{section.28}\protected@file@percent }
\babel@aux{czech}{}
\newlabel{tvrdik/tvrdik}{{}{22}{}{section*.29}{}}
\babel@aux{czech}{}
\@writefile{toc}{\contentsline {part}{V\'ybor spole\v cnosti: Vzpom\IeC {\'\i }n\'ame na Josefa Tvrd\IeC {\'\i }ka}{22}{section*.30}\protected@file@percent }
\babel@aux{czech}{}
\newlabel{klaschka/klaschka}{{}{23}{}{section*.31}{}}
\babel@aux{czech}{}
\@writefile{toc}{\contentsline {part}{Jan Klaschka: Vzpom\IeC {\'\i }nky na Pepu Tvrd\IeC {\'\i }ka}{23}{section*.32}\protected@file@percent }
\babel@aux{czech}{}
\newlabel{bujok/bujok}{{}{26}{}{section*.34}{}}
\babel@aux{czech}{}
\@writefile{toc}{\contentsline {part}{Petr Bujok: Vzpom\IeC {\'\i }nka na doc. Josefa Tvrd\IeC {\'\i }ka}{26}{section*.35}\protected@file@percent }
\babel@aux{czech}{}
\newlabel{galeta/galeta}{{}{28}{}{section*.36}{}}
\babel@aux{czech}{}
\@writefile{toc}{\contentsline {part}{Patrik Galeta: \v Zivot podle Josefa Tvrd\IeC {\'\i }ka}{28}{section*.37}\protected@file@percent }
\newlabel{galeta}{{}{28}{}{section*.37}{}}
\babel@aux{czech}{}
\newlabel{csu-plakat/csu-plakat}{{}{29}{}{section*.38}{}}
\babel@aux{czech}{}
\@writefile{toc}{\contentsline {part}{Michal Novotn\'y, Jakub Fischer: Mezin\'arodn\IeC {\'\i } sout\v e\v z o nejlep\v s\IeC {\'\i } statistick\'y plak\'at}{29}{section*.39}\protected@file@percent }
\babel@aux{czech}{}
\gdef \@abspage@last{30}
