\relax 
\providecommand\zref@newlabel[2]{}
\providecommand\pbs@newkey[2]{}
\providecommand\pbs@seq@push@cx[2]{}
\providecommand\pbs@at@end@dvi@check{}
\pbs@at@end@dvi@check
\providecommand\@anim@newkey[2]{}
\@anim@newkey{a0.poster}{36}
\pbs@newkey{pbs@last@page}{1}
\zref@newlabel{anim@abspage0}{\abspage{1}}
