\relax 
\providecommand\babel@aux[2]{}
\@nameuse{bbl@beforestart}
\catcode `^\active 
\catcode `"\active 
\catcode `'\active 
\catcode `-\active 
\providecommand\hyper@newdestlabel[2]{}
\providecommand\HyField@AuxAddToFields[1]{}
\providecommand\HyField@AuxAddToCoFields[2]{}
\babel@aux{czech}{}
\babel@aux{english}{}
\babel@aux{czech}{}
\babel@aux{czech}{}
\pgfsyspdfmark {pgfid1}{5719326}{47216927}
\pgfsyspdfmark {pgfid2}{5719326}{47216927}
\newlabel{striz-0-uvod/striz-predmluva}{{}{3}{}{section*.1}{}}
\babel@aux{czech}{}
\@writefile{toc}{\contentsline {part}{Redakce: \'Uvodn\IeC {\'\i }k}{3}{section*.2}\protected@file@percent }
\babel@aux{czech}{}
\newlabel{striz-1-1-prngbd/2024-striz-prngbd}{{}{4}{}{section*.3}{}}
\babel@aux{czech}{}
\@writefile{toc}{\contentsline {part}{Pavel St\v r\IeC {\'\i }\v z: Generov\'an\IeC {\'\i } pseudon\'ahodn\'eho \v c\IeC {\'\i }sla po cifr\'ach}{4}{section*.4}\protected@file@percent }
\babel@aux{czech}{}
\babel@aux{czech}{}
\babel@aux{czech}{}
\babel@aux{czech}{}
\babel@aux{english}{}
\babel@aux{czech}{}
\babel@aux{english}{}
\babel@aux{czech}{}
\@writefile{toc}{\contentsline {section}{\numberline {1}O~probl\'emu}{4}{section.5}\protected@file@percent }
\newlabel{vypocetrubik}{{1}{4}{O~problému}{section.5}{}}
\@writefile{toc}{\contentsline {section}{\numberline {2}Prvn\IeC {\'\i } \'uvaha}{5}{section.6}\protected@file@percent }
\@writefile{toc}{\contentsline {section}{\numberline {3}Druh\'a, o\v skliv\'a \'uvaha}{5}{section.7}\protected@file@percent }
\@writefile{toc}{\contentsline {section}{\numberline {4}Lep\v s\IeC {\'\i } n\'apad}{5}{section.8}\protected@file@percent }
\@writefile{toc}{\contentsline {section}{\numberline {5}Pozn\'amky k~program\r um}{8}{section.9}\protected@file@percent }
\@writefile{toc}{\contentsline {section}{\numberline {6}Simulujme!}{9}{section.10}\protected@file@percent }
\@writefile{toc}{\contentsline {section}{\numberline {7}Implementace}{12}{section.11}\protected@file@percent }
\newlabel{propython}{{7}{12}{Implementace}{section.11}{}}
\@writefile{toc}{\contentsline {section}{\numberline {8}Pozn\'amky k~editoru SciTE m\IeC {\'\i }sto Z\'av\v eru}{13}{section.12}\protected@file@percent }
\babel@aux{czech}{}
\newlabel{striz-1-2-ppamp/striz-ppamp}{{}{14}{}{section*.13}{}}
\babel@aux{czech}{}
\@writefile{toc}{\contentsline {part}{Pavel St\v r\IeC {\'\i }\v z: Recenze knihy: Permutation Puzzles -- A~Mathematical Perspective}{14}{section*.14}\protected@file@percent }
\babel@aux{czech}{}
\newlabel{striz-2-1-sugen/2024-striz-sugen}{{}{16}{}{section*.15}{}}
\babel@aux{czech}{}
\@writefile{toc}{\contentsline {part}{Pavel St\v r\IeC {\'\i }\v z: Sudoku s~p\v rekryvy: Ahoj, sv\v ete!}{16}{section*.16}\protected@file@percent }
\newlabel{sugen}{{}{16}{}{section*.16}{}}
\babel@aux{czech}{}
\babel@aux{czech}{}
\babel@aux{czech}{}
\babel@aux{czech}{}
\babel@aux{english}{}
\babel@aux{czech}{}
\babel@aux{english}{}
\babel@aux{czech}{}
\@writefile{toc}{\contentsline {section}{\numberline {1}N\'apad}{16}{section.17}\protected@file@percent }
\@writefile{toc}{\contentsline {section}{\numberline {2}Program sugen}{16}{section.18}\protected@file@percent }
\@writefile{toc}{\contentsline {section}{\numberline {3}Hello, World!}{17}{section.19}\protected@file@percent }
\@writefile{toc}{\contentsline {section}{\numberline {4}T\v ri injekce od pana doktora (\v ci sest\v ri\v cky)}{17}{section.20}\protected@file@percent }
\@writefile{toc}{\contentsline {section}{\numberline {5}D\IeC {\'\i }l\v c\IeC {\'\i } kroky}{18}{section.21}\protected@file@percent }
\@writefile{toc}{\contentsline {section}{\numberline {6}Kdy to nelze pou\v z\IeC {\'\i }t}{19}{section.22}\protected@file@percent }
\@writefile{toc}{\contentsline {section}{\numberline {7}Vzorek z vlastn\IeC {\'\i } zahr\'adky}{20}{section.23}\protected@file@percent }
\newlabel{3dreseni}{{7}{20}{Vzorek z vlastní zahrádky}{section.23}{}}
\newlabel{3dzadani}{{7}{21}{Vzorek z vlastní zahrádky}{section.23}{}}
\babel@aux{czech}{}
\newlabel{striz-2-2-picat/2024-striz-picat}{{}{22}{}{section*.24}{}}
\babel@aux{czech}{}
\@writefile{toc}{\contentsline {part}{Pavel St\v r\IeC {\'\i }\v z: \'Uvod do programu Picat}{22}{section*.25}\protected@file@percent }
\babel@aux{czech}{}
\babel@aux{czech}{}
\babel@aux{czech}{}
\babel@aux{czech}{}
\babel@aux{english}{}
\babel@aux{czech}{}
\babel@aux{english}{}
\babel@aux{czech}{}
\@writefile{toc}{\contentsline {section}{\numberline {1}B\'ad\'an\IeC {\'\i } nad sudoku s~p\v rekryvy}{22}{section.26}\protected@file@percent }
\@writefile{toc}{\contentsline {section}{\numberline {2}Ov\v e\v ren\IeC {\'\i } celku}{23}{section.27}\protected@file@percent }
\@writefile{toc}{\contentsline {section}{\numberline {3}Program Picat}{23}{section.28}\protected@file@percent }
\@writefile{toc}{\contentsline {section}{\numberline {4}Uk\'azka k\'odu}{23}{section.29}\protected@file@percent }
\@writefile{toc}{\contentsline {section}{\numberline {5}Spu\v st\v en\IeC {\'\i } programu}{24}{section.30}\protected@file@percent }
\@writefile{toc}{\contentsline {section}{\numberline {6}P\'ar slov z\'av\v erem}{25}{section.31}\protected@file@percent }
\babel@aux{czech}{}
\newlabel{striz-2-3-raylibr/2024-striz-raylibr}{{}{26}{}{section*.32}{}}
\babel@aux{czech}{}
\@writefile{toc}{\contentsline {part}{Pavel St\v r\IeC {\'\i }\v z: $\textrm  {Raylib}+\textrm  {R}=\textrm  {Raylib}\times \textrm  {R}=\textrm  {RaylibR}$: Ahoj, sv\v ete!}{26}{section*.33}\protected@file@percent }
\babel@aux{czech}{}
\babel@aux{czech}{}
\babel@aux{czech}{}
\babel@aux{czech}{}
\babel@aux{english}{}
\babel@aux{czech}{}
\babel@aux{english}{}
\babel@aux{czech}{}
\@writefile{toc}{\contentsline {section}{\numberline {1}Jak jsem do toho spadl}{26}{section.34}\protected@file@percent }
\@writefile{toc}{\contentsline {section}{\numberline {2}Instalace knihovny Raylib}{27}{section.35}\protected@file@percent }
\@writefile{toc}{\contentsline {section}{\numberline {3}Instalace RaylibR}{27}{section.36}\protected@file@percent }
\@writefile{toc}{\contentsline {section}{\numberline {4}N\v ekolik uk\'azek}{29}{section.37}\protected@file@percent }
\@writefile{toc}{\contentsline {section}{\numberline {5}Z\'av\v erem}{30}{section.38}\protected@file@percent }
\@writefile{toc}{\contentsline {section}{\numberline {6}Post Scriptum}{30}{section.39}\protected@file@percent }
\@writefile{toc}{\contentsline {section}{\numberline {7}Symbolick\'a pozn\'amka}{31}{section.40}\protected@file@percent }
\babel@aux{czech}{}
\newlabel{striz-2-4-tss/striz-tss}{{}{32}{}{section*.41}{}}
\babel@aux{czech}{}
\newlabel{tss}{{}{32}{}{section*.41}{}}
\babel@aux{czech}{}
\newlabel{striz-2-5-gms/striz-gms}{{}{35}{}{section*.42}{}}
\babel@aux{czech}{}
\newlabel{gms}{{}{35}{}{section*.42}{}}
\babel@aux{czech}{}
\newlabel{striz-2-6-reserse-sudoku/striz-reserse-sudoku}{{}{37}{}{section*.43}{}}
\babel@aux{czech}{}
\@writefile{toc}{\contentsline {part}{Pavel St\v r\IeC {\'\i }\v z: Re\v ser\v se zdroj\r u: Logick\'a hra sudoku}{37}{section*.44}\protected@file@percent }
\babel@aux{czech}{}
\newlabel{striz-3-1-tex/2024-striz-novinky}{{}{39}{}{section*.50}{}}
\babel@aux{czech}{}
\@writefile{toc}{\contentsline {part}{Pavel St\v r\IeC {\'\i }\v z: Nov\'e a~aktualizovan\'e bal\IeC {\'\i }\v cky v~T\kern -.1667em\lower .5ex\hbox {E}\kern -.125emXov\'em sv\v et\v e}{39}{section*.51}\protected@file@percent }
\babel@aux{czech}{}
\babel@aux{czech}{}
\babel@aux{czech}{}
\babel@aux{czech}{}
\babel@aux{english}{}
\babel@aux{czech}{}
\babel@aux{english}{}
\babel@aux{czech}{}
\@writefile{toc}{\contentsline {section}{\numberline {1}Hled\'an\IeC {\'\i } novinek}{39}{section.52}\protected@file@percent }
\@writefile{toc}{\contentsline {section}{\numberline {2}Python3 na pomoc}{40}{section.53}\protected@file@percent }
\@writefile{toc}{\contentsline {section}{\numberline {3}Novinky v grafice, PlainT\kern -.1667em\lower .5ex\hbox {E}\kern -.125emXu a \LaTeX  u}{41}{section.54}\protected@file@percent }
\@writefile{toc}{\contentsline {subsection}{\numberline {3.1}Ti\emph  {k}Z}{41}{subsection.55}\protected@file@percent }
\@writefile{toc}{\contentsline {subsection}{\numberline {3.2}\textlogo  {META}\@dischyph \textlogo  {POST}\spacefactor \@m {}}{42}{subsection.56}\protected@file@percent }
\@writefile{toc}{\contentsline {subsection}{\numberline {3.3}Lua, Python}{44}{subsection.57}\protected@file@percent }
\@writefile{toc}{\contentsline {subsection}{\numberline {3.4}Matematika, fyzika, chemie}{44}{subsection.58}\protected@file@percent }
\@writefile{toc}{\contentsline {subsection}{\numberline {3.5}Rejst\v r\IeC {\'\i }ky}{45}{subsection.59}\protected@file@percent }
\@writefile{toc}{\contentsline {subsection}{\numberline {3.6}Hry}{45}{subsection.60}\protected@file@percent }
\@writefile{toc}{\contentsline {subsection}{\numberline {3.7}N\'ahled na p\IeC {\'\i }smo}{46}{subsection.61}\protected@file@percent }
\@writefile{toc}{\contentsline {subsection}{\numberline {3.8}Symboly}{46}{subsection.62}\protected@file@percent }
\@writefile{toc}{\contentsline {subsection}{\numberline {3.9}Od m\IeC {\'\i }stn\IeC {\'\i }ch}{47}{subsection.63}\protected@file@percent }
\@writefile{toc}{\contentsline {section}{\numberline {4}Novinky v \ConTeXt  u}{48}{section.64}\protected@file@percent }
\@writefile{toc}{\contentsline {section}{\numberline {5}M\IeC {\'\i }sto Z\'av\v eru jeden Einstein}{48}{section.65}\protected@file@percent }
\@writefile{toc}{\contentsline {section}{\numberline {6}Post Scriptum}{49}{section.66}\protected@file@percent }
\babel@aux{czech}{}
\newlabel{striz-3-2-reserse-monotile/striz-reserse-monotile}{{}{50}{}{section*.67}{}}
\babel@aux{czech}{}
\@writefile{toc}{\contentsline {part}{Pavel St\v r\IeC {\'\i }\v z: Re\v ser\v se zdroj\r u: Neperiodick\'y d\IeC {\'\i }lek}{50}{section*.68}\protected@file@percent }
\pgfsyspdfmark {pgfid6}{5719326}{47216927}
\pgfsyspdfmark {pgfid7}{5719326}{47216927}
\babel@aux{czech}{}
\gdef \@abspage@last{52}
