\relax 
\providecommand\babel@aux[2]{}
\@nameuse{bbl@beforestart}
\catcode `^\active 
\catcode `"\active 
\catcode `'\active 
\catcode `-\active 
\providecommand\hyper@newdestlabel[2]{}
\providecommand\HyField@AuxAddToFields[1]{}
\providecommand\HyField@AuxAddToCoFields[2]{}
\babel@aux{czech}{}
\babel@aux{english}{}
\babel@aux{czech}{}
\babel@aux{czech}{}
\pgfsyspdfmark {pgfid1}{5719326}{47403394}
\pgfsyspdfmark {pgfid2}{5719326}{47403394}
\citation{KLSS}
\citation{KDL}
\newlabel{karpisek/karpisek}{{}{3}{}{section*.1}{}}
\babel@aux{czech}{}
\@writefile{toc}{\contentsline {part}{Zden\v ek Karp\IeC {\'\i }\v sek, Veronika Lacinov\'a, Jakub \v S\'acha, Tom\'a\v s Posp\IeC {\'\i }\v sil: Line\'arn\IeC {\'\i } regresn\IeC {\'\i } model fuzzy \v {c}asov\'{e} \v {r}ady}{3}{section*.2}\protected@file@percent }
\babel@aux{czech}{}
\babel@aux{czech}{}
\babel@aux{czech}{}
\babel@aux{czech}{}
\babel@aux{english}{}
\babel@aux{czech}{}
\babel@aux{english}{}
\babel@aux{czech}{}
\@writefile{toc}{\contentsline {section}{\numberline {1}\'Uvod}{3}{section.3}\protected@file@percent }
\newlabel{uvod}{{1}{3}{Úvod}{section.3}{}}
\citation{And}
\citation{MR}
\citation{T}
\@writefile{brf}{\backcite{KLSS}{{4}{1}{section.3}}}
\@writefile{brf}{\backcite{KDL}{{4}{1}{section.3}}}
\@writefile{toc}{\contentsline {section}{\numberline {2}Line\'arn\IeC {\'\i } regresn\IeC {\'\i } model \v casov\'e \v rady}{4}{section.4}\protected@file@percent }
\newlabel{linearni}{{2}{4}{Lineární regresní model časové řady}{section.4}{}}
\@writefile{brf}{\backcite{And}{{4}{2}{section.4}}}
\@writefile{brf}{\backcite{MR}{{4}{2}{section.4}}}
\@writefile{brf}{\backcite{T}{{4}{2}{section.4}}}
\citation{KY}
\citation{M}
\citation{KDL}
\@writefile{toc}{\contentsline {section}{\numberline {3}Fuzzy \v c\IeC {\'\i }sla -- z\'akladn\IeC {\'\i } pojmy a~vlastnosti}{6}{section.5}\protected@file@percent }
\newlabel{fuzzy}{{3}{6}{Fuzzy čísla -- základní pojmy a~vlastnosti}{section.5}{}}
\@writefile{brf}{\backcite{KY}{{6}{3}{section.5}}}
\@writefile{brf}{\backcite{M}{{6}{3}{section.5}}}
\@writefile{brf}{\backcite{KDL}{{7}{3}{Item.7}}}
\@writefile{toc}{\contentsline {section}{\numberline {4}Fuzzy line\'arn\IeC {\'\i } regresn\IeC {\'\i } model fuzzy \v casov\'e \v rady}{8}{section.11}\protected@file@percent }
\newlabel{fuzzyl}{{4}{8}{Fuzzy lineární regresní model fuzzy časové řady}{section.11}{}}
\@writefile{toc}{\contentsline {section}{\numberline {5}P\v r\IeC {\'\i }klad u\v zit\IeC {\'\i } fuzzy line\'arn\IeC {\'\i }ho regresn\IeC {\'\i }ho modelu}{9}{section.14}\protected@file@percent }
\@writefile{lof}{\contentsline {figure}{\numberline {1}{\ignorespaces Graf funkce p\v r\IeC {\'\i }slu\v snosti troj\'uheln\IeC {\'\i }kov\'eho fuzzy \v c\IeC {\'\i }sla.}}{10}{figure.caption.15}\protected@file@percent }
\providecommand*\caption@xref[2]{\@setref\relax\@undefined{#1}}
\newlabel{fig:1}{{1}{10}{Graf funkce příslušnosti trojúhelníkového fuzzy čísla}{figure.caption.15}{}}
\@writefile{lot}{\contentsline {table}{\numberline {1}{\ignorespaces Hodnoty p\r uvodn\IeC {\'\i } a~fuzzifikovan\'e \v casov\'e \v rady.}}{11}{table.caption.16}\protected@file@percent }
\newlabel{tab:1}{{1}{11}{Hodnoty původní a~fuzzifikované časové řady}{table.caption.16}{}}
\@writefile{lot}{\contentsline {table}{\numberline {2}{\ignorespaces Hodnoty fuzzy \v casov\'e \v rady a~jejich odhady v~\v case $t$.}}{11}{table.caption.17}\protected@file@percent }
\newlabel{tab:2}{{2}{11}{Hodnoty fuzzy časové řady a~jejich odhady v~čase $t$}{table.caption.17}{}}
\@writefile{lof}{\contentsline {figure}{\numberline {2}{\ignorespaces Graf nosi\v c\r u fuzzy \v casov\'e \v rady a~odhad\r u hodnot fuzzy \v casov\'e \v rady.}}{12}{figure.caption.18}\protected@file@percent }
\newlabel{fig:2}{{2}{12}{Graf nosičů fuzzy časové řady a~odhadů hodnot fuzzy časové řady}{figure.caption.18}{}}
\@writefile{lof}{\contentsline {figure}{\numberline {3}{\ignorespaces 3D graf funkce p\v r\IeC {\'\i }slu\v snosti hodnot fuzzy \v casov\'e \v rady (te\v ckovan\'a \v c\'ara) a~odhad\r u hodnot fuzzy \v casov\'e \v rady (pln\'a \v c\'ara).}}{12}{figure.caption.19}\protected@file@percent }
\newlabel{fig:3}{{3}{12}{3D graf funkce příslušnosti hodnot fuzzy časové řady (tečkovaná čára) a~odhadů hodnot fuzzy časové řady (plná čára)}{figure.caption.19}{}}
\bibcite{And}{1}
\bibcite{KLSS}{2}
\bibcite{KDL}{3}
\bibcite{KY}{4}
\bibcite{M}{5}
\bibcite{MR}{6}
\bibcite{T}{7}
\@writefile{toc}{\contentsline {section}{\numberline {6}Z\'av\v er}{13}{section.20}\protected@file@percent }
\babel@aux{czech}{}
\newlabel{striz-cam/striz-cam}{{}{14}{}{section*.22}{}}
\babel@aux{czech}{}
\babel@aux{czech}{}
\newlabel{striz-baaala/striz-baaala}{{}{16}{}{section*.23}{}}
\babel@aux{czech}{}
\@writefile{toc}{\contentsline {part}{Pavel St\v r\IeC {\'\i }\v z: Roz\v s\IeC {\'\i }\v ren\'a recenze knihy: Bioinformatics Algorithms --An Active Learning Approach, Vol. I, II}{16}{section*.24}\protected@file@percent }
\babel@aux{czech}{}
\newlabel{striz-cp4/striz-cp4}{{}{24}{}{section*.25}{}}
\babel@aux{czech}{}
\@writefile{toc}{\contentsline {part}{Pavel St\v r\IeC {\'\i }\v z: Recenze knihy: Competitive Programming 4}{24}{section*.26}\protected@file@percent }
\babel@aux{czech}{}
\newlabel{rybicka/rybicka}{{}{27}{}{section*.27}{}}
\babel@aux{czech}{}
\@writefile{toc}{\contentsline {part}{Ji\v r\IeC {\'\i } Rybi\v cka: Zpr\'ava o konferenci OSSConf 2024}{27}{section*.28}\protected@file@percent }
\babel@aux{czech}{}
\gdef \@abspage@last{30}
