\BOOKMARK [0][]{section*.2}{\376\377\000Z\000d\000e\000n\001\033\000k\000\040\000K\000a\000r\000p\000\355\001\141\000e\000k\000,\000\040\000V\000e\000r\000o\000n\000i\000k\000a\000\040\000L\000a\000c\000i\000n\000o\000v\000\341\000,\000\040\000J\000a\000k\000u\000b\000\040\001\140\000\341\000c\000h\000a\000,\000\040\000T\000o\000m\000\341\001\141\000\040\000P\000o\000s\000p\000\355\001\141\000i\000l\000:\000\040\000L\000i\000n\000e\000\341\000r\000n\000\355\000\040\000r\000e\000g\000r\000e\000s\000n\000\355\000\040\000m\000o\000d\000e\000l\000\040\000f\000u\000z\000z\000y\000\040\001\015\000a\000s\000o\000v\000\351\000\040\001\131\000a\000d\000y}{}% 1
\BOOKMARK [1][]{section.3}{\376\377\0001\000\040\000\332\000v\000o\000d}{section*.2}% 2
\BOOKMARK [1][]{section.4}{\376\377\0002\000\040\000L\000i\000n\000e\000\341\000r\000n\000\355\000\040\000r\000e\000g\000r\000e\000s\000n\000\355\000\040\000m\000o\000d\000e\000l\000\040\001\015\000a\000s\000o\000v\000\351\000\040\001\131\000a\000d\000y}{section*.2}% 3
\BOOKMARK [1][]{section.5}{\376\377\0003\000\040\000F\000u\000z\000z\000y\000\040\001\015\000\355\000s\000l\000a\000\040\040\023\000\040\000z\000\341\000k\000l\000a\000d\000n\000\355\000\040\000p\000o\000j\000m\000y\000\040\000a\000\040\000v\000l\000a\000s\000t\000n\000o\000s\000t\000i}{section*.2}% 4
\BOOKMARK [1][]{section.11}{\376\377\0004\000\040\000F\000u\000z\000z\000y\000\040\000l\000i\000n\000e\000\341\000r\000n\000\355\000\040\000r\000e\000g\000r\000e\000s\000n\000\355\000\040\000m\000o\000d\000e\000l\000\040\000f\000u\000z\000z\000y\000\040\001\015\000a\000s\000o\000v\000\351\000\040\001\131\000a\000d\000y}{section*.2}% 5
\BOOKMARK [1][]{section.14}{\376\377\0005\000\040\000P\001\131\000\355\000k\000l\000a\000d\000\040\000u\001\176\000i\000t\000\355\000\040\000f\000u\000z\000z\000y\000\040\000l\000i\000n\000e\000\341\000r\000n\000\355\000h\000o\000\040\000r\000e\000g\000r\000e\000s\000n\000\355\000h\000o\000\040\000m\000o\000d\000e\000l\000u}{section*.2}% 6
\BOOKMARK [1][]{section.20}{\376\377\0006\000\040\000Z\000\341\000v\001\033\000r}{section*.2}% 7
\BOOKMARK [0][]{section*.24}{\376\377\000P\000a\000v\000e\000l\000\040\000S\000t\001\131\000\355\001\176\000:\000\040\000R\000o\000z\001\141\000\355\001\131\000e\000n\000\341\000\040\000r\000e\000c\000e\000n\000z\000e\000\040\000k\000n\000i\000h\000y\000:\000\040\000B\000i\000o\000i\000n\000f\000o\000r\000m\000a\000t\000i\000c\000s\000\040\000A\000l\000g\000o\000r\000i\000t\000h\000m\000s\000\040\040\023\000A\000n\000\040\000A\000c\000t\000i\000v\000e\000\040\000L\000e\000a\000r\000n\000i\000n\000g\000\040\000A\000p\000p\000r\000o\000a\000c\000h\000,\000\040\000V\000o\000l\000.\000\040\000I\000,\000\040\000I\000I}{}% 8
\BOOKMARK [0][]{section*.26}{\376\377\000P\000a\000v\000e\000l\000\040\000S\000t\001\131\000\355\001\176\000:\000\040\000R\000e\000c\000e\000n\000z\000e\000\040\000k\000n\000i\000h\000y\000:\000\040\000C\000o\000m\000p\000e\000t\000i\000t\000i\000v\000e\000\040\000P\000r\000o\000g\000r\000a\000m\000m\000i\000n\000g\000\040\0004}{}% 9
\BOOKMARK [0][]{section*.28}{\376\377\000J\000i\001\131\000\355\000\040\000R\000y\000b\000i\001\015\000k\000a\000:\000\040\000Z\000p\000r\000\341\000v\000a\000\040\000o\000\040\000k\000o\000n\000f\000e\000r\000e\000n\000c\000i\000\040\000O\000S\000S\000C\000o\000n\000f\000\040\0002\0000\0002\0004}{}% 10
