\relax 
\providecommand\hyper@newdestlabel[2]{}
\providecommand\babel@aux[2]{}
\@nameuse{bbl@beforestart}
\catcode `"\active 
\catcode `-\active 
\catcode `^\active 
\catcode `'\active 
\providecommand\HyperFirstAtBeginDocument{\AtBeginDocument}
\HyperFirstAtBeginDocument{\ifx\hyper@anchor\@undefined
\global\let\oldcontentsline\contentsline
\gdef\contentsline#1#2#3#4{\oldcontentsline{#1}{#2}{#3}}
\global\let\oldnewlabel\newlabel
\gdef\newlabel#1#2{\newlabelxx{#1}#2}
\gdef\newlabelxx#1#2#3#4#5#6{\oldnewlabel{#1}{{#2}{#3}}}
\AtEndDocument{\ifx\hyper@anchor\@undefined
\let\contentsline\oldcontentsline
\let\newlabel\oldnewlabel
\fi}
\fi}
\global\let\hyper@last\relax 
\gdef\HyperFirstAtBeginDocument#1{#1}
\providecommand\HyField@AuxAddToFields[1]{}
\providecommand\HyField@AuxAddToCoFields[2]{}
\babel@aux{czech}{}
\babel@aux{english}{}
\babel@aux{slovak}{}
\babel@aux{czech}{}
\pgfsyspdfmark {pgfid4}{5719326}{47216927}
\pgfsyspdfmark {pgfid5}{5719326}{47216927}
\citation{hus}
\citation{and}
\citation{rob}
\citation{jay}
\newlabel{kalina/kalina}{{}{3}{}{section*.1}{}}
\babel@aux{czech}{}
\@writefile{toc}{\contentsline {part}{Jan Kalina, Lubom\IeC {\'\i }r Soukup: Bayesovsk\'e odhady: P\v rirozen\'y n\'astroj pro vyu\v zit\IeC {\'\i } apriorn\IeC {\'\i } informace}{3}{section*.2}\protected@file@percent }
\babel@aux{czech}{}
\babel@aux{czech}{}
\babel@aux{czech}{}
\babel@aux{czech}{}
\babel@aux{english}{}
\babel@aux{czech}{}
\babel@aux{english}{}
\babel@aux{czech}{}
\@writefile{toc}{\contentsline {section}{\numberline {1.}Bayesovsk\'e odhady}{3}{section.3}\protected@file@percent }
\@writefile{brf}{\backcite{hus}{{3}{1.}{section.3}}}
\@writefile{brf}{\backcite{and}{{3}{1.}{section.3}}}
\citation{sti1973}
\citation{sti1977}
\citation{kal}
\@writefile{brf}{\backcite{rob}{{4}{1.}{section.3}}}
\@writefile{brf}{\backcite{jay}{{4}{1.}{section.3}}}
\@writefile{toc}{\contentsline {section}{\numberline {2.}St\v redn\IeC {\'\i } hodnota norm\'aln\IeC {\'\i }ho rozd\v elen\IeC {\'\i }}{4}{section.4}\protected@file@percent }
\newlabel{sec:mu}{{2.}{4}{Střední hodnota normálního rozdělení}{section.4}{}}
\@writefile{toc}{\contentsline {subsection}{\numberline {2.1.}Jednorozm\v ern\'y p\v r\IeC {\'\i }pad}{4}{subsection.5}\protected@file@percent }
\@writefile{brf}{\backcite{sti1973}{{4}{1}{Hfootnote.6}}}
\@writefile{brf}{\backcite{sti1977}{{4}{1}{Hfootnote.6}}}
\@writefile{brf}{\backcite{kal}{{4}{2}{Hfootnote.7}}}
\citation{and}
\citation{hus}
\citation{and}
\citation{and}
\citation{hus}
\@writefile{brf}{\backcite{and,hus}{{5}{2.1.}{equation.11}}}
\@writefile{brf}{\backcite{and}{{5}{II}{Item.14}}}
\@writefile{brf}{\backcite{and}{{5}{2.1.}{Item.14}}}
\@writefile{brf}{\backcite{hus}{{5}{2.1.}{Item.14}}}
\newlabel{e:slunce}{{3}{5}{Jednorozměrný případ}{equation.15}{}}
\citation{eva}
\newlabel{e:jednorozm}{{5}{6}{Jednorozměrný případ}{equation.17}{}}
\@writefile{toc}{\contentsline {subsection}{\numberline {2.2.}Mnohorozm\v ern\'y p\v r\IeC {\'\i }pad}{6}{subsection.18}\protected@file@percent }
\@writefile{brf}{\backcite{eva}{{6}{2.2.}{equation.19}}}
\newlabel{e:mnoho}{{7}{6}{Mnohorozměrný případ}{equation.20}{}}
\citation{ste}
\citation{efr}
\citation{eva}
\citation{haf}
\newlabel{e:stein}{{11}{7}{Mnohorozměrný případ}{equation.24}{}}
\@writefile{brf}{\backcite{ste}{{7}{2.2.}{equation.24}}}
\@writefile{brf}{\backcite{efr}{{7}{2.2.}{equation.24}}}
\@writefile{toc}{\contentsline {section}{\numberline {3.}Varian\v cn\IeC {\'\i } matice mnohorozm\v ern\'eho norm\'aln\IeC {\'\i }ho\\rozd\v elen\IeC {\'\i }}{7}{section.25}\protected@file@percent }
\@writefile{brf}{\backcite{eva}{{7}{3.}{equation.26}}}
\newlabel{e:esigma}{{13}{7}{Varianční matice mnohorozměrného normálního\\rozdělení}{equation.27}{}}
\newlabel{e:hatsigma}{{14}{7}{Varianční matice mnohorozměrného normálního\\rozdělení}{equation.28}{}}
\@writefile{brf}{\backcite{haf}{{7}{3.}{equation.28}}}
\citation{and}
\@writefile{toc}{\contentsline {section}{\numberline {4.}Binomick\'e rozd\v elen\IeC {\'\i }}{8}{section.31}\protected@file@percent }
\@writefile{brf}{\backcite{and}{{8}{4.}{section.31}}}
\newlabel{e:binom}{{17}{8}{Binomické rozdělení}{equation.32}{}}
\citation{has}
\@writefile{toc}{\contentsline {section}{\numberline {5.}Line\'arn\IeC {\'\i } regrese}{9}{section.36}\protected@file@percent }
\newlabel{e:lin}{{21}{9}{Lineární regrese}{equation.37}{}}
\@writefile{toc}{\contentsline {subsection}{\numberline {5.1.}H\v rebenov\'a regrese}{9}{subsection.39}\protected@file@percent }
\newlabel{sec:ridge}{{5.1.}{9}{Hřebenová regrese}{subsection.39}{}}
\@writefile{brf}{\backcite{has}{{9}{5.1.}{subsection.39}}}
\newlabel{e:ridgeest}{{23}{9}{Hřebenová regrese}{equation.40}{}}
\citation{tib}
\citation{han}
\citation{wie}
\newlabel{e:ridgefinal}{{24}{10}{Hřebenová regrese}{equation.41}{}}
\@writefile{toc}{\contentsline {subsection}{\numberline {5.2.}Lasso}{10}{subsection.42}\protected@file@percent }
\@writefile{brf}{\backcite{tib,han}{{10}{5.2.}{subsection.42}}}
\newlabel{e:lasso1}{{25}{10}{Lasso}{equation.43}{}}
\citation{ner}
\citation{hay}
\citation{has}
\@writefile{brf}{\backcite{wie}{{11}{5.2.}{equation.44}}}
\newlabel{e:lasso2}{{27}{11}{Lasso}{equation.45}{}}
\@writefile{toc}{\contentsline {section}{\numberline {6.}Regulariza\v cn\IeC {\'\i } s\IeC {\'\i }t\v e}{11}{section.47}\protected@file@percent }
\@writefile{brf}{\backcite{ner}{{11}{6.}{section.47}}}
\@writefile{brf}{\backcite{hay}{{11}{6.}{section.47}}}
\newlabel{e:r}{{28}{11}{Regularizační sítě}{equation.48}{}}
\newlabel{e:hk}{{29}{11}{Regularizační sítě}{equation.49}{}}
\@writefile{brf}{\backcite{has}{{11}{6.}{equation.49}}}
\citation{has:lasso}
\citation{hwa}
\citation{cal}
\citation{pou}
\newlabel{e:alfa}{{32}{12}{Regularizační sítě}{equation.52}{}}
\@writefile{toc}{\contentsline {section}{\numberline {7.}Z\'av\v er}{12}{section.54}\protected@file@percent }
\@writefile{brf}{\backcite{has:lasso}{{12}{7.}{section.54}}}
\@writefile{brf}{\backcite{hwa}{{12}{7.}{section.54}}}
\@writefile{brf}{\backcite{cal,pou}{{12}{7.}{section.54}}}
\citation{che}
\citation{gau}
\bibcite{and}{1}
\@writefile{brf}{\backcite{che}{{13}{7.}{section.54}}}
\babel@aux{english}{}
\@writefile{brf}{\backcite{gau}{{13}{8}{Hfootnote.57}}}
\bibcite{cal}{2}
\bibcite{che}{3}
\bibcite{efr}{4}
\bibcite{eva}{5}
\bibcite{gau}{6}
\bibcite{haf}{7}
\bibcite{han}{8}
\bibcite{has}{9}
\bibcite{has:lasso}{10}
\bibcite{hay}{11}
\bibcite{hus}{12}
\bibcite{hwa}{13}
\bibcite{jay}{14}
\bibcite{kal}{15}
\bibcite{ner}{16}
\bibcite{pou}{17}
\bibcite{rob}{18}
\bibcite{ste}{19}
\bibcite{sti1973}{20}
\bibcite{sti1977}{21}
\bibcite{tib}{22}
\bibcite{wie}{23}
\babel@aux{czech}{}
\babel@aux{czech}{}
\newlabel{vencalek/fenstats}{{}{16}{}{section*.60}{}}
\babel@aux{czech}{}
\@writefile{toc}{\contentsline {part}{Ond\v rej Venc\'alek: Novinky z~Federace evropsk\'ych n\'arodn\IeC {\'\i }ch statistick\'ychspole\v cnost\IeC {\'\i } FENStatS}{16}{section*.61}\protected@file@percent }
\babel@aux{czech}{}
\citation{1}
\newlabel{vencalek/dohnal}{{}{17}{}{section*.62}{}}
\babel@aux{czech}{}
\@writefile{toc}{\contentsline {part}{Gejza Dohnal: Zlep\v sen\IeC {\'\i } mo\v znost\IeC {\'\i } financov\'an\IeC {\'\i } statistick\'eho v\'yzkumu ze stranyEvropsk\'e rady pro v\'yzkum}{17}{section*.63}\protected@file@percent }
\@writefile{brf}{\backcite{1}{{17}{(document)}{Doc-Start}}}
\bibcite{1}{1}
\babel@aux{czech}{}
\newlabel{vencalek/schuller}{{}{19}{}{section*.66}{}}
\babel@aux{czech}{}
\@writefile{toc}{\contentsline {part}{Katharina Sch\" uller: Zpr\'ava o~\v cinnosti mezin\'arodn\IeC {\'\i } pracovn\IeC {\'\i } skupiny COVID-19(ve spolupr\'aci se skupinou pro vzd\v el\'av\'an\IeC {\'\i })}{19}{section*.67}\protected@file@percent }
\@writefile{toc}{\contentsline {section}{\numberline {1.}Webov\'e str\'anky}{19}{section.68}\protected@file@percent }
\@writefile{toc}{\contentsline {section}{\numberline {2.}Kurz (MOOC) Rozhodov\'an\IeC {\'\i } na z\'aklad\v e dat v~dob\v e pandemie (Data-informed Decision Making in a~Pandemic)}{19}{section.69}\protected@file@percent }
\@writefile{toc}{\contentsline {section}{\numberline {3.}Z\'asady datov\'e gramotnosti}{19}{section.70}\protected@file@percent }
\@writefile{toc}{\contentsline {section}{\numberline {4.}Standard pro gramotnost v~oblasti dat a~um\v el\'e inteligence}{20}{section.71}\protected@file@percent }
\babel@aux{czech}{}
\newlabel{vencalek/konference-ssds}{{}{20}{}{section*.72}{}}
\babel@aux{czech}{}
\@writefile{toc}{\contentsline {part}{Ond\v rej Venc\'alek: Zpr\' ava z~v\' yro\v cn\' i~dvojkonference S\v SDS}{20}{section*.73}\protected@file@percent }
\babel@aux{czech}{}
\gdef \@abspage@last{22}
